2023-08-24 22:45:59,935 WARNING database DDL Query made to DB:
create table `tabMonthly Distribution` (
			name varchar(140) primary key,
			creation datetime(6),
			modified datetime(6),
			modified_by varchar(140),
			owner varchar(140),
			docstatus int(1) not null default '0',
			idx int(8) not null default '0',
			`distribution_id` varchar(140),
`fiscal_year` varchar(140),
`_user_tags` text,
`_comments` text,
`_assign` text,
`_liked_by` text,
index `fiscal_year`(`fiscal_year`),

			index modified(modified))
			ENGINE=InnoDB
			ROW_FORMAT=DYNAMIC
			CHARACTER SET=utf8mb4
			COLLATE=utf8mb4_unicode_ci
2023-08-24 22:46:00,047 WARNING database DDL Query made to DB:
create table `tabProcess Payment Reconciliation Log` (
			name varchar(140) primary key,
			creation datetime(6),
			modified datetime(6),
			modified_by varchar(140),
			owner varchar(140),
			docstatus int(1) not null default '0',
			idx int(8) not null default '0',
			`process_pr` varchar(140),
`status` varchar(140),
`allocated` int(1) not null default 0,
`reconciled` int(1) not null default 0,
`total_allocations` int(11) not null default 0,
`reconciled_entries` int(11) not null default 0,
`error_log` longtext,
`_user_tags` text,
`_comments` text,
`_assign` text,
`_liked_by` text,

			index modified(modified))
			ENGINE=InnoDB
			ROW_FORMAT=DYNAMIC
			CHARACTER SET=utf8mb4
			COLLATE=utf8mb4_unicode_ci
2023-08-24 22:46:00,138 WARNING database DDL Query made to DB:
create table `tabPayment Schedule` (
			name varchar(140) primary key,
			creation datetime(6),
			modified datetime(6),
			modified_by varchar(140),
			owner varchar(140),
			docstatus int(1) not null default '0',
			idx int(8) not null default '0',
			`payment_term` varchar(140),
`description` text,
`due_date` date,
`mode_of_payment` varchar(140),
`invoice_portion` decimal(21,9) not null default 0,
`discount_type` varchar(140) default 'Percentage',
`discount_date` date,
`discount` decimal(21,9) not null default 0,
`payment_amount` decimal(21,9) not null default 0,
`outstanding` decimal(21,9) not null default 0,
`paid_amount` decimal(21,9) not null default 0,
`discounted_amount` decimal(21,9) not null default 0,
`base_payment_amount` decimal(21,9) not null default 0,
parent varchar(140),
parentfield varchar(140),
parenttype varchar(140),
index parent(parent),

			index modified(modified))
			ENGINE=InnoDB
			ROW_FORMAT=DYNAMIC
			CHARACTER SET=utf8mb4
			COLLATE=utf8mb4_unicode_ci
2023-08-24 22:46:00,325 WARNING database DDL Query made to DB:
create table `tabPurchase Invoice Item` (
			name varchar(140) primary key,
			creation datetime(6),
			modified datetime(6),
			modified_by varchar(140),
			owner varchar(140),
			docstatus int(1) not null default '0',
			idx int(8) not null default '0',
			`item_code` varchar(140),
`product_bundle` varchar(140),
`item_name` varchar(140),
`description` longtext,
`brand` varchar(140),
`item_group` varchar(140),
`image` text,
`received_qty` decimal(21,9) not null default 0,
`qty` decimal(21,9) not null default 0,
`rejected_qty` decimal(21,9) not null default 0,
`uom` varchar(140),
`conversion_factor` decimal(21,9) not null default 1.0,
`stock_uom` varchar(140),
`stock_qty` decimal(21,9) not null default 0,
`price_list_rate` decimal(21,9) not null default 0,
`base_price_list_rate` decimal(21,9) not null default 0,
`margin_type` varchar(140),
`margin_rate_or_amount` decimal(21,9) not null default 0,
`rate_with_margin` decimal(21,9) not null default 0,
`discount_percentage` decimal(21,9) not null default 0,
`discount_amount` decimal(21,9) not null default 0,
`base_rate_with_margin` decimal(21,9) not null default 0,
`rate` decimal(21,9) not null default 0,
`amount` decimal(21,9) not null default 0,
`item_tax_template` varchar(140),
`base_rate` decimal(21,9) not null default 0,
`base_amount` decimal(21,9) not null default 0,
`pricing_rules` text,
`stock_uom_rate` decimal(21,9) not null default 0,
`is_free_item` int(1) not null default 0,
`apply_tds` int(1) not null default 1,
`net_rate` decimal(21,9) not null default 0,
`net_amount` decimal(21,9) not null default 0,
`base_net_rate` decimal(21,9) not null default 0,
`base_net_amount` decimal(21,9) not null default 0,
`valuation_rate` decimal(21,9) not null default 0,
`item_tax_amount` decimal(21,9) not null default 0,
`landed_cost_voucher_amount` decimal(21,9) not null default 0,
`rm_supp_cost` decimal(21,9) not null default 0,
`warehouse` varchar(140),
`from_warehouse` varchar(140),
`quality_inspection` varchar(140),
`serial_no` text,
`rejected_warehouse` varchar(140),
`batch_no` varchar(140),
`rejected_serial_no` text,
`manufacturer` varchar(140),
`manufacturer_part_no` varchar(140),
`expense_account` varchar(140),
`is_fixed_asset` int(1) not null default 0,
`asset_location` varchar(140),
`asset_category` varchar(140),
`deferred_expense_account` varchar(140),
`service_stop_date` date,
`enable_deferred_expense` int(1) not null default 0,
`service_start_date` date,
`service_end_date` date,
`allow_zero_valuation_rate` int(1) not null default 0,
`item_tax_rate` longtext,
`bom` varchar(140),
`include_exploded_items` int(1) not null default 0,
`purchase_invoice_item` varchar(140),
`purchase_order` varchar(140),
`po_detail` varchar(140),
`purchase_receipt` varchar(140),
`pr_detail` varchar(140),
`sales_invoice_item` varchar(140),
`weight_per_unit` decimal(21,9) not null default 0,
`total_weight` decimal(21,9) not null default 0,
`weight_uom` varchar(140),
`project` varchar(140),
`cost_center` varchar(140),
`page_break` int(1) not null default 0,
index `item_code`(`item_code`),
index `purchase_order`(`purchase_order`),
index `po_detail`(`po_detail`),
index `purchase_receipt`(`purchase_receipt`),
index `pr_detail`(`pr_detail`),
parent varchar(140),
parentfield varchar(140),
parenttype varchar(140),
index parent(parent),

			index modified(modified))
			ENGINE=InnoDB
			ROW_FORMAT=DYNAMIC
			CHARACTER SET=utf8mb4
			COLLATE=utf8mb4_unicode_ci
2023-08-24 22:46:00,414 WARNING database DDL Query made to DB:
create table `tabMode of Payment` (
			name varchar(140) primary key,
			creation datetime(6),
			modified datetime(6),
			modified_by varchar(140),
			owner varchar(140),
			docstatus int(1) not null default '0',
			idx int(8) not null default '0',
			`mode_of_payment` varchar(140) unique,
`enabled` int(1) not null default 1,
`type` varchar(140),
`_user_tags` text,
`_comments` text,
`_assign` text,
`_liked_by` text,

			index modified(modified))
			ENGINE=InnoDB
			ROW_FORMAT=DYNAMIC
			CHARACTER SET=utf8mb4
			COLLATE=utf8mb4_unicode_ci
2023-08-24 22:46:00,472 WARNING database DDL Query made to DB:
create table `tabSales Partner Item` (
			name varchar(140) primary key,
			creation datetime(6),
			modified datetime(6),
			modified_by varchar(140),
			owner varchar(140),
			docstatus int(1) not null default '0',
			idx int(8) not null default '0',
			`sales_partner` varchar(140),
parent varchar(140),
parentfield varchar(140),
parenttype varchar(140),
index parent(parent),

			index modified(modified))
			ENGINE=InnoDB
			ROW_FORMAT=DYNAMIC
			CHARACTER SET=utf8mb4
			COLLATE=utf8mb4_unicode_ci
2023-08-24 22:46:00,515 WARNING database DDL Query made to DB:
create table `tabCurrency Exchange Settings Result` (
			name varchar(140) primary key,
			creation datetime(6),
			modified datetime(6),
			modified_by varchar(140),
			owner varchar(140),
			docstatus int(1) not null default '0',
			idx int(8) not null default '0',
			`key` varchar(140),
parent varchar(140),
parentfield varchar(140),
parenttype varchar(140),
index parent(parent),

			index modified(modified))
			ENGINE=InnoDB
			ROW_FORMAT=DYNAMIC
			CHARACTER SET=utf8mb4
			COLLATE=utf8mb4_unicode_ci
2023-08-24 22:46:00,594 WARNING database DDL Query made to DB:
create table `tabPOS Closing Entry` (
			name varchar(140) primary key,
			creation datetime(6),
			modified datetime(6),
			modified_by varchar(140),
			owner varchar(140),
			docstatus int(1) not null default '0',
			idx int(8) not null default '0',
			`period_start_date` datetime(6),
`period_end_date` datetime(6),
`posting_date` date,
`posting_time` time(6),
`pos_opening_entry` varchar(140),
`status` varchar(140) default 'Draft',
`company` varchar(140),
`pos_profile` varchar(140),
`user` varchar(140),
`grand_total` decimal(21,9) not null default 0,
`net_total` decimal(21,9) not null default 0,
`total_quantity` decimal(21,9) not null default 0,
`error_message` text,
`amended_from` varchar(140),
`_user_tags` text,
`_comments` text,
`_assign` text,
`_liked_by` text,

			index modified(modified))
			ENGINE=InnoDB
			ROW_FORMAT=DYNAMIC
			CHARACTER SET=utf8mb4
			COLLATE=utf8mb4_unicode_ci
2023-08-24 22:46:00,688 WARNING database DDL Query made to DB:
create table `tabBank Transaction` (
			name varchar(140) primary key,
			creation datetime(6),
			modified datetime(6),
			modified_by varchar(140),
			owner varchar(140),
			docstatus int(1) not null default '0',
			idx int(8) not null default '0',
			`naming_series` varchar(140) default 'ACC-BTN-.YYYY.-',
`date` date,
`status` varchar(140) default 'Pending',
`bank_account` varchar(140),
`company` varchar(140),
`deposit` decimal(21,9) not null default 0,
`withdrawal` decimal(21,9) not null default 0,
`currency` varchar(140),
`description` text,
`reference_number` varchar(140),
`transaction_id` varchar(140) unique,
`transaction_type` varchar(50),
`allocated_amount` decimal(21,9) not null default 0,
`amended_from` varchar(140),
`unallocated_amount` decimal(21,9) not null default 0,
`party_type` varchar(140),
`party` varchar(140),
`bank_party_name` varchar(140),
`bank_party_account_number` varchar(140),
`bank_party_iban` varchar(140),
`_user_tags` text,
`_comments` text,
`_assign` text,
`_liked_by` text,

			index modified(modified))
			ENGINE=InnoDB
			ROW_FORMAT=DYNAMIC
			CHARACTER SET=utf8mb4
			COLLATE=utf8mb4_unicode_ci
2023-08-24 22:46:00,785 WARNING database DDL Query made to DB:
create table `tabAdvance Tax` (
			name varchar(140) primary key,
			creation datetime(6),
			modified datetime(6),
			modified_by varchar(140),
			owner varchar(140),
			docstatus int(1) not null default '0',
			idx int(8) not null default '0',
			`reference_type` varchar(140),
`reference_name` varchar(140),
`reference_detail` varchar(140),
`account_head` varchar(140),
`allocated_amount` decimal(21,9) not null default 0,
parent varchar(140),
parentfield varchar(140),
parenttype varchar(140),
index parent(parent),

			index modified(modified))
			ENGINE=InnoDB
			ROW_FORMAT=DYNAMIC
			CHARACTER SET=utf8mb4
			COLLATE=utf8mb4_unicode_ci
2023-08-24 22:46:00,857 WARNING database DDL Query made to DB:
create table `tabCashier Closing` (
			name varchar(140) primary key,
			creation datetime(6),
			modified datetime(6),
			modified_by varchar(140),
			owner varchar(140),
			docstatus int(1) not null default '0',
			idx int(8) not null default '0',
			`naming_series` varchar(140) default 'POS-CLO-',
`user` varchar(140),
`date` date,
`from_time` time(6),
`time` time(6),
`expense` decimal(21,9) not null default 0,
`custody` decimal(21,9) not null default 0,
`returns` decimal(21,9) not null default 0,
`outstanding_amount` decimal(21,9) not null default 0,
`net_amount` decimal(21,9) not null default 0,
`amended_from` varchar(140),
`_user_tags` text,
`_comments` text,
`_assign` text,
`_liked_by` text,

			index modified(modified))
			ENGINE=InnoDB
			ROW_FORMAT=DYNAMIC
			CHARACTER SET=utf8mb4
			COLLATE=utf8mb4_unicode_ci
2023-08-24 22:46:00,919 WARNING database DDL Query made to DB:
create table `tabCoupon Code` (
			name varchar(140) primary key,
			creation datetime(6),
			modified datetime(6),
			modified_by varchar(140),
			owner varchar(140),
			docstatus int(1) not null default '0',
			idx int(8) not null default '0',
			`coupon_name` varchar(140) unique,
`coupon_type` varchar(140),
`customer` varchar(140),
`coupon_code` varchar(140) unique,
`pricing_rule` varchar(140),
`valid_from` date,
`valid_upto` date,
`maximum_use` int(11) not null default 0,
`used` int(11) not null default 0,
`description` longtext,
`amended_from` varchar(140),
`_user_tags` text,
`_comments` text,
`_assign` text,
`_liked_by` text,

			index modified(modified))
			ENGINE=InnoDB
			ROW_FORMAT=DYNAMIC
			CHARACTER SET=utf8mb4
			COLLATE=utf8mb4_unicode_ci
2023-08-24 22:46:00,997 WARNING database DDL Query made to DB:
create table `tabSubscription Plan Detail` (
			name varchar(140) primary key,
			creation datetime(6),
			modified datetime(6),
			modified_by varchar(140),
			owner varchar(140),
			docstatus int(1) not null default '0',
			idx int(8) not null default '0',
			`plan` varchar(140),
`qty` int(11) not null default 0,
parent varchar(140),
parentfield varchar(140),
parenttype varchar(140),
index parent(parent),

			index modified(modified))
			ENGINE=InnoDB
			ROW_FORMAT=DYNAMIC
			CHARACTER SET=utf8mb4
			COLLATE=utf8mb4_unicode_ci
2023-08-24 22:46:01,078 WARNING database DDL Query made to DB:
create table `tabExchange Rate Revaluation` (
			name varchar(140) primary key,
			creation datetime(6),
			modified datetime(6),
			modified_by varchar(140),
			owner varchar(140),
			docstatus int(1) not null default '0',
			idx int(8) not null default '0',
			`posting_date` date,
`rounding_loss_allowance` decimal(21,9) not null default 0.05,
`company` varchar(140),
`gain_loss_unbooked` decimal(21,9) not null default 0,
`gain_loss_booked` decimal(21,9) not null default 0,
`total_gain_loss` decimal(21,9) not null default 0,
`amended_from` varchar(140),
`_user_tags` text,
`_comments` text,
`_assign` text,
`_liked_by` text,

			index modified(modified))
			ENGINE=InnoDB
			ROW_FORMAT=DYNAMIC
			CHARACTER SET=utf8mb4
			COLLATE=utf8mb4_unicode_ci
2023-08-24 22:46:01,316 WARNING database DDL Query made to DB:
create table `tabPOS Opening Entry` (
			name varchar(140) primary key,
			creation datetime(6),
			modified datetime(6),
			modified_by varchar(140),
			owner varchar(140),
			docstatus int(1) not null default '0',
			idx int(8) not null default '0',
			`period_start_date` datetime(6),
`period_end_date` date,
`status` varchar(140) default 'Draft',
`posting_date` date,
`set_posting_date` int(1) not null default 0,
`company` varchar(140),
`pos_profile` varchar(140),
`pos_closing_entry` varchar(140),
`user` varchar(140),
`amended_from` varchar(140),
`_user_tags` text,
`_comments` text,
`_assign` text,
`_liked_by` text,

			index modified(modified))
			ENGINE=InnoDB
			ROW_FORMAT=DYNAMIC
			CHARACTER SET=utf8mb4
			COLLATE=utf8mb4_unicode_ci
2023-08-24 22:46:01,436 WARNING database DDL Query made to DB:
create table `tabCash Flow Mapping Accounts` (
			name varchar(140) primary key,
			creation datetime(6),
			modified datetime(6),
			modified_by varchar(140),
			owner varchar(140),
			docstatus int(1) not null default '0',
			idx int(8) not null default '0',
			`account` varchar(140),
parent varchar(140),
parentfield varchar(140),
parenttype varchar(140),
index parent(parent),

			index modified(modified))
			ENGINE=InnoDB
			ROW_FORMAT=DYNAMIC
			CHARACTER SET=utf8mb4
			COLLATE=utf8mb4_unicode_ci
2023-08-24 22:46:01,499 WARNING database DDL Query made to DB:
create table `tabPayment Terms Template` (
			name varchar(140) primary key,
			creation datetime(6),
			modified datetime(6),
			modified_by varchar(140),
			owner varchar(140),
			docstatus int(1) not null default '0',
			idx int(8) not null default '0',
			`template_name` varchar(140) unique,
`allocate_payment_based_on_payment_terms` int(1) not null default 0,
`_user_tags` text,
`_comments` text,
`_assign` text,
`_liked_by` text,

			index modified(modified))
			ENGINE=InnoDB
			ROW_FORMAT=DYNAMIC
			CHARACTER SET=utf8mb4
			COLLATE=utf8mb4_unicode_ci
2023-08-24 22:46:01,775 WARNING database DDL Query made to DB:
create table `tabPurchase Invoice` (
			name varchar(140) primary key,
			creation datetime(6),
			modified datetime(6),
			modified_by varchar(140),
			owner varchar(140),
			docstatus int(1) not null default '0',
			idx int(8) not null default '0',
			`title` varchar(140) default '{supplier_name}',
`naming_series` varchar(140),
`supplier` varchar(140),
`supplier_name` varchar(140),
`tax_id` varchar(140),
`company` varchar(140),
`posting_date` date,
`posting_time` time(6),
`set_posting_time` int(1) not null default 0,
`due_date` date,
`is_paid` int(1) not null default 0,
`is_return` int(1) not null default 0,
`return_against` varchar(140),
`apply_tds` int(1) not null default 0,
`tax_withholding_category` varchar(140),
`amended_from` varchar(140),
`bill_no` varchar(140),
`bill_date` date,
`cost_center` varchar(140),
`project` varchar(140),
`currency` varchar(140),
`conversion_rate` decimal(21,9) not null default 0,
`buying_price_list` varchar(140),
`price_list_currency` varchar(140),
`plc_conversion_rate` decimal(21,9) not null default 0,
`ignore_pricing_rule` int(1) not null default 0,
`scan_barcode` varchar(140),
`update_stock` int(1) not null default 0,
`set_warehouse` varchar(140),
`set_from_warehouse` varchar(140),
`is_subcontracted` int(1) not null default 0,
`rejected_warehouse` varchar(140),
`supplier_warehouse` varchar(140),
`total_qty` decimal(21,9) not null default 0,
`total_net_weight` decimal(21,9) not null default 0,
`base_total` decimal(21,9) not null default 0,
`base_net_total` decimal(21,9) not null default 0,
`total` decimal(21,9) not null default 0,
`net_total` decimal(21,9) not null default 0,
`tax_withholding_net_total` decimal(21,9) not null default 0,
`base_tax_withholding_net_total` decimal(21,9) not null default 0,
`tax_category` varchar(140),
`taxes_and_charges` varchar(140),
`shipping_rule` varchar(140),
`incoterm` varchar(140),
`named_place` varchar(140),
`base_taxes_and_charges_added` decimal(21,9) not null default 0,
`base_taxes_and_charges_deducted` decimal(21,9) not null default 0,
`base_total_taxes_and_charges` decimal(21,9) not null default 0,
`taxes_and_charges_added` decimal(21,9) not null default 0,
`taxes_and_charges_deducted` decimal(21,9) not null default 0,
`total_taxes_and_charges` decimal(21,9) not null default 0,
`base_grand_total` decimal(21,9) not null default 0,
`base_rounding_adjustment` decimal(21,9) not null default 0,
`base_rounded_total` decimal(21,9) not null default 0,
`base_in_words` varchar(240),
`grand_total` decimal(21,9) not null default 0,
`rounding_adjustment` decimal(21,9) not null default 0,
`use_company_roundoff_cost_center` int(1) not null default 0,
`rounded_total` decimal(21,9) not null default 0,
`in_words` varchar(240),
`total_advance` decimal(21,9) not null default 0,
`outstanding_amount` decimal(21,9) not null default 0,
`disable_rounded_total` int(1) not null default 0,
`apply_discount_on` varchar(140) default 'Grand Total',
`base_discount_amount` decimal(21,9) not null default 0,
`additional_discount_percentage` decimal(21,9) not null default 0,
`discount_amount` decimal(21,9) not null default 0,
`other_charges_calculation` longtext,
`mode_of_payment` varchar(140),
`base_paid_amount` decimal(21,9) not null default 0,
`clearance_date` date,
`cash_bank_account` varchar(140),
`paid_amount` decimal(21,9) not null default 0,
`allocate_advances_automatically` int(1) not null default 0,
`only_include_allocated_payments` int(1) not null default 0,
`write_off_amount` decimal(21,9) not null default 0,
`base_write_off_amount` decimal(21,9) not null default 0,
`write_off_account` varchar(140),
`write_off_cost_center` varchar(140),
`supplier_address` varchar(140),
`address_display` text,
`contact_person` varchar(140),
`contact_display` text,
`contact_mobile` text,
`contact_email` text,
`shipping_address` varchar(140),
`shipping_address_display` text,
`billing_address` varchar(140),
`billing_address_display` text,
`payment_terms_template` varchar(140),
`ignore_default_payment_terms_template` int(1) not null default 0,
`tc_name` varchar(140),
`terms` longtext,
`status` varchar(140) default 'Draft',
`per_received` decimal(21,9) not null default 0,
`credit_to` varchar(140),
`party_account_currency` varchar(140),
`is_opening` varchar(140) default 'No',
`against_expense_account` text,
`unrealized_profit_loss_account` varchar(140),
`auto_repeat` varchar(140),
`from_date` date,
`to_date` date,
`letter_head` varchar(140),
`group_same_items` int(1) not null default 0,
`select_print_heading` varchar(140),
`language` varchar(140),
`on_hold` int(1) not null default 0,
`release_date` date,
`hold_comment` text,
`is_internal_supplier` int(1) not null default 0,
`represents_company` varchar(140),
`inter_company_invoice_reference` varchar(140),
`is_old_subcontracting_flow` int(1) not null default 0,
`remarks` text,
`_user_tags` text,
`_comments` text,
`_assign` text,
`_liked_by` text,
index `supplier`(`supplier`),
index `posting_date`(`posting_date`),
index `credit_to`(`credit_to`),

			index modified(modified))
			ENGINE=InnoDB
			ROW_FORMAT=DYNAMIC
			CHARACTER SET=utf8mb4
			COLLATE=utf8mb4_unicode_ci
2023-08-24 22:46:01,910 WARNING database DDL Query made to DB:
ALTER TABLE `tabPurchase Invoice`
				ADD INDEX `supplier_is_return_return_against_index`(supplier, is_return, return_against)
2023-08-24 22:46:01,990 WARNING database DDL Query made to DB:
create table `tabSales Taxes and Charges Template` (
			name varchar(140) primary key,
			creation datetime(6),
			modified datetime(6),
			modified_by varchar(140),
			owner varchar(140),
			docstatus int(1) not null default '0',
			idx int(8) not null default '0',
			`title` varchar(140),
`is_default` int(1) not null default 0,
`disabled` int(1) not null default 0,
`company` varchar(140),
`tax_category` varchar(140),
`_user_tags` text,
`_comments` text,
`_assign` text,
`_liked_by` text,

			index modified(modified))
			ENGINE=InnoDB
			ROW_FORMAT=DYNAMIC
			CHARACTER SET=utf8mb4
			COLLATE=utf8mb4_unicode_ci
2023-08-24 22:46:02,042 WARNING database DDL Query made to DB:
create table `tabCashier Closing Payments` (
			name varchar(140) primary key,
			creation datetime(6),
			modified datetime(6),
			modified_by varchar(140),
			owner varchar(140),
			docstatus int(1) not null default '0',
			idx int(8) not null default '0',
			`mode_of_payment` varchar(140),
`amount` decimal(21,9) not null default 0,
parent varchar(140),
parentfield varchar(140),
parenttype varchar(140),
index parent(parent),

			index modified(modified))
			ENGINE=InnoDB
			ROW_FORMAT=DYNAMIC
			CHARACTER SET=utf8mb4
			COLLATE=utf8mb4_unicode_ci
2023-08-24 22:46:02,109 WARNING database DDL Query made to DB:
create table `tabLoyalty Program` (
			name varchar(140) primary key,
			creation datetime(6),
			modified datetime(6),
			modified_by varchar(140),
			owner varchar(140),
			docstatus int(1) not null default '0',
			idx int(8) not null default '0',
			`loyalty_program_name` varchar(140) unique,
`loyalty_program_type` varchar(140),
`from_date` date,
`to_date` date,
`customer_group` varchar(140),
`customer_territory` varchar(140),
`auto_opt_in` int(1) not null default 0,
`conversion_factor` decimal(21,9) not null default 0,
`expiry_duration` int(11) not null default 0,
`expense_account` varchar(140),
`company` varchar(140),
`cost_center` varchar(140),
`_user_tags` text,
`_comments` text,
`_assign` text,
`_liked_by` text,

			index modified(modified))
			ENGINE=InnoDB
			ROW_FORMAT=DYNAMIC
			CHARACTER SET=utf8mb4
			COLLATE=utf8mb4_unicode_ci
2023-08-24 22:46:02,159 WARNING database DDL Query made to DB:
create table `tabCash Flow Mapper` (
			name varchar(140) primary key,
			creation datetime(6),
			modified datetime(6),
			modified_by varchar(140),
			owner varchar(140),
			docstatus int(1) not null default '0',
			idx int(8) not null default '0',
			`section_name` varchar(140),
`section_header` varchar(140),
`section_leader` varchar(140),
`section_subtotal` varchar(140),
`section_footer` varchar(140),
`position` int(11) not null default 0,
`_user_tags` text,
`_comments` text,
`_assign` text,
`_liked_by` text,

			index modified(modified))
			ENGINE=InnoDB
			ROW_FORMAT=DYNAMIC
			CHARACTER SET=utf8mb4
			COLLATE=utf8mb4_unicode_ci
2023-08-24 22:46:02,226 WARNING database DDL Query made to DB:
create table `tabShipping Rule Condition` (
			name varchar(140) primary key,
			creation datetime(6),
			modified datetime(6),
			modified_by varchar(140),
			owner varchar(140),
			docstatus int(1) not null default '0',
			idx int(8) not null default '0',
			`from_value` decimal(21,9) not null default 0,
`to_value` decimal(21,9) not null default 0,
`shipping_amount` decimal(21,9) not null default 0,
parent varchar(140),
parentfield varchar(140),
parenttype varchar(140),
index parent(parent),

			index modified(modified))
			ENGINE=InnoDB
			ROW_FORMAT=DYNAMIC
			CHARACTER SET=utf8mb4
			COLLATE=utf8mb4_unicode_ci
2023-08-24 22:46:02,293 WARNING database DDL Query made to DB:
create table `tabPSOA Project` (
			name varchar(140) primary key,
			creation datetime(6),
			modified datetime(6),
			modified_by varchar(140),
			owner varchar(140),
			docstatus int(1) not null default '0',
			idx int(8) not null default '0',
			`project_name` varchar(140),
parent varchar(140),
parentfield varchar(140),
parenttype varchar(140),
index parent(parent),

			index modified(modified))
			ENGINE=InnoDB
			ROW_FORMAT=DYNAMIC
			CHARACTER SET=utf8mb4
			COLLATE=utf8mb4_unicode_ci
2023-08-24 22:46:02,388 WARNING database DDL Query made to DB:
create table `tabPayment Ledger Entry` (
			name varchar(140) primary key,
			creation datetime(6),
			modified datetime(6),
			modified_by varchar(140),
			owner varchar(140),
			docstatus int(1) not null default '0',
			idx int(8) not null default '0',
			`posting_date` date,
`company` varchar(140),
`account_type` varchar(140),
`account` varchar(140),
`party_type` varchar(140),
`party` varchar(140),
`due_date` date,
`cost_center` varchar(140),
`finance_book` varchar(140),
`voucher_type` varchar(140),
`voucher_no` varchar(140),
`against_voucher_type` varchar(140),
`against_voucher_no` varchar(140),
`amount` decimal(21,9) not null default 0,
`account_currency` varchar(140),
`amount_in_account_currency` decimal(21,9) not null default 0,
`delinked` int(1) not null default 0,
`remarks` text,
`_user_tags` text,
`_comments` text,
`_assign` text,
`_liked_by` text,
index `company`(`company`),
index `account`(`account`),
index `party_type`(`party_type`),
index `party`(`party`),

			index modified(modified))
			ENGINE=InnoDB
			ROW_FORMAT=DYNAMIC
			CHARACTER SET=utf8mb4
			COLLATE=utf8mb4_unicode_ci
2023-08-24 22:46:02,422 WARNING database DDL Query made to DB:
ALTER TABLE `tabPayment Ledger Entry`
				ADD INDEX `against_voucher_no_against_voucher_type_index`(against_voucher_no, against_voucher_type)
2023-08-24 22:46:02,434 WARNING database DDL Query made to DB:
ALTER TABLE `tabPayment Ledger Entry`
				ADD INDEX `voucher_no_voucher_type_index`(voucher_no, voucher_type)
2023-08-24 22:46:02,465 WARNING database DDL Query made to DB:
create table `tabJournal Entry Template Account` (
			name varchar(140) primary key,
			creation datetime(6),
			modified datetime(6),
			modified_by varchar(140),
			owner varchar(140),
			docstatus int(1) not null default '0',
			idx int(8) not null default '0',
			`account` varchar(140),
parent varchar(140),
parentfield varchar(140),
parenttype varchar(140),
index parent(parent),

			index modified(modified))
			ENGINE=InnoDB
			ROW_FORMAT=DYNAMIC
			CHARACTER SET=utf8mb4
			COLLATE=utf8mb4_unicode_ci
2023-08-24 22:46:02,512 WARNING database DDL Query made to DB:
create table `tabLoyalty Point Entry Redemption` (
			name varchar(140) primary key,
			creation datetime(6),
			modified datetime(6),
			modified_by varchar(140),
			owner varchar(140),
			docstatus int(1) not null default '0',
			idx int(8) not null default '0',
			`sales_invoice` varchar(140),
`redemption_date` date,
`redeemed_points` int(11) not null default 0,
parent varchar(140),
parentfield varchar(140),
parenttype varchar(140),
index parent(parent),

			index modified(modified))
			ENGINE=InnoDB
			ROW_FORMAT=DYNAMIC
			CHARACTER SET=utf8mb4
			COLLATE=utf8mb4_unicode_ci
2023-08-24 22:46:02,590 WARNING database DDL Query made to DB:
create table `tabPayment Reconciliation Payment` (
			name varchar(140) primary key,
			creation datetime(6),
			modified datetime(6),
			modified_by varchar(140),
			owner varchar(140),
			docstatus int(1) not null default '0',
			idx int(8) not null default '0',
			`reference_type` varchar(140),
`reference_name` varchar(140),
`posting_date` date,
`is_advance` varchar(140),
`reference_row` varchar(140),
`amount` decimal(21,9) not null default 0,
`difference_amount` decimal(21,9) not null default 0,
`remark` text,
`currency` varchar(140),
`exchange_rate` decimal(21,9) not null default 0,
parent varchar(140),
parentfield varchar(140),
parenttype varchar(140),
index parent(parent),

			index modified(modified))
			ENGINE=InnoDB
			ROW_FORMAT=DYNAMIC
			CHARACTER SET=utf8mb4
			COLLATE=utf8mb4_unicode_ci
2023-08-24 22:46:02,637 WARNING database DDL Query made to DB:
create table `tabAccounting Dimension` (
			name varchar(140) primary key,
			creation datetime(6),
			modified datetime(6),
			modified_by varchar(140),
			owner varchar(140),
			docstatus int(1) not null default '0',
			idx int(8) not null default '0',
			`document_type` varchar(140),
`label` varchar(140) unique,
`fieldname` varchar(140),
`disabled` int(1) not null default 0,
`_user_tags` text,
`_comments` text,
`_assign` text,
`_liked_by` text,

			index modified(modified))
			ENGINE=InnoDB
			ROW_FORMAT=DYNAMIC
			CHARACTER SET=utf8mb4
			COLLATE=utf8mb4_unicode_ci
2023-08-24 22:46:02,705 WARNING database DDL Query made to DB:
create table `tabFiscal Year Company` (
			name varchar(140) primary key,
			creation datetime(6),
			modified datetime(6),
			modified_by varchar(140),
			owner varchar(140),
			docstatus int(1) not null default '0',
			idx int(8) not null default '0',
			`company` varchar(140),
parent varchar(140),
parentfield varchar(140),
parenttype varchar(140),
index parent(parent),

			index modified(modified))
			ENGINE=InnoDB
			ROW_FORMAT=DYNAMIC
			CHARACTER SET=utf8mb4
			COLLATE=utf8mb4_unicode_ci
2023-08-24 22:46:02,863 WARNING database DDL Query made to DB:
create table `tabPayment Entry` (
			name varchar(140) primary key,
			creation datetime(6),
			modified datetime(6),
			modified_by varchar(140),
			owner varchar(140),
			docstatus int(1) not null default '0',
			idx int(8) not null default '0',
			`naming_series` varchar(140),
`payment_type` varchar(140),
`payment_order_status` varchar(140),
`posting_date` date,
`company` varchar(140),
`mode_of_payment` varchar(140),
`party_type` varchar(140),
`party` varchar(140),
`party_name` varchar(140),
`bank_account` varchar(140),
`party_bank_account` varchar(140),
`contact_person` varchar(140),
`contact_email` varchar(140),
`party_balance` decimal(21,9) not null default 0,
`paid_from` varchar(140),
`paid_from_account_type` varchar(140),
`paid_from_account_currency` varchar(140),
`paid_from_account_balance` decimal(21,9) not null default 0,
`paid_to` varchar(140),
`paid_to_account_type` varchar(140),
`paid_to_account_currency` varchar(140),
`paid_to_account_balance` decimal(21,9) not null default 0,
`paid_amount` decimal(21,9) not null default 0,
`paid_amount_after_tax` decimal(21,9) not null default 0,
`source_exchange_rate` decimal(21,9) not null default 0,
`base_paid_amount` decimal(21,9) not null default 0,
`base_paid_amount_after_tax` decimal(21,9) not null default 0,
`received_amount` decimal(21,9) not null default 0,
`received_amount_after_tax` decimal(21,9) not null default 0,
`target_exchange_rate` decimal(21,9) not null default 0,
`base_received_amount` decimal(21,9) not null default 0,
`base_received_amount_after_tax` decimal(21,9) not null default 0,
`total_allocated_amount` decimal(21,9) not null default 0,
`base_total_allocated_amount` decimal(21,9) not null default 0,
`unallocated_amount` decimal(21,9) not null default 0,
`difference_amount` decimal(21,9) not null default 0,
`purchase_taxes_and_charges_template` varchar(140),
`sales_taxes_and_charges_template` varchar(140),
`apply_tax_withholding_amount` int(1) not null default 0,
`tax_withholding_category` varchar(140),
`base_total_taxes_and_charges` decimal(21,9) not null default 0,
`total_taxes_and_charges` decimal(21,9) not null default 0,
`reference_no` varchar(140),
`reference_date` date,
`clearance_date` date,
`project` varchar(140),
`cost_center` varchar(140),
`status` varchar(140) default 'Draft',
`custom_remarks` int(1) not null default 0,
`remarks` text,
`letter_head` varchar(140),
`print_heading` varchar(140),
`bank` varchar(140),
`bank_account_no` varchar(140),
`payment_order` varchar(140),
`auto_repeat` varchar(140),
`amended_from` varchar(140),
`title` varchar(140),
`_user_tags` text,
`_comments` text,
`_assign` text,
`_liked_by` text,
index `party_type`(`party_type`),
index `reference_date`(`reference_date`),

			index modified(modified))
			ENGINE=InnoDB
			ROW_FORMAT=DYNAMIC
			CHARACTER SET=utf8mb4
			COLLATE=utf8mb4_unicode_ci
2023-08-24 22:46:02,954 WARNING database DDL Query made to DB:
create table `tabPayment Entry Deduction` (
			name varchar(140) primary key,
			creation datetime(6),
			modified datetime(6),
			modified_by varchar(140),
			owner varchar(140),
			docstatus int(1) not null default '0',
			idx int(8) not null default '0',
			`account` varchar(140),
`cost_center` varchar(140),
`amount` decimal(21,9) not null default 0,
`description` text,
parent varchar(140),
parentfield varchar(140),
parenttype varchar(140),
index parent(parent),

			index modified(modified))
			ENGINE=InnoDB
			ROW_FORMAT=DYNAMIC
			CHARACTER SET=utf8mb4
			COLLATE=utf8mb4_unicode_ci
2023-08-24 22:46:03,004 WARNING database DDL Query made to DB:
create table `tabCash Flow Mapping Template Details` (
			name varchar(140) primary key,
			creation datetime(6),
			modified datetime(6),
			modified_by varchar(140),
			owner varchar(140),
			docstatus int(1) not null default '0',
			idx int(8) not null default '0',
			`mapping` varchar(140) unique,
parent varchar(140),
parentfield varchar(140),
parenttype varchar(140),
index parent(parent),

			index modified(modified))
			ENGINE=InnoDB
			ROW_FORMAT=DYNAMIC
			CHARACTER SET=utf8mb4
			COLLATE=utf8mb4_unicode_ci
2023-08-24 22:46:03,109 WARNING database DDL Query made to DB:
create table `tabJournal Entry Template` (
			name varchar(140) primary key,
			creation datetime(6),
			modified datetime(6),
			modified_by varchar(140),
			owner varchar(140),
			docstatus int(1) not null default '0',
			idx int(8) not null default '0',
			`template_title` varchar(140) unique,
`voucher_type` varchar(140),
`naming_series` varchar(140),
`company` varchar(140),
`is_opening` varchar(140) default 'No',
`multi_currency` int(1) not null default 0,
`_user_tags` text,
`_comments` text,
`_assign` text,
`_liked_by` text,

			index modified(modified))
			ENGINE=InnoDB
			ROW_FORMAT=DYNAMIC
			CHARACTER SET=utf8mb4
			COLLATE=utf8mb4_unicode_ci
2023-08-24 22:46:03,209 WARNING database DDL Query made to DB:
create table `tabTax Withholding Rate` (
			name varchar(140) primary key,
			creation datetime(6),
			modified datetime(6),
			modified_by varchar(140),
			owner varchar(140),
			docstatus int(1) not null default '0',
			idx int(8) not null default '0',
			`from_date` date,
`to_date` date,
`tax_withholding_rate` decimal(21,9) not null default 0,
`single_threshold` decimal(21,9) not null default 0,
`cumulative_threshold` decimal(21,9) not null default 0,
parent varchar(140),
parentfield varchar(140),
parenttype varchar(140),
index parent(parent),

			index modified(modified))
			ENGINE=InnoDB
			ROW_FORMAT=DYNAMIC
			CHARACTER SET=utf8mb4
			COLLATE=utf8mb4_unicode_ci
2023-08-24 22:46:03,343 WARNING database DDL Query made to DB:
create table `tabPOS Profile` (
			name varchar(140) primary key,
			creation datetime(6),
			modified datetime(6),
			modified_by varchar(140),
			owner varchar(140),
			docstatus int(1) not null default '0',
			idx int(8) not null default '0',
			`company` varchar(140),
`customer` varchar(140),
`country` varchar(140),
`disabled` int(1) not null default 0,
`warehouse` varchar(140),
`campaign` varchar(140),
`company_address` varchar(140),
`hide_images` int(1) not null default 0,
`hide_unavailable_items` int(1) not null default 0,
`auto_add_item_to_cart` int(1) not null default 0,
`validate_stock_on_save` int(1) not null default 0,
`update_stock` int(1) not null default 1,
`ignore_pricing_rule` int(1) not null default 0,
`allow_rate_change` int(1) not null default 0,
`allow_discount_change` int(1) not null default 0,
`print_format` varchar(140),
`letter_head` varchar(140),
`tc_name` varchar(140),
`select_print_heading` varchar(140),
`selling_price_list` varchar(140),
`currency` varchar(140),
`write_off_account` varchar(140),
`write_off_cost_center` varchar(140),
`write_off_limit` decimal(21,9) not null default 1.0,
`account_for_change_amount` varchar(140),
`disable_rounded_total` int(1) not null default 0,
`income_account` varchar(140),
`expense_account` varchar(140),
`taxes_and_charges` varchar(140),
`tax_category` varchar(140),
`apply_discount_on` varchar(140) default 'Grand Total',
`cost_center` varchar(140),
`_user_tags` text,
`_comments` text,
`_assign` text,
`_liked_by` text,

			index modified(modified))
			ENGINE=InnoDB
			ROW_FORMAT=DYNAMIC
			CHARACTER SET=utf8mb4
			COLLATE=utf8mb4_unicode_ci
2023-08-24 22:46:03,399 WARNING database DDL Query made to DB:
create table `tabLedger Merge` (
			name varchar(140) primary key,
			creation datetime(6),
			modified datetime(6),
			modified_by varchar(140),
			owner varchar(140),
			docstatus int(1) not null default '0',
			idx int(8) not null default '0',
			`root_type` varchar(140),
`account` varchar(140),
`account_name` varchar(140),
`company` varchar(140),
`status` varchar(140),
`is_group` int(1) not null default 0,
`_user_tags` text,
`_comments` text,
`_assign` text,
`_liked_by` text,

			index modified(modified))
			ENGINE=InnoDB
			ROW_FORMAT=DYNAMIC
			CHARACTER SET=utf8mb4
			COLLATE=utf8mb4_unicode_ci
2023-08-24 22:46:03,482 WARNING database DDL Query made to DB:
create table `tabProcess Statement Of Accounts Customer` (
			name varchar(140) primary key,
			creation datetime(6),
			modified datetime(6),
			modified_by varchar(140),
			owner varchar(140),
			docstatus int(1) not null default '0',
			idx int(8) not null default '0',
			`customer` varchar(140),
`customer_name` varchar(140),
`billing_email` varchar(140),
`primary_email` varchar(140),
parent varchar(140),
parentfield varchar(140),
parenttype varchar(140),
index parent(parent),

			index modified(modified))
			ENGINE=InnoDB
			ROW_FORMAT=DYNAMIC
			CHARACTER SET=utf8mb4
			COLLATE=utf8mb4_unicode_ci
2023-08-24 22:46:03,563 WARNING database DDL Query made to DB:
create table `tabShare Type` (
			name varchar(140) primary key,
			creation datetime(6),
			modified datetime(6),
			modified_by varchar(140),
			owner varchar(140),
			docstatus int(1) not null default '0',
			idx int(8) not null default '0',
			`title` varchar(140) unique,
`description` longtext,
`_user_tags` text,
`_comments` text,
`_assign` text,
`_liked_by` text,

			index modified(modified))
			ENGINE=InnoDB
			ROW_FORMAT=DYNAMIC
			CHARACTER SET=utf8mb4
			COLLATE=utf8mb4_unicode_ci
2023-08-24 22:46:03,707 WARNING database DDL Query made to DB:
create table `tabPayment Term` (
			name varchar(140) primary key,
			creation datetime(6),
			modified datetime(6),
			modified_by varchar(140),
			owner varchar(140),
			docstatus int(1) not null default '0',
			idx int(8) not null default '0',
			`payment_term_name` varchar(140) unique,
`invoice_portion` decimal(21,9) not null default 0,
`mode_of_payment` varchar(140),
`due_date_based_on` varchar(140),
`credit_days` int(11) not null default 0,
`credit_months` int(11) not null default 0,
`discount_type` varchar(140) default 'Percentage',
`discount` decimal(21,9) not null default 0,
`discount_validity_based_on` varchar(140) default 'Day(s) after invoice date',
`discount_validity` int(11) not null default 0,
`description` text,
`_user_tags` text,
`_comments` text,
`_assign` text,
`_liked_by` text,

			index modified(modified))
			ENGINE=InnoDB
			ROW_FORMAT=DYNAMIC
			CHARACTER SET=utf8mb4
			COLLATE=utf8mb4_unicode_ci
2023-08-24 22:46:03,781 WARNING database DDL Query made to DB:
create table `tabPOS Profile User` (
			name varchar(140) primary key,
			creation datetime(6),
			modified datetime(6),
			modified_by varchar(140),
			owner varchar(140),
			docstatus int(1) not null default '0',
			idx int(8) not null default '0',
			`default` int(1) not null default 0,
`user` varchar(140),
parent varchar(140),
parentfield varchar(140),
parenttype varchar(140),
index parent(parent),

			index modified(modified))
			ENGINE=InnoDB
			ROW_FORMAT=DYNAMIC
			CHARACTER SET=utf8mb4
			COLLATE=utf8mb4_unicode_ci
2023-08-24 22:46:03,853 WARNING database DDL Query made to DB:
create table `tabTax Withheld Vouchers` (
			name varchar(140) primary key,
			creation datetime(6),
			modified datetime(6),
			modified_by varchar(140),
			owner varchar(140),
			docstatus int(1) not null default '0',
			idx int(8) not null default '0',
			`voucher_type` varchar(140),
`voucher_name` varchar(140),
`taxable_amount` decimal(21,9) not null default 0,
parent varchar(140),
parentfield varchar(140),
parenttype varchar(140),
index parent(parent),

			index modified(modified))
			ENGINE=InnoDB
			ROW_FORMAT=DYNAMIC
			CHARACTER SET=utf8mb4
			COLLATE=utf8mb4_unicode_ci
2023-08-24 22:46:03,897 WARNING database DDL Query made to DB:
create table `tabPOS Opening Entry Detail` (
			name varchar(140) primary key,
			creation datetime(6),
			modified datetime(6),
			modified_by varchar(140),
			owner varchar(140),
			docstatus int(1) not null default '0',
			idx int(8) not null default '0',
			`mode_of_payment` varchar(140),
`opening_amount` decimal(21,9) not null default 0,
parent varchar(140),
parentfield varchar(140),
parenttype varchar(140),
index parent(parent),

			index modified(modified))
			ENGINE=InnoDB
			ROW_FORMAT=DYNAMIC
			CHARACTER SET=utf8mb4
			COLLATE=utf8mb4_unicode_ci
2023-08-24 22:46:03,973 WARNING database DDL Query made to DB:
create table `tabCost Center Allocation` (
			name varchar(140) primary key,
			creation datetime(6),
			modified datetime(6),
			modified_by varchar(140),
			owner varchar(140),
			docstatus int(1) not null default '0',
			idx int(8) not null default '0',
			`main_cost_center` varchar(140),
`company` varchar(140),
`valid_from` date,
`amended_from` varchar(140),
`_user_tags` text,
`_comments` text,
`_assign` text,
`_liked_by` text,

			index modified(modified))
			ENGINE=InnoDB
			ROW_FORMAT=DYNAMIC
			CHARACTER SET=utf8mb4
			COLLATE=utf8mb4_unicode_ci
2023-08-24 22:46:04,059 WARNING database DDL Query made to DB:
create table `tabShare Transfer` (
			name varchar(140) primary key,
			creation datetime(6),
			modified datetime(6),
			modified_by varchar(140),
			owner varchar(140),
			docstatus int(1) not null default '0',
			idx int(8) not null default '0',
			`transfer_type` varchar(140),
`date` date,
`from_shareholder` varchar(140),
`from_folio_no` varchar(140),
`to_shareholder` varchar(140),
`to_folio_no` varchar(140),
`equity_or_liability_account` varchar(140),
`asset_account` varchar(140),
`share_type` varchar(140),
`from_no` int(11) not null default 0,
`rate` decimal(21,9) not null default 0,
`no_of_shares` int(11) not null default 0,
`to_no` int(11) not null default 0,
`amount` decimal(21,9) not null default 0,
`company` varchar(140),
`remarks` longtext,
`amended_from` varchar(140),
`_user_tags` text,
`_comments` text,
`_assign` text,
`_liked_by` text,

			index modified(modified))
			ENGINE=InnoDB
			ROW_FORMAT=DYNAMIC
			CHARACTER SET=utf8mb4
			COLLATE=utf8mb4_unicode_ci
2023-08-24 22:46:04,142 WARNING database DDL Query made to DB:
create table `tabPricing Rule Brand` (
			name varchar(140) primary key,
			creation datetime(6),
			modified datetime(6),
			modified_by varchar(140),
			owner varchar(140),
			docstatus int(1) not null default '0',
			idx int(8) not null default '0',
			`brand` varchar(140),
`uom` varchar(140),
index `brand`(`brand`),
parent varchar(140),
parentfield varchar(140),
parenttype varchar(140),
index parent(parent),

			index modified(modified))
			ENGINE=InnoDB
			ROW_FORMAT=DYNAMIC
			CHARACTER SET=utf8mb4
			COLLATE=utf8mb4_unicode_ci
2023-08-24 22:46:04,212 WARNING database DDL Query made to DB:
create table `tabCampaign Item` (
			name varchar(140) primary key,
			creation datetime(6),
			modified datetime(6),
			modified_by varchar(140),
			owner varchar(140),
			docstatus int(1) not null default '0',
			idx int(8) not null default '0',
			`campaign` varchar(140),
parent varchar(140),
parentfield varchar(140),
parenttype varchar(140),
index parent(parent),

			index modified(modified))
			ENGINE=InnoDB
			ROW_FORMAT=DYNAMIC
			CHARACTER SET=utf8mb4
			COLLATE=utf8mb4_unicode_ci
2023-08-24 22:46:04,269 WARNING database DDL Query made to DB:
create table `tabBank Account Subtype` (
			name varchar(140) primary key,
			creation datetime(6),
			modified datetime(6),
			modified_by varchar(140),
			owner varchar(140),
			docstatus int(1) not null default '0',
			idx int(8) not null default '0',
			`account_subtype` varchar(140) unique,
`_user_tags` text,
`_comments` text,
`_assign` text,
`_liked_by` text,

			index modified(modified))
			ENGINE=InnoDB
			ROW_FORMAT=DYNAMIC
			CHARACTER SET=utf8mb4
			COLLATE=utf8mb4_unicode_ci
2023-08-24 22:46:04,535 WARNING database DDL Query made to DB:
create table `tabSales Invoice` (
			name varchar(140) primary key,
			creation datetime(6),
			modified datetime(6),
			modified_by varchar(140),
			owner varchar(140),
			docstatus int(1) not null default '0',
			idx int(8) not null default '0',
			`title` varchar(140) default '{customer_name}',
`naming_series` varchar(140),
`customer` varchar(140),
`customer_name` text,
`tax_id` varchar(140),
`company` varchar(140),
`company_tax_id` varchar(140),
`posting_date` date,
`posting_time` time(6),
`set_posting_time` int(1) not null default 0,
`due_date` date,
`is_pos` int(1) not null default 0,
`pos_profile` varchar(140),
`is_consolidated` int(1) not null default 0,
`is_return` int(1) not null default 0,
`return_against` varchar(140),
`update_billed_amount_in_sales_order` int(1) not null default 0,
`is_debit_note` int(1) not null default 0,
`amended_from` varchar(140),
`cost_center` varchar(140),
`project` varchar(140),
`currency` varchar(140),
`conversion_rate` decimal(21,9) not null default 0,
`selling_price_list` varchar(140),
`price_list_currency` varchar(140),
`plc_conversion_rate` decimal(21,9) not null default 0,
`ignore_pricing_rule` int(1) not null default 0,
`scan_barcode` varchar(140),
`update_stock` int(1) not null default 0,
`set_warehouse` varchar(140),
`set_target_warehouse` varchar(140),
`total_qty` decimal(21,9) not null default 0,
`total_net_weight` decimal(21,9) not null default 0,
`base_total` decimal(21,9) not null default 0,
`base_net_total` decimal(21,9) not null default 0,
`total` decimal(21,9) not null default 0,
`net_total` decimal(21,9) not null default 0,
`tax_category` varchar(140),
`taxes_and_charges` varchar(140),
`shipping_rule` varchar(140),
`incoterm` varchar(140),
`named_place` varchar(140),
`base_total_taxes_and_charges` decimal(21,9) not null default 0,
`total_taxes_and_charges` decimal(21,9) not null default 0,
`base_grand_total` decimal(21,9) not null default 0,
`base_rounding_adjustment` decimal(21,9) not null default 0,
`base_rounded_total` decimal(21,9) not null default 0,
`base_in_words` text,
`grand_total` decimal(21,9) not null default 0,
`rounding_adjustment` decimal(21,9) not null default 0,
`use_company_roundoff_cost_center` int(1) not null default 0,
`rounded_total` decimal(21,9) not null default 0,
`in_words` text,
`total_advance` decimal(21,9) not null default 0,
`outstanding_amount` decimal(21,9) not null default 0,
`disable_rounded_total` int(1) not null default 0,
`apply_discount_on` varchar(15) default 'Grand Total',
`base_discount_amount` decimal(21,9) not null default 0,
`is_cash_or_non_trade_discount` int(1) not null default 0,
`additional_discount_account` varchar(140),
`additional_discount_percentage` decimal(21,9) not null default 0,
`discount_amount` decimal(21,9) not null default 0,
`other_charges_calculation` longtext,
`total_billing_hours` decimal(21,9) not null default 0,
`total_billing_amount` decimal(21,9) not null default 0,
`cash_bank_account` varchar(140),
`base_paid_amount` decimal(21,9) not null default 0,
`paid_amount` decimal(21,9) not null default 0,
`base_change_amount` decimal(21,9) not null default 0,
`change_amount` decimal(21,9) not null default 0,
`account_for_change_amount` varchar(140),
`allocate_advances_automatically` int(1) not null default 0,
`only_include_allocated_payments` int(1) not null default 0,
`write_off_amount` decimal(21,9) not null default 0,
`base_write_off_amount` decimal(21,9) not null default 0,
`write_off_outstanding_amount_automatically` int(1) not null default 0,
`write_off_account` varchar(140),
`write_off_cost_center` varchar(140),
`redeem_loyalty_points` int(1) not null default 0,
`loyalty_points` int(11) not null default 0,
`loyalty_amount` decimal(21,9) not null default 0,
`loyalty_program` varchar(140),
`loyalty_redemption_account` varchar(140),
`loyalty_redemption_cost_center` varchar(140),
`customer_address` varchar(140),
`address_display` text,
`contact_person` varchar(140),
`contact_display` text,
`contact_mobile` text,
`contact_email` varchar(140),
`territory` varchar(140),
`shipping_address_name` varchar(140),
`shipping_address` text,
`dispatch_address_name` varchar(140),
`dispatch_address` text,
`company_address` varchar(140),
`company_address_display` text,
`ignore_default_payment_terms_template` int(1) not null default 0,
`payment_terms_template` varchar(140),
`tc_name` varchar(140),
`terms` longtext,
`po_no` varchar(140),
`po_date` date,
`debit_to` varchar(140),
`party_account_currency` varchar(140),
`is_opening` varchar(4) default 'No',
`unrealized_profit_loss_account` varchar(140),
`against_income_account` text,
`sales_partner` varchar(140),
`amount_eligible_for_commission` decimal(21,9) not null default 0,
`commission_rate` decimal(21,9) not null default 0,
`total_commission` decimal(21,9) not null default 0,
`letter_head` varchar(140),
`group_same_items` int(1) not null default 0,
`select_print_heading` varchar(140),
`language` varchar(6),
`from_date` date,
`auto_repeat` varchar(140),
`to_date` date,
`status` varchar(30) default 'Draft',
`inter_company_invoice_reference` varchar(140),
`campaign` varchar(140),
`represents_company` varchar(140),
`source` varchar(140),
`customer_group` varchar(140),
`is_internal_customer` int(1) not null default 0,
`is_discounted` int(1) not null default 0,
`remarks` text,
`repost_required` int(1) not null default 0,
`_user_tags` text,
`_comments` text,
`_assign` text,
`_liked_by` text,
`_seen` text,
index `customer`(`customer`),
index `posting_date`(`posting_date`),
index `return_against`(`return_against`),
index `debit_to`(`debit_to`),

			index modified(modified))
			ENGINE=InnoDB
			ROW_FORMAT=DYNAMIC
			CHARACTER SET=utf8mb4
			COLLATE=utf8mb4_unicode_ci
2023-08-24 22:46:04,586 WARNING database DDL Query made to DB:
ALTER TABLE `tabSales Invoice`
				ADD INDEX `customer_is_return_return_against_index`(customer, is_return, return_against)
2023-08-24 22:46:04,655 WARNING database DDL Query made to DB:
create table `tabPricing Rule Detail` (
			name varchar(140) primary key,
			creation datetime(6),
			modified datetime(6),
			modified_by varchar(140),
			owner varchar(140),
			docstatus int(1) not null default '0',
			idx int(8) not null default '0',
			`pricing_rule` varchar(140),
`item_code` varchar(140),
`margin_type` varchar(140),
`rate_or_discount` varchar(140),
`child_docname` varchar(140),
`rule_applied` int(1) not null default 1,
parent varchar(140),
parentfield varchar(140),
parenttype varchar(140),
index parent(parent),

			index modified(modified))
			ENGINE=InnoDB
			ROW_FORMAT=DYNAMIC
			CHARACTER SET=utf8mb4
			COLLATE=utf8mb4_unicode_ci
2023-08-24 22:46:04,720 WARNING database DDL Query made to DB:
create table `tabSouth Africa VAT Account` (
			name varchar(140) primary key,
			creation datetime(6),
			modified datetime(6),
			modified_by varchar(140),
			owner varchar(140),
			docstatus int(1) not null default '0',
			idx int(8) not null default '0',
			`account` varchar(140),
parent varchar(140),
parentfield varchar(140),
parenttype varchar(140),
index parent(parent),

			index modified(modified))
			ENGINE=InnoDB
			ROW_FORMAT=DYNAMIC
			CHARACTER SET=utf8mb4
			COLLATE=utf8mb4_unicode_ci
2023-08-24 22:46:04,808 WARNING database DDL Query made to DB:
create table `tabAccounting Dimension Filter` (
			name varchar(140) primary key,
			creation datetime(6),
			modified datetime(6),
			modified_by varchar(140),
			owner varchar(140),
			docstatus int(1) not null default '0',
			idx int(8) not null default '0',
			`accounting_dimension` varchar(140),
`disabled` int(1) not null default 0,
`company` varchar(140),
`allow_or_restrict` varchar(140),
`_user_tags` text,
`_comments` text,
`_assign` text,
`_liked_by` text,

			index modified(modified))
			ENGINE=InnoDB
			ROW_FORMAT=DYNAMIC
			CHARACTER SET=utf8mb4
			COLLATE=utf8mb4_unicode_ci
2023-08-24 22:46:04,908 WARNING database DDL Query made to DB:
create table `tabSupplier Item` (
			name varchar(140) primary key,
			creation datetime(6),
			modified datetime(6),
			modified_by varchar(140),
			owner varchar(140),
			docstatus int(1) not null default '0',
			idx int(8) not null default '0',
			`supplier` varchar(140),
parent varchar(140),
parentfield varchar(140),
parenttype varchar(140),
index parent(parent),

			index modified(modified))
			ENGINE=InnoDB
			ROW_FORMAT=DYNAMIC
			CHARACTER SET=utf8mb4
			COLLATE=utf8mb4_unicode_ci
2023-08-24 22:46:04,956 WARNING database DDL Query made to DB:
create table `tabBudget Account` (
			name varchar(140) primary key,
			creation datetime(6),
			modified datetime(6),
			modified_by varchar(140),
			owner varchar(140),
			docstatus int(1) not null default '0',
			idx int(8) not null default '0',
			`account` varchar(140),
`budget_amount` decimal(21,9) not null default 0,
parent varchar(140),
parentfield varchar(140),
parenttype varchar(140),
index parent(parent),

			index modified(modified))
			ENGINE=InnoDB
			ROW_FORMAT=DYNAMIC
			CHARACTER SET=utf8mb4
			COLLATE=utf8mb4_unicode_ci
2023-08-24 22:46:05,022 WARNING database DDL Query made to DB:
create table `tabSubscription Plan` (
			name varchar(140) primary key,
			creation datetime(6),
			modified datetime(6),
			modified_by varchar(140),
			owner varchar(140),
			docstatus int(1) not null default '0',
			idx int(8) not null default '0',
			`plan_name` varchar(140) unique,
`currency` varchar(140),
`item` varchar(140),
`price_determination` varchar(140),
`cost` decimal(21,9) not null default 0,
`price_list` varchar(140),
`billing_interval` varchar(140) default 'Day',
`billing_interval_count` int(11) not null default 1,
`product_price_id` varchar(140),
`payment_gateway` varchar(140),
`cost_center` varchar(140),
`_user_tags` text,
`_comments` text,
`_assign` text,
`_liked_by` text,

			index modified(modified))
			ENGINE=InnoDB
			ROW_FORMAT=DYNAMIC
			CHARACTER SET=utf8mb4
			COLLATE=utf8mb4_unicode_ci
2023-08-24 22:46:05,115 WARNING database DDL Query made to DB:
create table `tabJournal Entry Account` (
			name varchar(140) primary key,
			creation datetime(6),
			modified datetime(6),
			modified_by varchar(140),
			owner varchar(140),
			docstatus int(1) not null default '0',
			idx int(8) not null default '0',
			`account` varchar(140),
`account_type` varchar(140),
`balance` decimal(21,9) not null default 0,
`bank_account` varchar(140),
`party_type` varchar(140),
`party` varchar(140),
`party_balance` decimal(21,9) not null default 0,
`cost_center` varchar(140),
`project` varchar(140),
`account_currency` varchar(140),
`exchange_rate` decimal(21,9) not null default 0,
`debit_in_account_currency` decimal(21,9) not null default 0,
`debit` decimal(21,9) not null default 0,
`credit_in_account_currency` decimal(21,9) not null default 0,
`credit` decimal(21,9) not null default 0,
`reference_type` varchar(140),
`reference_name` varchar(140),
`reference_due_date` date,
`reference_detail_no` varchar(140),
`is_advance` varchar(140),
`user_remark` text,
`against_account` text,
index `account`(`account`),
index `party_type`(`party_type`),
parent varchar(140),
parentfield varchar(140),
parenttype varchar(140),
index parent(parent),

			index modified(modified))
			ENGINE=InnoDB
			ROW_FORMAT=DYNAMIC
			CHARACTER SET=utf8mb4
			COLLATE=utf8mb4_unicode_ci
2023-08-24 22:46:05,169 WARNING database DDL Query made to DB:
create table `tabPurchase Taxes and Charges Template` (
			name varchar(140) primary key,
			creation datetime(6),
			modified datetime(6),
			modified_by varchar(140),
			owner varchar(140),
			docstatus int(1) not null default '0',
			idx int(8) not null default '0',
			`title` varchar(140),
`is_default` int(1) not null default 0,
`disabled` int(1) not null default 0,
`company` varchar(140),
`tax_category` varchar(140),
`_user_tags` text,
`_comments` text,
`_assign` text,
`_liked_by` text,

			index modified(modified))
			ENGINE=InnoDB
			ROW_FORMAT=DYNAMIC
			CHARACTER SET=utf8mb4
			COLLATE=utf8mb4_unicode_ci
2023-08-24 22:46:05,244 WARNING database DDL Query made to DB:
create table `tabApplicable On Account` (
			name varchar(140) primary key,
			creation datetime(6),
			modified datetime(6),
			modified_by varchar(140),
			owner varchar(140),
			docstatus int(1) not null default '0',
			idx int(8) not null default '0',
			`applicable_on_account` varchar(140),
`is_mandatory` int(1) not null default 0,
parent varchar(140),
parentfield varchar(140),
parenttype varchar(140),
index parent(parent),

			index modified(modified))
			ENGINE=InnoDB
			ROW_FORMAT=DYNAMIC
			CHARACTER SET=utf8mb4
			COLLATE=utf8mb4_unicode_ci
2023-08-24 22:46:05,297 WARNING database DDL Query made to DB:
create table `tabSales Invoice Advance` (
			name varchar(140) primary key,
			creation datetime(6),
			modified datetime(6),
			modified_by varchar(140),
			owner varchar(140),
			docstatus int(1) not null default '0',
			idx int(8) not null default '0',
			`reference_type` varchar(140),
`reference_name` varchar(140),
`remarks` text,
`reference_row` varchar(140),
`advance_amount` decimal(21,9) not null default 0,
`allocated_amount` decimal(21,9) not null default 0,
`exchange_gain_loss` decimal(21,9) not null default 0,
`ref_exchange_rate` decimal(21,9) not null default 0,
parent varchar(140),
parentfield varchar(140),
parenttype varchar(140),
index parent(parent),

			index modified(modified))
			ENGINE=InnoDB
			ROW_FORMAT=DYNAMIC
			CHARACTER SET=utf8mb4
			COLLATE=utf8mb4_unicode_ci
2023-08-24 22:46:05,344 WARNING database DDL Query made to DB:
create table `tabTerritory Item` (
			name varchar(140) primary key,
			creation datetime(6),
			modified datetime(6),
			modified_by varchar(140),
			owner varchar(140),
			docstatus int(1) not null default '0',
			idx int(8) not null default '0',
			`territory` varchar(140),
parent varchar(140),
parentfield varchar(140),
parenttype varchar(140),
index parent(parent),

			index modified(modified))
			ENGINE=InnoDB
			ROW_FORMAT=DYNAMIC
			CHARACTER SET=utf8mb4
			COLLATE=utf8mb4_unicode_ci
2023-08-24 22:46:05,448 WARNING database DDL Query made to DB:
create table `tabItem Tax Template` (
			name varchar(140) primary key,
			creation datetime(6),
			modified datetime(6),
			modified_by varchar(140),
			owner varchar(140),
			docstatus int(1) not null default '0',
			idx int(8) not null default '0',
			`title` varchar(140),
`company` varchar(140),
`disabled` int(1) not null default 0,
`_user_tags` text,
`_comments` text,
`_assign` text,
`_liked_by` text,

			index modified(modified))
			ENGINE=InnoDB
			ROW_FORMAT=DYNAMIC
			CHARACTER SET=utf8mb4
			COLLATE=utf8mb4_unicode_ci
2023-08-24 22:46:05,522 WARNING database DDL Query made to DB:
create table `tabTax Withholding Category` (
			name varchar(140) primary key,
			creation datetime(6),
			modified datetime(6),
			modified_by varchar(140),
			owner varchar(140),
			docstatus int(1) not null default '0',
			idx int(8) not null default '0',
			`category_name` varchar(140),
`round_off_tax_amount` int(1) not null default 0,
`consider_party_ledger_amount` int(1) not null default 0,
`tax_on_excess_amount` int(1) not null default 0,
`_user_tags` text,
`_comments` text,
`_assign` text,
`_liked_by` text,

			index modified(modified))
			ENGINE=InnoDB
			ROW_FORMAT=DYNAMIC
			CHARACTER SET=utf8mb4
			COLLATE=utf8mb4_unicode_ci
2023-08-24 22:46:05,624 WARNING database DDL Query made to DB:
create table `tabSubscription` (
			name varchar(140) primary key,
			creation datetime(6),
			modified datetime(6),
			modified_by varchar(140),
			owner varchar(140),
			docstatus int(1) not null default '0',
			idx int(8) not null default '0',
			`party_type` varchar(140),
`party` varchar(140),
`company` varchar(140),
`status` varchar(140),
`start_date` date,
`end_date` date,
`cancelation_date` date,
`trial_period_start` date,
`trial_period_end` date,
`follow_calendar_months` int(1) not null default 0,
`generate_new_invoices_past_due_date` int(1) not null default 0,
`current_invoice_start` date,
`current_invoice_end` date,
`days_until_due` int(11) not null default 0,
`cancel_at_period_end` int(1) not null default 0,
`generate_invoice_at_period_start` int(1) not null default 0,
`sales_tax_template` varchar(140),
`purchase_tax_template` varchar(140),
`apply_additional_discount` varchar(140),
`additional_discount_percentage` decimal(21,9) not null default 0,
`additional_discount_amount` decimal(21,9) not null default 0,
`submit_invoice` int(1) not null default 1,
`cost_center` varchar(140),
`_user_tags` text,
`_comments` text,
`_assign` text,
`_liked_by` text,

			index modified(modified))
			ENGINE=InnoDB
			ROW_FORMAT=DYNAMIC
			CHARACTER SET=utf8mb4
			COLLATE=utf8mb4_unicode_ci
2023-08-24 22:46:05,711 WARNING database DDL Query made to DB:
create table `tabPurchase Taxes and Charges` (
			name varchar(140) primary key,
			creation datetime(6),
			modified datetime(6),
			modified_by varchar(140),
			owner varchar(140),
			docstatus int(1) not null default '0',
			idx int(8) not null default '0',
			`category` varchar(140) default 'Total',
`add_deduct_tax` varchar(140) default 'Add',
`charge_type` varchar(140) default 'On Net Total',
`row_id` varchar(140),
`included_in_print_rate` int(1) not null default 0,
`included_in_paid_amount` int(1) not null default 0,
`account_head` varchar(140),
`description` text,
`rate` decimal(21,9) not null default 0,
`cost_center` varchar(140),
`account_currency` varchar(140),
`tax_amount` decimal(21,9) not null default 0,
`tax_amount_after_discount_amount` decimal(21,9) not null default 0,
`total` decimal(21,9) not null default 0,
`base_tax_amount` decimal(21,9) not null default 0,
`base_total` decimal(21,9) not null default 0,
`base_tax_amount_after_discount_amount` decimal(21,9) not null default 0,
`item_wise_tax_detail` longtext,
parent varchar(140),
parentfield varchar(140),
parenttype varchar(140),
index parent(parent),

			index modified(modified))
			ENGINE=InnoDB
			ROW_FORMAT=DYNAMIC
			CHARACTER SET=utf8mb4
			COLLATE=utf8mb4_unicode_ci
2023-08-24 22:46:05,761 WARNING database DDL Query made to DB:
create table `tabShipping Rule Country` (
			name varchar(140) primary key,
			creation datetime(6),
			modified datetime(6),
			modified_by varchar(140),
			owner varchar(140),
			docstatus int(1) not null default '0',
			idx int(8) not null default '0',
			`country` varchar(140),
parent varchar(140),
parentfield varchar(140),
parenttype varchar(140),
index parent(parent),

			index modified(modified))
			ENGINE=InnoDB
			ROW_FORMAT=DYNAMIC
			CHARACTER SET=utf8mb4
			COLLATE=utf8mb4_unicode_ci
2023-08-24 22:46:05,808 WARNING database DDL Query made to DB:
create table `tabCustomer Group Item` (
			name varchar(140) primary key,
			creation datetime(6),
			modified datetime(6),
			modified_by varchar(140),
			owner varchar(140),
			docstatus int(1) not null default '0',
			idx int(8) not null default '0',
			`customer_group` varchar(140),
parent varchar(140),
parentfield varchar(140),
parenttype varchar(140),
index parent(parent),

			index modified(modified))
			ENGINE=InnoDB
			ROW_FORMAT=DYNAMIC
			CHARACTER SET=utf8mb4
			COLLATE=utf8mb4_unicode_ci
2023-08-24 22:46:05,892 WARNING database DDL Query made to DB:
create table `tabBank Guarantee` (
			name varchar(140) primary key,
			creation datetime(6),
			modified datetime(6),
			modified_by varchar(140),
			owner varchar(140),
			docstatus int(1) not null default '0',
			idx int(8) not null default '0',
			`bg_type` varchar(140),
`reference_doctype` varchar(140),
`reference_docname` varchar(140),
`customer` varchar(140),
`supplier` varchar(140),
`project` varchar(140),
`amount` decimal(21,9) not null default 0,
`start_date` date,
`validity` int(11) not null default 0,
`end_date` date,
`bank` varchar(140),
`bank_account` varchar(140),
`account` varchar(140),
`bank_account_no` varchar(140),
`iban` varchar(140),
`branch_code` varchar(140),
`swift_number` varchar(140),
`more_information` longtext,
`bank_guarantee_number` varchar(140) unique,
`name_of_beneficiary` varchar(140),
`margin_money` decimal(21,9) not null default 0,
`charges` decimal(21,9) not null default 0,
`fixed_deposit_number` varchar(140),
`amended_from` varchar(140),
`_user_tags` text,
`_comments` text,
`_assign` text,
`_liked_by` text,

			index modified(modified))
			ENGINE=InnoDB
			ROW_FORMAT=DYNAMIC
			CHARACTER SET=utf8mb4
			COLLATE=utf8mb4_unicode_ci
2023-08-24 22:46:05,951 WARNING database DDL Query made to DB:
create table `tabParty Account` (
			name varchar(140) primary key,
			creation datetime(6),
			modified datetime(6),
			modified_by varchar(140),
			owner varchar(140),
			docstatus int(1) not null default '0',
			idx int(8) not null default '0',
			`company` varchar(140),
`account` varchar(140),
parent varchar(140),
parentfield varchar(140),
parenttype varchar(140),
index parent(parent),

			index modified(modified))
			ENGINE=InnoDB
			ROW_FORMAT=DYNAMIC
			CHARACTER SET=utf8mb4
			COLLATE=utf8mb4_unicode_ci
2023-08-24 22:46:06,025 WARNING database DDL Query made to DB:
create table `tabBudget` (
			name varchar(140) primary key,
			creation datetime(6),
			modified datetime(6),
			modified_by varchar(140),
			owner varchar(140),
			docstatus int(1) not null default '0',
			idx int(8) not null default '0',
			`budget_against` varchar(140) default 'Cost Center',
`company` varchar(140),
`cost_center` varchar(140),
`naming_series` varchar(140),
`project` varchar(140),
`fiscal_year` varchar(140),
`monthly_distribution` varchar(140),
`amended_from` varchar(140),
`applicable_on_material_request` int(1) not null default 0,
`action_if_annual_budget_exceeded_on_mr` varchar(140) default 'Stop',
`action_if_accumulated_monthly_budget_exceeded_on_mr` varchar(140) default 'Warn',
`applicable_on_purchase_order` int(1) not null default 0,
`action_if_annual_budget_exceeded_on_po` varchar(140) default 'Stop',
`action_if_accumulated_monthly_budget_exceeded_on_po` varchar(140) default 'Warn',
`applicable_on_booking_actual_expenses` int(1) not null default 0,
`action_if_annual_budget_exceeded` varchar(140) default 'Stop',
`action_if_accumulated_monthly_budget_exceeded` varchar(140) default 'Warn',
`_user_tags` text,
`_comments` text,
`_assign` text,
`_liked_by` text,

			index modified(modified))
			ENGINE=InnoDB
			ROW_FORMAT=DYNAMIC
			CHARACTER SET=utf8mb4
			COLLATE=utf8mb4_unicode_ci
2023-08-24 22:46:06,092 WARNING database DDL Query made to DB:
create table `tabOpening Invoice Creation Tool Item` (
			name varchar(140) primary key,
			creation datetime(6),
			modified datetime(6),
			modified_by varchar(140),
			owner varchar(140),
			docstatus int(1) not null default '0',
			idx int(8) not null default '0',
			`invoice_number` varchar(140),
`party_type` varchar(140),
`party` varchar(140),
`temporary_opening_account` varchar(140),
`posting_date` date,
`due_date` date,
`item_name` varchar(140) default 'Opening Invoice Item',
`outstanding_amount` decimal(21,9) not null default 0,
`qty` varchar(140) default '1',
`cost_center` varchar(140),
parent varchar(140),
parentfield varchar(140),
parenttype varchar(140),
index parent(parent),

			index modified(modified))
			ENGINE=InnoDB
			ROW_FORMAT=DYNAMIC
			CHARACTER SET=utf8mb4
			COLLATE=utf8mb4_unicode_ci
2023-08-24 22:46:06,139 WARNING database DDL Query made to DB:
create table `tabTax Withholding Account` (
			name varchar(140) primary key,
			creation datetime(6),
			modified datetime(6),
			modified_by varchar(140),
			owner varchar(140),
			docstatus int(1) not null default '0',
			idx int(8) not null default '0',
			`company` varchar(140),
`account` varchar(140),
parent varchar(140),
parentfield varchar(140),
parenttype varchar(140),
index parent(parent),

			index modified(modified))
			ENGINE=InnoDB
			ROW_FORMAT=DYNAMIC
			CHARACTER SET=utf8mb4
			COLLATE=utf8mb4_unicode_ci
2023-08-24 22:46:06,233 WARNING database DDL Query made to DB:
create table `tabGL Entry` (
			name varchar(140) primary key,
			creation datetime(6),
			modified datetime(6),
			modified_by varchar(140),
			owner varchar(140),
			docstatus int(1) not null default '0',
			idx int(8) not null default '0',
			`posting_date` date,
`transaction_date` date,
`account` varchar(140),
`party_type` varchar(140),
`party` varchar(140),
`cost_center` varchar(140),
`debit` decimal(21,9) not null default 0,
`credit` decimal(21,9) not null default 0,
`account_currency` varchar(140),
`debit_in_account_currency` decimal(21,9) not null default 0,
`credit_in_account_currency` decimal(21,9) not null default 0,
`against` text,
`against_voucher_type` varchar(140),
`against_voucher` varchar(140),
`voucher_type` varchar(140),
`voucher_no` varchar(140),
`voucher_detail_no` varchar(140),
`project` varchar(140),
`remarks` text,
`is_opening` varchar(140),
`is_advance` varchar(140),
`fiscal_year` varchar(140),
`company` varchar(140),
`finance_book` varchar(140),
`to_rename` int(1) not null default 1,
`due_date` date,
`is_cancelled` int(1) not null default 0,
`_user_tags` text,
`_comments` text,
`_assign` text,
`_liked_by` text,
index `posting_date`(`posting_date`),
index `account`(`account`),
index `party_type`(`party_type`),
index `party`(`party`),
index `against_voucher_type`(`against_voucher_type`),
index `against_voucher`(`against_voucher`),
index `voucher_type`(`voucher_type`),
index `voucher_no`(`voucher_no`),
index `company`(`company`),
index `to_rename`(`to_rename`),

			index modified(modified))
			ENGINE=InnoDB
			ROW_FORMAT=DYNAMIC
			CHARACTER SET=utf8mb4
			COLLATE=utf8mb4_unicode_ci
2023-08-24 22:46:06,270 WARNING database DDL Query made to DB:
ALTER TABLE `tabGL Entry`
				ADD INDEX `against_voucher_type_against_voucher_index`(against_voucher_type, against_voucher)
2023-08-24 22:46:06,289 WARNING database DDL Query made to DB:
ALTER TABLE `tabGL Entry`
				ADD INDEX `voucher_type_voucher_no_index`(voucher_type, voucher_no)
2023-08-24 22:46:06,379 WARNING database DDL Query made to DB:
create table `tabPayment Request` (
			name varchar(140) primary key,
			creation datetime(6),
			modified datetime(6),
			modified_by varchar(140),
			owner varchar(140),
			docstatus int(1) not null default '0',
			idx int(8) not null default '0',
			`payment_request_type` varchar(140) default 'Inward',
`transaction_date` date,
`naming_series` varchar(140),
`mode_of_payment` varchar(140),
`party_type` varchar(140),
`party` varchar(140),
`reference_doctype` varchar(140),
`reference_name` varchar(140),
`grand_total` decimal(21,9) not null default 0,
`is_a_subscription` int(1) not null default 0,
`currency` varchar(140),
`bank_account` varchar(140),
`bank` varchar(140),
`bank_account_no` varchar(140),
`account` varchar(140),
`iban` varchar(140),
`branch_code` varchar(140),
`swift_number` varchar(140),
`cost_center` varchar(140),
`project` varchar(140),
`print_format` varchar(140),
`email_to` varchar(140),
`subject` varchar(140),
`payment_gateway_account` varchar(140),
`status` varchar(140) default 'Draft',
`make_sales_invoice` int(1) not null default 0,
`message` text,
`mute_email` int(1) not null default 0,
`payment_url` text,
`payment_gateway` varchar(140),
`payment_account` varchar(140),
`payment_channel` varchar(140),
`payment_order` varchar(140),
`amended_from` varchar(140),
`_user_tags` text,
`_comments` text,
`_assign` text,
`_liked_by` text,

			index modified(modified))
			ENGINE=InnoDB
			ROW_FORMAT=DYNAMIC
			CHARACTER SET=utf8mb4
			COLLATE=utf8mb4_unicode_ci
2023-08-24 22:46:06,517 WARNING database DDL Query made to DB:
create table `tabItem Tax Template Detail` (
			name varchar(140) primary key,
			creation datetime(6),
			modified datetime(6),
			modified_by varchar(140),
			owner varchar(140),
			docstatus int(1) not null default '0',
			idx int(8) not null default '0',
			`tax_type` varchar(140),
`tax_rate` decimal(21,9) not null default 0,
parent varchar(140),
parentfield varchar(140),
parenttype varchar(140),
index parent(parent),

			index modified(modified))
			ENGINE=InnoDB
			ROW_FORMAT=DYNAMIC
			CHARACTER SET=utf8mb4
			COLLATE=utf8mb4_unicode_ci
2023-08-24 22:46:06,590 WARNING database DDL Query made to DB:
create table `tabPromotional Scheme Product Discount` (
			name varchar(140) primary key,
			creation datetime(6),
			modified datetime(6),
			modified_by varchar(140),
			owner varchar(140),
			docstatus int(1) not null default '0',
			idx int(8) not null default '0',
			`disable` int(1) not null default 0,
`apply_multiple_pricing_rules` int(1) not null default 0,
`rule_description` text,
`min_qty` decimal(21,9) not null default 0,
`max_qty` decimal(21,9) not null default 0,
`min_amount` decimal(21,9) not null default 0,
`max_amount` decimal(21,9) not null default 0,
`same_item` int(1) not null default 0,
`free_item` varchar(140),
`free_qty` decimal(21,9) not null default 0,
`free_item_uom` varchar(140),
`free_item_rate` decimal(21,9) not null default 0,
`warehouse` varchar(140),
`threshold_percentage` decimal(21,9) not null default 0,
`priority` varchar(140),
`is_recursive` int(1) not null default 0,
parent varchar(140),
parentfield varchar(140),
parenttype varchar(140),
index parent(parent),

			index modified(modified))
			ENGINE=InnoDB
			ROW_FORMAT=DYNAMIC
			CHARACTER SET=utf8mb4
			COLLATE=utf8mb4_unicode_ci
2023-08-24 22:46:06,648 WARNING database DDL Query made to DB:
create table `tabPayment Order Reference` (
			name varchar(140) primary key,
			creation datetime(6),
			modified datetime(6),
			modified_by varchar(140),
			owner varchar(140),
			docstatus int(1) not null default '0',
			idx int(8) not null default '0',
			`reference_doctype` varchar(140),
`reference_name` varchar(140),
`amount` decimal(21,9) not null default 0,
`supplier` varchar(140),
`payment_request` varchar(140),
`mode_of_payment` varchar(140),
`bank_account` varchar(140),
`account` varchar(140),
`payment_reference` varchar(140),
parent varchar(140),
parentfield varchar(140),
parenttype varchar(140),
index parent(parent),

			index modified(modified))
			ENGINE=InnoDB
			ROW_FORMAT=DYNAMIC
			CHARACTER SET=utf8mb4
			COLLATE=utf8mb4_unicode_ci
2023-08-24 22:46:06,695 WARNING database DDL Query made to DB:
create table `tabCost Center Allocation Percentage` (
			name varchar(140) primary key,
			creation datetime(6),
			modified datetime(6),
			modified_by varchar(140),
			owner varchar(140),
			docstatus int(1) not null default '0',
			idx int(8) not null default '0',
			`cost_center` varchar(140),
`percentage` decimal(21,9) not null default 0,
parent varchar(140),
parentfield varchar(140),
parenttype varchar(140),
index parent(parent),

			index modified(modified))
			ENGINE=InnoDB
			ROW_FORMAT=DYNAMIC
			CHARACTER SET=utf8mb4
			COLLATE=utf8mb4_unicode_ci
2023-08-24 22:46:06,766 WARNING database DDL Query made to DB:
create table `tabInvoice Discounting` (
			name varchar(140) primary key,
			creation datetime(6),
			modified datetime(6),
			modified_by varchar(140),
			owner varchar(140),
			docstatus int(1) not null default '0',
			idx int(8) not null default '0',
			`posting_date` date,
`loan_start_date` date,
`loan_period` int(11) not null default 0,
`loan_end_date` date,
`status` varchar(140),
`company` varchar(140),
`total_amount` decimal(21,9) not null default 0,
`bank_charges` decimal(21,9) not null default 0,
`short_term_loan` varchar(140),
`bank_account` varchar(140),
`bank_charges_account` varchar(140),
`accounts_receivable_credit` varchar(140),
`accounts_receivable_discounted` varchar(140),
`accounts_receivable_unpaid` varchar(140),
`amended_from` varchar(140),
`_user_tags` text,
`_comments` text,
`_assign` text,
`_liked_by` text,

			index modified(modified))
			ENGINE=InnoDB
			ROW_FORMAT=DYNAMIC
			CHARACTER SET=utf8mb4
			COLLATE=utf8mb4_unicode_ci
2023-08-24 22:46:06,866 WARNING database DDL Query made to DB:
create table `tabDunning` (
			name varchar(140) primary key,
			creation datetime(6),
			modified datetime(6),
			modified_by varchar(140),
			owner varchar(140),
			docstatus int(1) not null default '0',
			idx int(8) not null default '0',
			`title` varchar(140) default '{customer_name}',
`naming_series` varchar(140) default 'DUNN-.MM.-.YY.-',
`sales_invoice` varchar(140),
`customer` varchar(140),
`customer_name` varchar(140),
`outstanding_amount` decimal(21,9) not null default 0,
`currency` varchar(140),
`conversion_rate` decimal(21,9) not null default 0,
`company` varchar(140),
`posting_date` date,
`posting_time` time(6),
`due_date` date,
`overdue_days` int(11) not null default 0,
`address_display` text,
`contact_display` text,
`contact_mobile` text,
`contact_email` varchar(140),
`company_address_display` text,
`dunning_type` varchar(140),
`dunning_fee` decimal(21,9) not null default 0,
`rate_of_interest` decimal(21,9) not null default 0,
`interest_amount` decimal(21,9) not null default 0,
`dunning_amount` decimal(21,9) not null default 0,
`grand_total` decimal(21,9) not null default 0,
`income_account` varchar(140),
`status` varchar(140) default 'Unresolved',
`language` varchar(140),
`body_text` longtext,
`letter_head` varchar(140),
`closing_text` longtext,
`amended_from` varchar(140),
`_user_tags` text,
`_comments` text,
`_assign` text,
`_liked_by` text,

			index modified(modified))
			ENGINE=InnoDB
			ROW_FORMAT=DYNAMIC
			CHARACTER SET=utf8mb4
			COLLATE=utf8mb4_unicode_ci
2023-08-24 22:46:06,930 WARNING database DDL Query made to DB:
create table `tabSupplier Group Item` (
			name varchar(140) primary key,
			creation datetime(6),
			modified datetime(6),
			modified_by varchar(140),
			owner varchar(140),
			docstatus int(1) not null default '0',
			idx int(8) not null default '0',
			`supplier_group` varchar(140),
parent varchar(140),
parentfield varchar(140),
parenttype varchar(140),
index parent(parent),

			index modified(modified))
			ENGINE=InnoDB
			ROW_FORMAT=DYNAMIC
			CHARACTER SET=utf8mb4
			COLLATE=utf8mb4_unicode_ci
2023-08-24 22:46:07,000 WARNING database DDL Query made to DB:
create table `tabCost Center` (
			name varchar(140) primary key,
			creation datetime(6),
			modified datetime(6),
			modified_by varchar(140),
			owner varchar(140),
			docstatus int(1) not null default '0',
			idx int(8) not null default '0',
			`cost_center_name` varchar(140),
`cost_center_number` varchar(140),
`parent_cost_center` varchar(140),
`company` varchar(140),
`is_group` int(1) not null default 0,
`disabled` int(1) not null default 0,
`lft` int(11) not null default 0,
`rgt` int(11) not null default 0,
`old_parent` varchar(140),
`_user_tags` text,
`_comments` text,
`_assign` text,
`_liked_by` text,
index `lft`(`lft`),
index `rgt`(`rgt`),

			index modified(modified))
			ENGINE=InnoDB
			ROW_FORMAT=DYNAMIC
			CHARACTER SET=utf8mb4
			COLLATE=utf8mb4_unicode_ci
2023-08-24 22:46:07,042 WARNING database DDL Query made to DB:
ALTER TABLE `tabCost Center`
				ADD INDEX `lft_rgt_index`(lft, rgt)
2023-08-24 22:46:07,103 WARNING database DDL Query made to DB:
create table `tabPeriod Closing Voucher` (
			name varchar(140) primary key,
			creation datetime(6),
			modified datetime(6),
			modified_by varchar(140),
			owner varchar(140),
			docstatus int(1) not null default '0',
			idx int(8) not null default '0',
			`transaction_date` date,
`posting_date` date,
`fiscal_year` varchar(140),
`amended_from` varchar(140),
`company` varchar(140),
`closing_account_head` varchar(140),
`remarks` text,
`gle_processing_status` varchar(140),
`error_message` text,
`_user_tags` text,
`_comments` text,
`_assign` text,
`_liked_by` text,

			index modified(modified))
			ENGINE=InnoDB
			ROW_FORMAT=DYNAMIC
			CHARACTER SET=utf8mb4
			COLLATE=utf8mb4_unicode_ci
2023-08-24 22:46:07,158 WARNING database DDL Query made to DB:
create table `tabPOS Customer Group` (
			name varchar(140) primary key,
			creation datetime(6),
			modified datetime(6),
			modified_by varchar(140),
			owner varchar(140),
			docstatus int(1) not null default '0',
			idx int(8) not null default '0',
			`customer_group` varchar(140),
parent varchar(140),
parentfield varchar(140),
parenttype varchar(140),
index parent(parent),

			index modified(modified))
			ENGINE=InnoDB
			ROW_FORMAT=DYNAMIC
			CHARACTER SET=utf8mb4
			COLLATE=utf8mb4_unicode_ci
2023-08-24 22:46:07,318 WARNING database DDL Query made to DB:
create table `tabSales Invoice Item` (
			name varchar(140) primary key,
			creation datetime(6),
			modified datetime(6),
			modified_by varchar(140),
			owner varchar(140),
			docstatus int(1) not null default '0',
			idx int(8) not null default '0',
			`barcode` varchar(140),
`has_item_scanned` int(1) not null default 0,
`item_code` varchar(140),
`item_name` varchar(140),
`customer_item_code` varchar(140),
`description` longtext,
`item_group` varchar(140),
`brand` varchar(140),
`image` text,
`qty` decimal(21,9) not null default 0,
`stock_uom` varchar(140),
`uom` varchar(140),
`conversion_factor` decimal(21,9) not null default 0,
`stock_qty` decimal(21,9) not null default 0,
`price_list_rate` decimal(21,9) not null default 0,
`base_price_list_rate` decimal(21,9) not null default 0,
`margin_type` varchar(140),
`margin_rate_or_amount` decimal(21,9) not null default 0,
`rate_with_margin` decimal(21,9) not null default 0,
`discount_percentage` decimal(21,9) not null default 0,
`discount_amount` decimal(21,9) not null default 0,
`base_rate_with_margin` decimal(21,9) not null default 0,
`rate` decimal(21,9) not null default 0,
`amount` decimal(21,9) not null default 0,
`item_tax_template` varchar(140),
`base_rate` decimal(21,9) not null default 0,
`base_amount` decimal(21,9) not null default 0,
`pricing_rules` text,
`stock_uom_rate` decimal(21,9) not null default 0,
`is_free_item` int(1) not null default 0,
`grant_commission` int(1) not null default 0,
`net_rate` decimal(21,9) not null default 0,
`net_amount` decimal(21,9) not null default 0,
`base_net_rate` decimal(21,9) not null default 0,
`base_net_amount` decimal(21,9) not null default 0,
`delivered_by_supplier` int(1) not null default 0,
`income_account` varchar(140),
`is_fixed_asset` int(1) not null default 0,
`asset` varchar(140),
`finance_book` varchar(140),
`expense_account` varchar(140),
`discount_account` varchar(140),
`deferred_revenue_account` varchar(140),
`service_stop_date` date,
`enable_deferred_revenue` int(1) not null default 0,
`service_start_date` date,
`service_end_date` date,
`weight_per_unit` decimal(21,9) not null default 0,
`total_weight` decimal(21,9) not null default 0,
`weight_uom` varchar(140),
`warehouse` varchar(140),
`target_warehouse` varchar(140),
`quality_inspection` varchar(140),
`batch_no` varchar(140),
`incoming_rate` decimal(21,9) not null default 0,
`allow_zero_valuation_rate` int(1) not null default 0,
`serial_no` text,
`item_tax_rate` text,
`actual_batch_qty` decimal(21,9) not null default 0,
`actual_qty` decimal(21,9) not null default 0,
`sales_order` varchar(140),
`so_detail` varchar(140),
`sales_invoice_item` varchar(140),
`delivery_note` varchar(140),
`dn_detail` varchar(140),
`delivered_qty` decimal(21,9) not null default 0,
`purchase_order` varchar(140),
`purchase_order_item` varchar(140),
`cost_center` varchar(140),
`project` varchar(140),
`page_break` int(1) not null default 0,
index `item_code`(`item_code`),
index `batch_no`(`batch_no`),
index `sales_order`(`sales_order`),
index `so_detail`(`so_detail`),
index `delivery_note`(`delivery_note`),
index `dn_detail`(`dn_detail`),
parent varchar(140),
parentfield varchar(140),
parenttype varchar(140),
index parent(parent),

			index modified(modified))
			ENGINE=InnoDB
			ROW_FORMAT=DYNAMIC
			CHARACTER SET=utf8mb4
			COLLATE=utf8mb4_unicode_ci
2023-08-24 22:46:07,373 WARNING database DDL Query made to DB:
create table `tabPOS Item Group` (
			name varchar(140) primary key,
			creation datetime(6),
			modified datetime(6),
			modified_by varchar(140),
			owner varchar(140),
			docstatus int(1) not null default '0',
			idx int(8) not null default '0',
			`item_group` varchar(140),
parent varchar(140),
parentfield varchar(140),
parenttype varchar(140),
index parent(parent),

			index modified(modified))
			ENGINE=InnoDB
			ROW_FORMAT=DYNAMIC
			CHARACTER SET=utf8mb4
			COLLATE=utf8mb4_unicode_ci
2023-08-24 22:46:07,450 WARNING database DDL Query made to DB:
create table `tabBank Statement Import` (
			name varchar(140) primary key,
			creation datetime(6),
			modified datetime(6),
			modified_by varchar(140),
			owner varchar(140),
			docstatus int(1) not null default '0',
			idx int(8) not null default '0',
			`company` varchar(140),
`bank_account` varchar(140),
`bank` varchar(140),
`google_sheets_url` varchar(140),
`import_file` text,
`status` varchar(140) default 'Pending',
`template_options` longtext,
`template_warnings` longtext,
`statement_import_log` longtext,
`show_failed_logs` int(1) not null default 0,
`reference_doctype` varchar(140) default 'Bank Transaction',
`import_type` varchar(140) default 'Insert New Records',
`submit_after_import` int(1) not null default 1,
`mute_emails` int(1) not null default 1,
`_user_tags` text,
`_comments` text,
`_assign` text,
`_liked_by` text,

			index modified(modified))
			ENGINE=InnoDB
			ROW_FORMAT=DYNAMIC
			CHARACTER SET=utf8mb4
			COLLATE=utf8mb4_unicode_ci
2023-08-24 22:46:07,511 WARNING database DDL Query made to DB:
create table `tabPayment Reconciliation Invoice` (
			name varchar(140) primary key,
			creation datetime(6),
			modified datetime(6),
			modified_by varchar(140),
			owner varchar(140),
			docstatus int(1) not null default '0',
			idx int(8) not null default '0',
			`invoice_type` varchar(140),
`invoice_number` varchar(140),
`invoice_date` date,
`amount` decimal(21,9) not null default 0,
`outstanding_amount` decimal(21,9) not null default 0,
`currency` varchar(140),
`exchange_rate` decimal(21,9) not null default 0,
parent varchar(140),
parentfield varchar(140),
parenttype varchar(140),
index parent(parent),

			index modified(modified))
			ENGINE=InnoDB
			ROW_FORMAT=DYNAMIC
			CHARACTER SET=utf8mb4
			COLLATE=utf8mb4_unicode_ci
2023-08-24 22:46:07,563 WARNING database DDL Query made to DB:
create table `tabTax Category` (
			name varchar(140) primary key,
			creation datetime(6),
			modified datetime(6),
			modified_by varchar(140),
			owner varchar(140),
			docstatus int(1) not null default '0',
			idx int(8) not null default '0',
			`title` varchar(140) unique,
`disabled` int(1) not null default 0,
`_user_tags` text,
`_comments` text,
`_assign` text,
`_liked_by` text,

			index modified(modified))
			ENGINE=InnoDB
			ROW_FORMAT=DYNAMIC
			CHARACTER SET=utf8mb4
			COLLATE=utf8mb4_unicode_ci
2023-08-24 22:46:07,627 WARNING database DDL Query made to DB:
create table `tabLedger Merge Accounts` (
			name varchar(140) primary key,
			creation datetime(6),
			modified datetime(6),
			modified_by varchar(140),
			owner varchar(140),
			docstatus int(1) not null default '0',
			idx int(8) not null default '0',
			`account` varchar(140),
`account_name` varchar(140),
`merged` int(1) not null default 0,
parent varchar(140),
parentfield varchar(140),
parenttype varchar(140),
index parent(parent),

			index modified(modified))
			ENGINE=InnoDB
			ROW_FORMAT=DYNAMIC
			CHARACTER SET=utf8mb4
			COLLATE=utf8mb4_unicode_ci
2023-08-24 22:46:07,711 WARNING database DDL Query made to DB:
create table `tabProcess Deferred Accounting` (
			name varchar(140) primary key,
			creation datetime(6),
			modified datetime(6),
			modified_by varchar(140),
			owner varchar(140),
			docstatus int(1) not null default '0',
			idx int(8) not null default '0',
			`company` varchar(140),
`type` varchar(140),
`account` varchar(140),
`posting_date` date,
`start_date` date,
`end_date` date,
`amended_from` varchar(140),
`_user_tags` text,
`_comments` text,
`_assign` text,
`_liked_by` text,

			index modified(modified))
			ENGINE=InnoDB
			ROW_FORMAT=DYNAMIC
			CHARACTER SET=utf8mb4
			COLLATE=utf8mb4_unicode_ci
2023-08-24 22:46:07,903 WARNING database DDL Query made to DB:
create table `tabPOS Invoice Reference` (
			name varchar(140) primary key,
			creation datetime(6),
			modified datetime(6),
			modified_by varchar(140),
			owner varchar(140),
			docstatus int(1) not null default '0',
			idx int(8) not null default '0',
			`pos_invoice` varchar(140),
`posting_date` date,
`customer` varchar(140),
`grand_total` decimal(21,9) not null default 0,
`is_return` int(1) not null default 0,
`return_against` varchar(140),
parent varchar(140),
parentfield varchar(140),
parenttype varchar(140),
index parent(parent),

			index modified(modified))
			ENGINE=InnoDB
			ROW_FORMAT=DYNAMIC
			CHARACTER SET=utf8mb4
			COLLATE=utf8mb4_unicode_ci
2023-08-24 22:46:08,030 WARNING database DDL Query made to DB:
create table `tabCheque Print Template` (
			name varchar(140) primary key,
			creation datetime(6),
			modified datetime(6),
			modified_by varchar(140),
			owner varchar(140),
			docstatus int(1) not null default '0',
			idx int(8) not null default '0',
			`has_print_format` int(1) not null default 0,
`bank_name` varchar(140),
`cheque_size` varchar(140) default 'Regular',
`starting_position_from_top_edge` decimal(21,9) not null default 0,
`cheque_width` decimal(21,9) not null default 20.0,
`cheque_height` decimal(21,9) not null default 9.0,
`scanned_cheque` text,
`is_account_payable` int(1) not null default 1,
`acc_pay_dist_from_top_edge` decimal(21,9) not null default 1.0,
`acc_pay_dist_from_left_edge` decimal(21,9) not null default 9.0,
`message_to_show` varchar(140) default 'Acc. Payee',
`date_dist_from_top_edge` decimal(21,9) not null default 1.0,
`date_dist_from_left_edge` decimal(21,9) not null default 15.0,
`payer_name_from_top_edge` decimal(21,9) not null default 2.0,
`payer_name_from_left_edge` decimal(21,9) not null default 3.0,
`amt_in_words_from_top_edge` decimal(21,9) not null default 3.0,
`amt_in_words_from_left_edge` decimal(21,9) not null default 4.0,
`amt_in_word_width` decimal(21,9) not null default 15.0,
`amt_in_words_line_spacing` decimal(21,9) not null default 0.5,
`amt_in_figures_from_top_edge` decimal(21,9) not null default 3.5,
`amt_in_figures_from_left_edge` decimal(21,9) not null default 16.0,
`acc_no_dist_from_top_edge` decimal(21,9) not null default 5.0,
`acc_no_dist_from_left_edge` decimal(21,9) not null default 4.0,
`signatory_from_top_edge` decimal(21,9) not null default 6.0,
`signatory_from_left_edge` decimal(21,9) not null default 15.0,
`_user_tags` text,
`_comments` text,
`_assign` text,
`_liked_by` text,

			index modified(modified))
			ENGINE=InnoDB
			ROW_FORMAT=DYNAMIC
			CHARACTER SET=utf8mb4
			COLLATE=utf8mb4_unicode_ci
2023-08-24 22:46:08,093 WARNING database DDL Query made to DB:
create table `tabPurchase Invoice Advance` (
			name varchar(140) primary key,
			creation datetime(6),
			modified datetime(6),
			modified_by varchar(140),
			owner varchar(140),
			docstatus int(1) not null default '0',
			idx int(8) not null default '0',
			`reference_type` varchar(140),
`reference_name` varchar(140),
`remarks` text,
`reference_row` varchar(140),
`advance_amount` decimal(21,9) not null default 0,
`allocated_amount` decimal(21,9) not null default 0,
`exchange_gain_loss` decimal(21,9) not null default 0,
`ref_exchange_rate` decimal(21,9) not null default 0,
parent varchar(140),
parentfield varchar(140),
parenttype varchar(140),
index parent(parent),

			index modified(modified))
			ENGINE=InnoDB
			ROW_FORMAT=DYNAMIC
			CHARACTER SET=utf8mb4
			COLLATE=utf8mb4_unicode_ci
2023-08-24 22:46:08,148 WARNING database DDL Query made to DB:
create table `tabMonthly Distribution Percentage` (
			name varchar(140) primary key,
			creation datetime(6),
			modified datetime(6),
			modified_by varchar(140),
			owner varchar(140),
			docstatus int(1) not null default '0',
			idx int(8) not null default '0',
			`month` varchar(140),
`percentage_allocation` decimal(21,9) not null default 0,
parent varchar(140),
parentfield varchar(140),
parenttype varchar(140),
index parent(parent),

			index modified(modified))
			ENGINE=InnoDB
			ROW_FORMAT=DYNAMIC
			CHARACTER SET=utf8mb4
			COLLATE=utf8mb4_unicode_ci
2023-08-24 22:46:08,235 WARNING database DDL Query made to DB:
create table `tabPromotional Scheme` (
			name varchar(140) primary key,
			creation datetime(6),
			modified datetime(6),
			modified_by varchar(140),
			owner varchar(140),
			docstatus int(1) not null default '0',
			idx int(8) not null default '0',
			`apply_on` varchar(140) default 'Item Code',
`disable` int(1) not null default 0,
`mixed_conditions` int(1) not null default 0,
`is_cumulative` int(1) not null default 0,
`apply_rule_on_other` varchar(140),
`other_item_code` varchar(140),
`other_item_group` varchar(140),
`other_brand` varchar(140),
`selling` int(1) not null default 0,
`buying` int(1) not null default 0,
`applicable_for` varchar(140),
`valid_from` date,
`valid_upto` date,
`company` varchar(140),
`currency` varchar(140),
`_user_tags` text,
`_comments` text,
`_assign` text,
`_liked_by` text,

			index modified(modified))
			ENGINE=InnoDB
			ROW_FORMAT=DYNAMIC
			CHARACTER SET=utf8mb4
			COLLATE=utf8mb4_unicode_ci
2023-08-24 22:46:08,352 WARNING database DDL Query made to DB:
create table `tabProcess Statement Of Accounts` (
			name varchar(140) primary key,
			creation datetime(6),
			modified datetime(6),
			modified_by varchar(140),
			owner varchar(140),
			docstatus int(1) not null default '0',
			idx int(8) not null default '0',
			`report` varchar(140),
`from_date` date,
`posting_date` date,
`company` varchar(140),
`account` varchar(140),
`group_by` varchar(140) default 'Group by Voucher (Consolidated)',
`territory` varchar(140),
`to_date` date,
`finance_book` varchar(140),
`currency` varchar(140),
`payment_terms_template` varchar(140),
`sales_partner` varchar(140),
`sales_person` varchar(140),
`based_on_payment_terms` int(1) not null default 0,
`customer_collection` varchar(140),
`collection_name` varchar(140),
`primary_mandatory` int(1) not null default 1,
`orientation` varchar(140),
`include_ageing` int(1) not null default 0,
`ageing_based_on` varchar(140) default 'Due Date',
`letter_head` varchar(140),
`terms_and_conditions` varchar(140),
`enable_auto_email` int(1) not null default 0,
`sender` varchar(140),
`frequency` varchar(140),
`filter_duration` int(11) not null default 1,
`start_date` date,
`subject` varchar(140),
`cc_to` varchar(140),
`body` longtext,
`include_break` int(1) not null default 1,
`show_net_values_in_party_account` int(1) not null default 0,
`_user_tags` text,
`_comments` text,
`_assign` text,
`_liked_by` text,

			index modified(modified))
			ENGINE=InnoDB
			ROW_FORMAT=DYNAMIC
			CHARACTER SET=utf8mb4
			COLLATE=utf8mb4_unicode_ci
