2023-08-24 22:43:16,531 WARNING database DDL Query made to DB:
create table `tabOAuth Bearer Token` (
			name varchar(140) primary key,
			creation datetime(6),
			modified datetime(6),
			modified_by varchar(140),
			owner varchar(140),
			docstatus int(1) not null default '0',
			idx int(8) not null default '0',
			`client` varchar(140),
`user` varchar(140),
`scopes` text,
`access_token` varchar(140) unique,
`refresh_token` varchar(140),
`expiration_time` datetime(6),
`expires_in` int(11) not null default 0,
`status` varchar(140),
`_user_tags` text,
`_comments` text,
`_assign` text,
`_liked_by` text,

			index modified(modified))
			ENGINE=InnoDB
			ROW_FORMAT=DYNAMIC
			CHARACTER SET=utf8mb4
			COLLATE=utf8mb4_unicode_ci
2023-08-24 22:43:16,583 WARNING database DDL Query made to DB:
create table `tabQuery Parameters` (
			name varchar(140) primary key,
			creation datetime(6),
			modified datetime(6),
			modified_by varchar(140),
			owner varchar(140),
			docstatus int(1) not null default '0',
			idx int(8) not null default '0',
			`key` varchar(140),
`value` varchar(140),
parent varchar(140),
parentfield varchar(140),
parenttype varchar(140),
index parent(parent),

			index modified(modified))
			ENGINE=InnoDB
			ROW_FORMAT=DYNAMIC
			CHARACTER SET=utf8mb4
			COLLATE=utf8mb4_unicode_ci
2023-08-24 22:43:16,625 WARNING database DDL Query made to DB:
create table `tabOAuth Scope` (
			name varchar(140) primary key,
			creation datetime(6),
			modified datetime(6),
			modified_by varchar(140),
			owner varchar(140),
			docstatus int(1) not null default '0',
			idx int(8) not null default '0',
			`scope` varchar(140),
parent varchar(140),
parentfield varchar(140),
parenttype varchar(140),
index parent(parent),

			index modified(modified))
			ENGINE=InnoDB
			ROW_FORMAT=DYNAMIC
			CHARACTER SET=utf8mb4
			COLLATE=utf8mb4_unicode_ci
2023-08-24 22:43:16,684 WARNING database DDL Query made to DB:
create table `tabOAuth Authorization Code` (
			name varchar(140) primary key,
			creation datetime(6),
			modified datetime(6),
			modified_by varchar(140),
			owner varchar(140),
			docstatus int(1) not null default '0',
			idx int(8) not null default '0',
			`client` varchar(140),
`user` varchar(140),
`scopes` text,
`authorization_code` varchar(140) unique,
`expiration_time` datetime(6),
`redirect_uri_bound_to_authorization_code` varchar(140),
`validity` varchar(140),
`nonce` varchar(140),
`code_challenge` varchar(140),
`code_challenge_method` varchar(140),
`_user_tags` text,
`_comments` text,
`_assign` text,
`_liked_by` text,

			index modified(modified))
			ENGINE=InnoDB
			ROW_FORMAT=DYNAMIC
			CHARACTER SET=utf8mb4
			COLLATE=utf8mb4_unicode_ci
2023-08-24 22:43:16,739 WARNING database DDL Query made to DB:
create table `tabGoogle Contacts` (
			name varchar(140) primary key,
			creation datetime(6),
			modified datetime(6),
			modified_by varchar(140),
			owner varchar(140),
			docstatus int(1) not null default '0',
			idx int(8) not null default '0',
			`enable` int(1) not null default 0,
`email_id` varchar(140),
`last_sync_on` datetime(6),
`authorization_code` text,
`refresh_token` text,
`next_sync_token` text,
`pull_from_google_contacts` int(1) not null default 0,
`push_to_google_contacts` int(1) not null default 0,
`_user_tags` text,
`_comments` text,
`_assign` text,
`_liked_by` text,

			index modified(modified))
			ENGINE=InnoDB
			ROW_FORMAT=DYNAMIC
			CHARACTER SET=utf8mb4
			COLLATE=utf8mb4_unicode_ci
2023-08-24 22:43:16,865 WARNING database DDL Query made to DB:
create table `tabWebhook` (
			name varchar(140) primary key,
			creation datetime(6),
			modified datetime(6),
			modified_by varchar(140),
			owner varchar(140),
			docstatus int(1) not null default '0',
			idx int(8) not null default '0',
			`naming_series` varchar(140),
`webhook_doctype` varchar(140),
`webhook_docevent` varchar(140),
`enabled` int(1) not null default 1,
`condition` text,
`request_url` varchar(140),
`request_method` varchar(140) default 'POST',
`request_structure` varchar(140),
`enable_security` int(1) not null default 0,
`webhook_secret` text,
`webhook_json` longtext,
`preview_document` varchar(140),
`_user_tags` text,
`_comments` text,
`_assign` text,
`_liked_by` text,

			index modified(modified))
			ENGINE=InnoDB
			ROW_FORMAT=DYNAMIC
			CHARACTER SET=utf8mb4
			COLLATE=utf8mb4_unicode_ci
2023-08-24 22:43:17,072 WARNING database DDL Query made to DB:
create table `tabSocial Login Key` (
			name varchar(140) primary key,
			creation datetime(6),
			modified datetime(6),
			modified_by varchar(140),
			owner varchar(140),
			docstatus int(1) not null default '0',
			idx int(8) not null default '0',
			`enable_social_login` int(1) not null default 0,
`social_login_provider` varchar(140) default 'Custom',
`client_id` varchar(140),
`provider_name` varchar(140),
`client_secret` text,
`icon` varchar(140),
`base_url` varchar(140),
`authorize_url` varchar(140),
`access_token_url` varchar(140),
`redirect_url` varchar(140),
`api_endpoint` varchar(140),
`custom_base_url` int(1) not null default 0,
`api_endpoint_args` longtext,
`auth_url_data` longtext,
`user_id_property` varchar(140),
`_user_tags` text,
`_comments` text,
`_assign` text,
`_liked_by` text,

			index modified(modified))
			ENGINE=InnoDB
			ROW_FORMAT=DYNAMIC
			CHARACTER SET=utf8mb4
			COLLATE=utf8mb4_unicode_ci
2023-08-24 22:43:17,340 WARNING database DDL Query made to DB:
create table `tabLetter Head` (
			name varchar(140) primary key,
			creation datetime(6),
			modified datetime(6),
			modified_by varchar(140),
			owner varchar(140),
			docstatus int(1) not null default '0',
			idx int(8) not null default '0',
			`letter_head_name` varchar(140) unique,
`source` varchar(140),
`footer_source` varchar(140) default 'HTML',
`disabled` int(1) not null default 0,
`is_default` int(1) not null default 0,
`image` text,
`image_height` decimal(21,9) not null default 0,
`image_width` decimal(21,9) not null default 0,
`align` varchar(140) default 'Left',
`content` longtext,
`footer` longtext,
`footer_image` text,
`footer_image_height` decimal(21,9) not null default 0,
`footer_image_width` decimal(21,9) not null default 0,
`footer_align` varchar(140),
`_user_tags` text,
`_comments` text,
`_assign` text,
`_liked_by` text,
index `is_default`(`is_default`),

			index modified(modified))
			ENGINE=InnoDB
			ROW_FORMAT=DYNAMIC
			CHARACTER SET=utf8mb4
			COLLATE=utf8mb4_unicode_ci
2023-08-24 22:43:17,630 WARNING database DDL Query made to DB:
create table `tabPrint Format Field Template` (
			name varchar(140) primary key,
			creation datetime(6),
			modified datetime(6),
			modified_by varchar(140),
			owner varchar(140),
			docstatus int(1) not null default '0',
			idx int(8) not null default '0',
			`document_type` varchar(140),
`field` varchar(140),
`template_file` varchar(140),
`module` varchar(140),
`standard` int(1) not null default 0,
`template` longtext,
`_user_tags` text,
`_comments` text,
`_assign` text,
`_liked_by` text,

			index modified(modified))
			ENGINE=InnoDB
			ROW_FORMAT=DYNAMIC
			CHARACTER SET=utf8mb4
			COLLATE=utf8mb4_unicode_ci
2023-08-24 22:43:17,680 WARNING database DDL Query made to DB:
create table `tabPrint Heading` (
			name varchar(140) primary key,
			creation datetime(6),
			modified datetime(6),
			modified_by varchar(140),
			owner varchar(140),
			docstatus int(1) not null default '0',
			idx int(8) not null default '0',
			`print_heading` varchar(140),
`description` text,
`_user_tags` text,
`_comments` text,
`_assign` text,
`_liked_by` text,

			index modified(modified))
			ENGINE=InnoDB
			ROW_FORMAT=DYNAMIC
			CHARACTER SET=utf8mb4
			COLLATE=utf8mb4_unicode_ci
2023-08-24 22:43:17,753 WARNING database DDL Query made to DB:
create table `tabNetwork Printer Settings` (
			name varchar(140) primary key,
			creation datetime(6),
			modified datetime(6),
			modified_by varchar(140),
			owner varchar(140),
			docstatus int(1) not null default '0',
			idx int(8) not null default '0',
			`server_ip` varchar(140) default 'localhost',
`port` int(11) not null default 631,
`printer_name` varchar(140),
`_user_tags` text,
`_comments` text,
`_assign` text,
`_liked_by` text,

			index modified(modified))
			ENGINE=InnoDB
			ROW_FORMAT=DYNAMIC
			CHARACTER SET=utf8mb4
			COLLATE=utf8mb4_unicode_ci
2023-08-24 22:43:17,982 WARNING database DDL Query made to DB:
create table `tabAddress Template` (
			name varchar(140) primary key,
			creation datetime(6),
			modified datetime(6),
			modified_by varchar(140),
			owner varchar(140),
			docstatus int(1) not null default '0',
			idx int(8) not null default '0',
			`country` varchar(140),
`is_default` int(1) not null default 0,
`template` longtext,
`_user_tags` text,
`_comments` text,
`_assign` text,
`_liked_by` text,
index `country`(`country`),

			index modified(modified))
			ENGINE=InnoDB
			ROW_FORMAT=DYNAMIC
			CHARACTER SET=utf8mb4
			COLLATE=utf8mb4_unicode_ci
2023-08-24 22:43:18,149 WARNING database DDL Query made to DB:
create table `tabContact Phone` (
			name varchar(140) primary key,
			creation datetime(6),
			modified datetime(6),
			modified_by varchar(140),
			owner varchar(140),
			docstatus int(1) not null default '0',
			idx int(8) not null default '0',
			`phone` varchar(140),
`is_primary_phone` int(1) not null default 0,
`is_primary_mobile_no` int(1) not null default 0,
parent varchar(140),
parentfield varchar(140),
parenttype varchar(140),
index parent(parent),

			index modified(modified))
			ENGINE=InnoDB
			ROW_FORMAT=DYNAMIC
			CHARACTER SET=utf8mb4
			COLLATE=utf8mb4_unicode_ci
2023-08-24 22:43:18,233 WARNING database DDL Query made to DB:
create table `tabContact` (
			name varchar(140) primary key,
			creation datetime(6),
			modified datetime(6),
			modified_by varchar(140),
			owner varchar(140),
			docstatus int(1) not null default '0',
			idx int(8) not null default '0',
			`first_name` varchar(140),
`middle_name` varchar(140),
`last_name` varchar(140),
`email_id` varchar(140),
`user` varchar(140),
`address` varchar(140),
`sync_with_google_contacts` int(1) not null default 0,
`status` varchar(140) default 'Passive',
`salutation` varchar(140),
`designation` varchar(140),
`gender` varchar(140),
`phone` varchar(140),
`mobile_no` varchar(140),
`company_name` varchar(140),
`image` text,
`google_contacts` varchar(140),
`google_contacts_id` varchar(140),
`pulled_from_google_contacts` int(1) not null default 0,
`is_primary_contact` int(1) not null default 0,
`department` varchar(140),
`unsubscribed` int(1) not null default 0,
`_user_tags` text,
`_comments` text,
`_assign` text,
`_liked_by` text,
index `email_id`(`email_id`),

			index modified(modified))
			ENGINE=InnoDB
			ROW_FORMAT=DYNAMIC
			CHARACTER SET=utf8mb4
			COLLATE=utf8mb4_unicode_ci
2023-08-24 22:43:18,347 WARNING database DDL Query made to DB:
create table `tabSalutation` (
			name varchar(140) primary key,
			creation datetime(6),
			modified datetime(6),
			modified_by varchar(140),
			owner varchar(140),
			docstatus int(1) not null default '0',
			idx int(8) not null default '0',
			`salutation` varchar(140) unique,
`_user_tags` text,
`_comments` text,
`_assign` text,
`_liked_by` text,

			index modified(modified))
			ENGINE=InnoDB
			ROW_FORMAT=DYNAMIC
			CHARACTER SET=utf8mb4
			COLLATE=utf8mb4_unicode_ci
2023-08-24 22:43:18,393 WARNING database DDL Query made to DB:
create table `tabContact Email` (
			name varchar(140) primary key,
			creation datetime(6),
			modified datetime(6),
			modified_by varchar(140),
			owner varchar(140),
			docstatus int(1) not null default '0',
			idx int(8) not null default '0',
			`email_id` varchar(140),
`is_primary` int(1) not null default 0,
parent varchar(140),
parentfield varchar(140),
parenttype varchar(140),
index parent(parent),

			index modified(modified))
			ENGINE=InnoDB
			ROW_FORMAT=DYNAMIC
			CHARACTER SET=utf8mb4
			COLLATE=utf8mb4_unicode_ci
2023-08-24 22:43:18,440 WARNING database DDL Query made to DB:
create table `tabGender` (
			name varchar(140) primary key,
			creation datetime(6),
			modified datetime(6),
			modified_by varchar(140),
			owner varchar(140),
			docstatus int(1) not null default '0',
			idx int(8) not null default '0',
			`gender` varchar(140) unique,
`_user_tags` text,
`_comments` text,
`_assign` text,
`_liked_by` text,

			index modified(modified))
			ENGINE=InnoDB
			ROW_FORMAT=DYNAMIC
			CHARACTER SET=utf8mb4
			COLLATE=utf8mb4_unicode_ci
2023-08-24 22:43:18,515 WARNING database DDL Query made to DB:
create table `tabAddress` (
			name varchar(140) primary key,
			creation datetime(6),
			modified datetime(6),
			modified_by varchar(140),
			owner varchar(140),
			docstatus int(1) not null default '0',
			idx int(8) not null default '0',
			`address_title` varchar(140),
`address_type` varchar(140),
`address_line1` varchar(140),
`address_line2` varchar(140),
`city` varchar(140),
`county` varchar(140),
`state` varchar(140),
`country` varchar(140),
`pincode` varchar(140),
`email_id` varchar(140),
`phone` varchar(140),
`fax` varchar(140),
`is_primary_address` int(1) not null default 0,
`is_shipping_address` int(1) not null default 0,
`disabled` int(1) not null default 0,
`_user_tags` text,
`_comments` text,
`_assign` text,
`_liked_by` text,
index `city`(`city`),
index `country`(`country`),
index `pincode`(`pincode`),

			index modified(modified))
			ENGINE=InnoDB
			ROW_FORMAT=DYNAMIC
			CHARACTER SET=utf8mb4
			COLLATE=utf8mb4_unicode_ci
2023-08-24 22:43:18,651 WARNING database DDL Query made to DB:
create table `tabEnergy Point Rule` (
			name varchar(140) primary key,
			creation datetime(6),
			modified datetime(6),
			modified_by varchar(140),
			owner varchar(140),
			docstatus int(1) not null default '0',
			idx int(8) not null default '0',
			`enabled` int(1) not null default 1,
`rule_name` varchar(140) unique,
`reference_doctype` varchar(140),
`for_doc_event` varchar(140) default 'Custom',
`field_to_check` varchar(140),
`points` int(11) not null default 0,
`for_assigned_users` int(1) not null default 0,
`user_field` varchar(140),
`multiplier_field` varchar(140),
`max_points` int(11) not null default 0,
`apply_only_once` int(1) not null default 0,
`condition` longtext,
`_user_tags` text,
`_comments` text,
`_assign` text,
`_liked_by` text,

			index modified(modified))
			ENGINE=InnoDB
			ROW_FORMAT=DYNAMIC
			CHARACTER SET=utf8mb4
			COLLATE=utf8mb4_unicode_ci
2023-08-24 22:43:18,843 WARNING database DDL Query made to DB:
create table `tabReview Level` (
			name varchar(140) primary key,
			creation datetime(6),
			modified datetime(6),
			modified_by varchar(140),
			owner varchar(140),
			docstatus int(1) not null default '0',
			idx int(8) not null default '0',
			`level_name` varchar(140) unique,
`role` varchar(140) unique,
`review_points` int(11) not null default 0,
parent varchar(140),
parentfield varchar(140),
parenttype varchar(140),
index parent(parent),

			index modified(modified))
			ENGINE=InnoDB
			ROW_FORMAT=DYNAMIC
			CHARACTER SET=utf8mb4
			COLLATE=utf8mb4_unicode_ci
2023-08-24 22:43:18,922 WARNING database DDL Query made to DB:
create sequence if not exists energy_point_log_id_seq nocache nocycle
2023-08-24 22:43:18,937 WARNING database DDL Query made to DB:
create table `tabEnergy Point Log` (
			name bigint primary key,
			creation datetime(6),
			modified datetime(6),
			modified_by varchar(140),
			owner varchar(140),
			docstatus int(1) not null default '0',
			idx int(8) not null default '0',
			`user` varchar(140),
`type` varchar(140),
`points` int(11) not null default 0,
`rule` varchar(140),
`reference_doctype` varchar(140),
`reference_name` varchar(140),
`reverted` int(1) not null default 0,
`revert_of` varchar(140),
`reason` text,
`seen` int(1) not null default 0,
`_user_tags` text,
`_comments` text,
`_assign` text,
`_liked_by` text,
index `user`(`user`),
index `reference_name`(`reference_name`),

			index modified(modified))
			ENGINE=InnoDB
			ROW_FORMAT=DYNAMIC
			CHARACTER SET=utf8mb4
			COLLATE=utf8mb4_unicode_ci
2023-08-24 22:43:19,071 WARNING database DDL Query made to DB:
create table `tabAssignment Rule` (
			name varchar(140) primary key,
			creation datetime(6),
			modified datetime(6),
			modified_by varchar(140),
			owner varchar(140),
			docstatus int(1) not null default '0',
			idx int(8) not null default '0',
			`document_type` varchar(140),
`due_date_based_on` varchar(140),
`priority` int(11) not null default 0,
`disabled` int(1) not null default 0,
`description` text default 'Automatic Assignment',
`assign_condition` longtext,
`unassign_condition` longtext,
`close_condition` longtext,
`rule` varchar(140),
`field` varchar(140),
`last_user` varchar(140),
`_user_tags` text,
`_comments` text,
`_assign` text,
`_liked_by` text,

			index modified(modified))
			ENGINE=InnoDB
			ROW_FORMAT=DYNAMIC
			CHARACTER SET=utf8mb4
			COLLATE=utf8mb4_unicode_ci
2023-08-24 22:43:19,258 WARNING database DDL Query made to DB:
create table `tabAuto Repeat Day` (
			name varchar(140) primary key,
			creation datetime(6),
			modified datetime(6),
			modified_by varchar(140),
			owner varchar(140),
			docstatus int(1) not null default '0',
			idx int(8) not null default '0',
			`day` varchar(140),
parent varchar(140),
parentfield varchar(140),
parenttype varchar(140),
index parent(parent),

			index modified(modified))
			ENGINE=InnoDB
			ROW_FORMAT=DYNAMIC
			CHARACTER SET=utf8mb4
			COLLATE=utf8mb4_unicode_ci
2023-08-24 22:43:19,298 WARNING database DDL Query made to DB:
create table `tabAssignment Rule User` (
			name varchar(140) primary key,
			creation datetime(6),
			modified datetime(6),
			modified_by varchar(140),
			owner varchar(140),
			docstatus int(1) not null default '0',
			idx int(8) not null default '0',
			`user` varchar(140),
parent varchar(140),
parentfield varchar(140),
parenttype varchar(140),
index parent(parent),

			index modified(modified))
			ENGINE=InnoDB
			ROW_FORMAT=DYNAMIC
			CHARACTER SET=utf8mb4
			COLLATE=utf8mb4_unicode_ci
2023-08-24 22:43:19,395 WARNING database DDL Query made to DB:
create table `tabMilestone` (
			name varchar(140) primary key,
			creation datetime(6),
			modified datetime(6),
			modified_by varchar(140),
			owner varchar(140),
			docstatus int(1) not null default '0',
			idx int(8) not null default '0',
			`reference_type` varchar(140),
`reference_name` varchar(140),
`track_field` varchar(140),
`value` varchar(140),
`milestone_tracker` varchar(140),
`_user_tags` text,
`_comments` text,
`_assign` text,
`_liked_by` text,
index `reference_type`(`reference_type`),

			index modified(modified))
			ENGINE=InnoDB
			ROW_FORMAT=DYNAMIC
			CHARACTER SET=utf8mb4
			COLLATE=utf8mb4_unicode_ci
2023-08-24 22:43:19,421 WARNING database DDL Query made to DB:
ALTER TABLE `tabMilestone`
				ADD INDEX `reference_type_reference_name_index`(reference_type, reference_name)
2023-08-24 22:43:19,485 WARNING database DDL Query made to DB:
create table `tabAuto Repeat` (
			name varchar(140) primary key,
			creation datetime(6),
			modified datetime(6),
			modified_by varchar(140),
			owner varchar(140),
			docstatus int(1) not null default '0',
			idx int(8) not null default '0',
			`disabled` int(1) not null default 0,
`reference_doctype` varchar(140),
`reference_document` varchar(140),
`submit_on_creation` int(1) not null default 0,
`start_date` date,
`end_date` date,
`frequency` varchar(140),
`repeat_on_day` int(11) not null default 0,
`repeat_on_last_day` int(1) not null default 0,
`next_schedule_date` date,
`notify_by_email` int(1) not null default 0,
`recipients` text,
`template` varchar(140),
`subject` varchar(140),
`message` text default 'Please find attached {{ doc.doctype }} #{{ doc.name }}',
`print_format` varchar(140),
`status` varchar(140),
`_user_tags` text,
`_comments` text,
`_assign` text,
`_liked_by` text,
index `next_schedule_date`(`next_schedule_date`),

			index modified(modified))
			ENGINE=InnoDB
			ROW_FORMAT=DYNAMIC
			CHARACTER SET=utf8mb4
			COLLATE=utf8mb4_unicode_ci
2023-08-24 22:43:19,539 WARNING database DDL Query made to DB:
create table `tabMilestone Tracker` (
			name varchar(140) primary key,
			creation datetime(6),
			modified datetime(6),
			modified_by varchar(140),
			owner varchar(140),
			docstatus int(1) not null default '0',
			idx int(8) not null default '0',
			`document_type` varchar(140) unique,
`track_field` varchar(140),
`disabled` int(1) not null default 0,
`_user_tags` text,
`_comments` text,
`_assign` text,
`_liked_by` text,

			index modified(modified))
			ENGINE=InnoDB
			ROW_FORMAT=DYNAMIC
			CHARACTER SET=utf8mb4
			COLLATE=utf8mb4_unicode_ci
2023-08-24 22:43:19,586 WARNING database DDL Query made to DB:
create table `tabAssignment Rule Day` (
			name varchar(140) primary key,
			creation datetime(6),
			modified datetime(6),
			modified_by varchar(140),
			owner varchar(140),
			docstatus int(1) not null default '0',
			idx int(8) not null default '0',
			`day` varchar(140),
parent varchar(140),
parentfield varchar(140),
parenttype varchar(140),
index parent(parent),

			index modified(modified))
			ENGINE=InnoDB
			ROW_FORMAT=DYNAMIC
			CHARACTER SET=utf8mb4
			COLLATE=utf8mb4_unicode_ci
2023-08-24 22:43:19,707 WARNING database DDL Query made to DB:
create table `tabEvent Consumer Document Type` (
			name varchar(140) primary key,
			creation datetime(6),
			modified datetime(6),
			modified_by varchar(140),
			owner varchar(140),
			docstatus int(1) not null default '0',
			idx int(8) not null default '0',
			`ref_doctype` varchar(140),
`status` varchar(140) default 'Pending',
`unsubscribed` int(1) not null default 0,
`condition` longtext,
parent varchar(140),
parentfield varchar(140),
parenttype varchar(140),
index parent(parent),

			index modified(modified))
			ENGINE=InnoDB
			ROW_FORMAT=DYNAMIC
			CHARACTER SET=utf8mb4
			COLLATE=utf8mb4_unicode_ci
2023-08-24 22:43:19,919 WARNING database DDL Query made to DB:
create table `tabEvent Producer` (
			name varchar(140) primary key,
			creation datetime(6),
			modified datetime(6),
			modified_by varchar(140),
			owner varchar(140),
			docstatus int(1) not null default '0',
			idx int(8) not null default '0',
			`producer_url` varchar(140) unique,
`api_key` varchar(140),
`api_secret` text,
`user` varchar(140),
`incoming_change` int(1) not null default 0,
`_user_tags` text,
`_comments` text,
`_assign` text,
`_liked_by` text,

			index modified(modified))
			ENGINE=InnoDB
			ROW_FORMAT=DYNAMIC
			CHARACTER SET=utf8mb4
			COLLATE=utf8mb4_unicode_ci
2023-08-24 22:43:19,971 WARNING database DDL Query made to DB:
create table `tabDocument Type Field Mapping` (
			name varchar(140) primary key,
			creation datetime(6),
			modified datetime(6),
			modified_by varchar(140),
			owner varchar(140),
			docstatus int(1) not null default '0',
			idx int(8) not null default '0',
			`local_fieldname` varchar(140),
`mapping_type` varchar(140),
`mapping` varchar(140),
`remote_value_filters` longtext,
`remote_fieldname` varchar(140),
`default_value` varchar(140),
parent varchar(140),
parentfield varchar(140),
parenttype varchar(140),
index parent(parent),

			index modified(modified))
			ENGINE=InnoDB
			ROW_FORMAT=DYNAMIC
			CHARACTER SET=utf8mb4
			COLLATE=utf8mb4_unicode_ci
2023-08-24 22:43:20,022 WARNING database DDL Query made to DB:
create table `tabEvent Producer Document Type` (
			name varchar(140) primary key,
			creation datetime(6),
			modified datetime(6),
			modified_by varchar(140),
			owner varchar(140),
			docstatus int(1) not null default '0',
			idx int(8) not null default '0',
			`ref_doctype` varchar(140),
`status` varchar(140) default 'Pending',
`use_same_name` int(1) not null default 0,
`unsubscribe` int(1) not null default 0,
`has_mapping` int(1) not null default 0,
`mapping` varchar(140),
`condition` longtext,
parent varchar(140),
parentfield varchar(140),
parenttype varchar(140),
index parent(parent),

			index modified(modified))
			ENGINE=InnoDB
			ROW_FORMAT=DYNAMIC
			CHARACTER SET=utf8mb4
			COLLATE=utf8mb4_unicode_ci
2023-08-24 22:43:20,074 WARNING database DDL Query made to DB:
create sequence if not exists event_sync_log_id_seq nocache nocycle
2023-08-24 22:43:20,086 WARNING database DDL Query made to DB:
create table `tabEvent Sync Log` (
			name bigint primary key,
			creation datetime(6),
			modified datetime(6),
			modified_by varchar(140),
			owner varchar(140),
			docstatus int(1) not null default '0',
			idx int(8) not null default '0',
			`update_type` varchar(140),
`ref_doctype` varchar(140),
`docname` varchar(140),
`status` varchar(140),
`event_producer` varchar(140),
`producer_doc` varchar(140),
`use_same_name` varchar(140) default '0',
`mapping` varchar(140),
`data` longtext,
`error` longtext,
`_user_tags` text,
`_comments` text,
`_assign` text,
`_liked_by` text,

			index modified(modified))
			ENGINE=InnoDB
			ROW_FORMAT=DYNAMIC
			CHARACTER SET=utf8mb4
			COLLATE=utf8mb4_unicode_ci
2023-08-24 22:43:20,189 WARNING database DDL Query made to DB:
create table `tabEvent Consumer` (
			name varchar(140) primary key,
			creation datetime(6),
			modified datetime(6),
			modified_by varchar(140),
			owner varchar(140),
			docstatus int(1) not null default '0',
			idx int(8) not null default '0',
			`callback_url` varchar(140) unique,
`api_key` varchar(140),
`api_secret` text,
`user` varchar(140),
`incoming_change` int(1) not null default 0,
`_user_tags` text,
`_comments` text,
`_assign` text,
`_liked_by` text,

			index modified(modified))
			ENGINE=InnoDB
			ROW_FORMAT=DYNAMIC
			CHARACTER SET=utf8mb4
			COLLATE=utf8mb4_unicode_ci
2023-08-24 22:43:20,243 WARNING database DDL Query made to DB:
create table `tabDocument Type Mapping` (
			name varchar(140) primary key,
			creation datetime(6),
			modified datetime(6),
			modified_by varchar(140),
			owner varchar(140),
			docstatus int(1) not null default '0',
			idx int(8) not null default '0',
			`mapping_name` varchar(140) unique,
`local_doctype` varchar(140),
`remote_doctype` varchar(140),
`_user_tags` text,
`_comments` text,
`_assign` text,
`_liked_by` text,

			index modified(modified))
			ENGINE=InnoDB
			ROW_FORMAT=DYNAMIC
			CHARACTER SET=utf8mb4
			COLLATE=utf8mb4_unicode_ci
2023-08-24 22:43:20,293 WARNING database DDL Query made to DB:
create table `tabEvent Update Log Consumer` (
			name varchar(140) primary key,
			creation datetime(6),
			modified datetime(6),
			modified_by varchar(140),
			owner varchar(140),
			docstatus int(1) not null default '0',
			idx int(8) not null default '0',
			`consumer` varchar(140),
parent varchar(140),
parentfield varchar(140),
parenttype varchar(140),
index parent(parent),

			index modified(modified))
			ENGINE=InnoDB
			ROW_FORMAT=DYNAMIC
			CHARACTER SET=utf8mb4
			COLLATE=utf8mb4_unicode_ci
2023-08-24 22:43:20,359 WARNING database DDL Query made to DB:
create table `tabEvent Producer Last Update` (
			name varchar(140) primary key,
			creation datetime(6),
			modified datetime(6),
			modified_by varchar(140),
			owner varchar(140),
			docstatus int(1) not null default '0',
			idx int(8) not null default '0',
			`event_producer` varchar(140) unique,
`last_update` varchar(140),
`_user_tags` text,
`_comments` text,
`_assign` text,
`_liked_by` text,

			index modified(modified))
			ENGINE=InnoDB
			ROW_FORMAT=DYNAMIC
			CHARACTER SET=utf8mb4
			COLLATE=utf8mb4_unicode_ci
2023-08-24 22:43:20,409 WARNING database DDL Query made to DB:
create sequence if not exists event_update_log_id_seq nocache nocycle
2023-08-24 22:43:20,417 WARNING database DDL Query made to DB:
create table `tabEvent Update Log` (
			name bigint primary key,
			creation datetime(6),
			modified datetime(6),
			modified_by varchar(140),
			owner varchar(140),
			docstatus int(1) not null default '0',
			idx int(8) not null default '0',
			`update_type` varchar(140),
`ref_doctype` varchar(140),
`docname` varchar(140),
`data` longtext,
`_user_tags` text,
`_comments` text,
`_assign` text,
`_liked_by` text,

			index modified(modified))
			ENGINE=InnoDB
			ROW_FORMAT=DYNAMIC
			CHARACTER SET=utf8mb4
			COLLATE=utf8mb4_unicode_ci
2023-08-24 22:45:58,052 WARNING database DDL Query made to DB:
create table `tabRepost Payment Ledger` (
			name varchar(140) primary key,
			creation datetime(6),
			modified datetime(6),
			modified_by varchar(140),
			owner varchar(140),
			docstatus int(1) not null default '0',
			idx int(8) not null default '0',
			`company` varchar(140),
`posting_date` date,
`voucher_type` varchar(140),
`add_manually` int(1) not null default 0,
`repost_status` varchar(140),
`repost_error_log` longtext,
`amended_from` varchar(140),
`_user_tags` text,
`_comments` text,
`_assign` text,
`_liked_by` text,

			index modified(modified))
			ENGINE=InnoDB
			ROW_FORMAT=DYNAMIC
			CHARACTER SET=utf8mb4
			COLLATE=utf8mb4_unicode_ci
2023-08-24 22:45:58,187 WARNING database DDL Query made to DB:
create table `tabTax Rule` (
			name varchar(140) primary key,
			creation datetime(6),
			modified datetime(6),
			modified_by varchar(140),
			owner varchar(140),
			docstatus int(1) not null default '0',
			idx int(8) not null default '0',
			`tax_type` varchar(140) default 'Sales',
`use_for_shopping_cart` int(1) not null default 1,
`sales_tax_template` varchar(140),
`purchase_tax_template` varchar(140),
`customer` varchar(140),
`supplier` varchar(140),
`item` varchar(140),
`billing_city` varchar(140),
`billing_county` varchar(140),
`billing_state` varchar(140),
`billing_zipcode` varchar(140),
`billing_country` varchar(140),
`tax_category` varchar(140),
`customer_group` varchar(140),
`supplier_group` varchar(140),
`item_group` varchar(140),
`shipping_city` varchar(140),
`shipping_county` varchar(140),
`shipping_state` varchar(140),
`shipping_zipcode` varchar(140),
`shipping_country` varchar(140),
`from_date` date,
`to_date` date,
`priority` int(11) not null default 1,
`company` varchar(140),
`_user_tags` text,
`_comments` text,
`_assign` text,
`_liked_by` text,

			index modified(modified))
			ENGINE=InnoDB
			ROW_FORMAT=DYNAMIC
			CHARACTER SET=utf8mb4
			COLLATE=utf8mb4_unicode_ci
2023-08-24 22:45:58,272 WARNING database DDL Query made to DB:
create table `tabShareholder` (
			name varchar(140) primary key,
			creation datetime(6),
			modified datetime(6),
			modified_by varchar(140),
			owner varchar(140),
			docstatus int(1) not null default '0',
			idx int(8) not null default '0',
			`title` varchar(140),
`naming_series` varchar(140),
`folio_no` varchar(140) unique,
`company` varchar(140),
`is_company` int(1) not null default 0,
`contact_list` longtext,
`_user_tags` text,
`_comments` text,
`_assign` text,
`_liked_by` text,

			index modified(modified))
			ENGINE=InnoDB
			ROW_FORMAT=DYNAMIC
			CHARACTER SET=utf8mb4
			COLLATE=utf8mb4_unicode_ci
2023-08-24 22:45:58,347 WARNING database DDL Query made to DB:
create table `tabPayment Order` (
			name varchar(140) primary key,
			creation datetime(6),
			modified datetime(6),
			modified_by varchar(140),
			owner varchar(140),
			docstatus int(1) not null default '0',
			idx int(8) not null default '0',
			`naming_series` varchar(140) default 'PMO-',
`company` varchar(140),
`payment_order_type` varchar(140),
`party` varchar(140),
`posting_date` date,
`company_bank` varchar(140),
`company_bank_account` varchar(140),
`account` varchar(140),
`amended_from` varchar(140),
`_user_tags` text,
`_comments` text,
`_assign` text,
`_liked_by` text,

			index modified(modified))
			ENGINE=InnoDB
			ROW_FORMAT=DYNAMIC
			CHARACTER SET=utf8mb4
			COLLATE=utf8mb4_unicode_ci
2023-08-24 22:45:58,402 WARNING database DDL Query made to DB:
create table `tabFinance Book` (
			name varchar(140) primary key,
			creation datetime(6),
			modified datetime(6),
			modified_by varchar(140),
			owner varchar(140),
			docstatus int(1) not null default '0',
			idx int(8) not null default '0',
			`finance_book_name` varchar(140),
`_user_tags` text,
`_comments` text,
`_assign` text,
`_liked_by` text,
`_seen` text,

			index modified(modified))
			ENGINE=InnoDB
			ROW_FORMAT=DYNAMIC
			CHARACTER SET=utf8mb4
			COLLATE=utf8mb4_unicode_ci
2023-08-24 22:45:58,503 WARNING database DDL Query made to DB:
create table `tabLoyalty Program Collection` (
			name varchar(140) primary key,
			creation datetime(6),
			modified datetime(6),
			modified_by varchar(140),
			owner varchar(140),
			docstatus int(1) not null default '0',
			idx int(8) not null default '0',
			`tier_name` varchar(140),
`min_spent` decimal(21,9) not null default 0,
`collection_factor` decimal(21,9) not null default 0,
parent varchar(140),
parentfield varchar(140),
parenttype varchar(140),
index parent(parent),

			index modified(modified))
			ENGINE=InnoDB
			ROW_FORMAT=DYNAMIC
			CHARACTER SET=utf8mb4
			COLLATE=utf8mb4_unicode_ci
2023-08-24 22:45:58,558 WARNING database DDL Query made to DB:
create table `tabFiscal Year` (
			name varchar(140) primary key,
			creation datetime(6),
			modified datetime(6),
			modified_by varchar(140),
			owner varchar(140),
			docstatus int(1) not null default '0',
			idx int(8) not null default '0',
			`year` varchar(140) unique,
`disabled` int(1) not null default 0,
`is_short_year` int(1) not null default 0,
`year_start_date` date,
`year_end_date` date,
`auto_created` int(1) not null default 0,
`_user_tags` text,
`_comments` text,
`_assign` text,
`_liked_by` text,

			index modified(modified))
			ENGINE=InnoDB
			ROW_FORMAT=DYNAMIC
			CHARACTER SET=utf8mb4
			COLLATE=utf8mb4_unicode_ci
2023-08-24 22:45:58,648 WARNING database DDL Query made to DB:
create table `tabAdvance Taxes and Charges` (
			name varchar(140) primary key,
			creation datetime(6),
			modified datetime(6),
			modified_by varchar(140),
			owner varchar(140),
			docstatus int(1) not null default '0',
			idx int(8) not null default '0',
			`add_deduct_tax` varchar(140),
`charge_type` varchar(140),
`row_id` varchar(140),
`account_head` varchar(140),
`description` text,
`included_in_paid_amount` int(1) not null default 0,
`cost_center` varchar(140),
`rate` decimal(21,9) not null default 0,
`currency` varchar(140),
`tax_amount` decimal(21,9) not null default 0,
`total` decimal(21,9) not null default 0,
`allocated_amount` decimal(21,9) not null default 0,
`base_tax_amount` decimal(21,9) not null default 0,
`base_total` decimal(21,9) not null default 0,
index `account_head`(`account_head`),
parent varchar(140),
parentfield varchar(140),
parenttype varchar(140),
index parent(parent),

			index modified(modified))
			ENGINE=InnoDB
			ROW_FORMAT=DYNAMIC
			CHARACTER SET=utf8mb4
			COLLATE=utf8mb4_unicode_ci
2023-08-24 22:45:58,701 WARNING database DDL Query made to DB:
create table `tabSales Invoice Payment` (
			name varchar(140) primary key,
			creation datetime(6),
			modified datetime(6),
			modified_by varchar(140),
			owner varchar(140),
			docstatus int(1) not null default '0',
			idx int(8) not null default '0',
			`default` int(1) not null default 0,
`mode_of_payment` varchar(140),
`amount` decimal(21,9) not null default 0,
`account` varchar(140),
`type` varchar(140),
`base_amount` decimal(21,9) not null default 0,
`clearance_date` date,
parent varchar(140),
parentfield varchar(140),
parenttype varchar(140),
index parent(parent),

			index modified(modified))
			ENGINE=InnoDB
			ROW_FORMAT=DYNAMIC
			CHARACTER SET=utf8mb4
			COLLATE=utf8mb4_unicode_ci
2023-08-24 22:45:58,757 WARNING database DDL Query made to DB:
create table `tabDunning Type` (
			name varchar(140) primary key,
			creation datetime(6),
			modified datetime(6),
			modified_by varchar(140),
			owner varchar(140),
			docstatus int(1) not null default '0',
			idx int(8) not null default '0',
			`dunning_type` varchar(140) unique,
`start_day` int(11) not null default 0,
`end_day` int(11) not null default 0,
`dunning_fee` decimal(21,9) not null default 0,
`rate_of_interest` decimal(21,9) not null default 0,
`_user_tags` text,
`_comments` text,
`_assign` text,
`_liked_by` text,

			index modified(modified))
			ENGINE=InnoDB
			ROW_FORMAT=DYNAMIC
			CHARACTER SET=utf8mb4
			COLLATE=utf8mb4_unicode_ci
2023-08-24 22:45:58,809 WARNING database DDL Query made to DB:
create table `tabPricing Rule Item Group` (
			name varchar(140) primary key,
			creation datetime(6),
			modified datetime(6),
			modified_by varchar(140),
			owner varchar(140),
			docstatus int(1) not null default '0',
			idx int(8) not null default '0',
			`item_group` varchar(140),
`uom` varchar(140),
index `item_group`(`item_group`),
parent varchar(140),
parentfield varchar(140),
parenttype varchar(140),
index parent(parent),

			index modified(modified))
			ENGINE=InnoDB
			ROW_FORMAT=DYNAMIC
			CHARACTER SET=utf8mb4
			COLLATE=utf8mb4_unicode_ci
2023-08-24 22:45:58,905 WARNING database DDL Query made to DB:
create table `tabParty Link` (
			name varchar(140) primary key,
			creation datetime(6),
			modified datetime(6),
			modified_by varchar(140),
			owner varchar(140),
			docstatus int(1) not null default '0',
			idx int(8) not null default '0',
			`primary_role` varchar(140),
`secondary_role` varchar(140),
`primary_party` varchar(140),
`secondary_party` varchar(140),
`_user_tags` text,
`_comments` text,
`_assign` text,
`_liked_by` text,

			index modified(modified))
			ENGINE=InnoDB
			ROW_FORMAT=DYNAMIC
			CHARACTER SET=utf8mb4
			COLLATE=utf8mb4_unicode_ci
2023-08-24 22:45:58,973 WARNING database DDL Query made to DB:
create table `tabProcess Payment Reconciliation Log Allocations` (
			name varchar(140) primary key,
			creation datetime(6),
			modified datetime(6),
			modified_by varchar(140),
			owner varchar(140),
			docstatus int(1) not null default '0',
			idx int(8) not null default '0',
			`reference_type` varchar(140),
`reference_name` varchar(140),
`reference_row` varchar(140),
`invoice_type` varchar(140),
`invoice_number` varchar(140),
`allocated_amount` decimal(21,9) not null default 0,
`unreconciled_amount` decimal(21,9) not null default 0,
`amount` decimal(21,9) not null default 0,
`is_advance` varchar(140),
`difference_amount` decimal(21,9) not null default 0,
`difference_account` varchar(140),
`exchange_rate` decimal(21,9) not null default 0,
`currency` varchar(140),
`reconciled` int(1) not null default 0,
parent varchar(140),
parentfield varchar(140),
parenttype varchar(140),
index parent(parent),

			index modified(modified))
			ENGINE=InnoDB
			ROW_FORMAT=DYNAMIC
			CHARACTER SET=utf8mb4
			COLLATE=utf8mb4_unicode_ci
2023-08-24 22:45:59,016 WARNING database DDL Query made to DB:
create table `tabAllowed Dimension` (
			name varchar(140) primary key,
			creation datetime(6),
			modified datetime(6),
			modified_by varchar(140),
			owner varchar(140),
			docstatus int(1) not null default '0',
			idx int(8) not null default '0',
			`accounting_dimension` varchar(140),
`dimension_value` varchar(140),
parent varchar(140),
parentfield varchar(140),
parenttype varchar(140),
index parent(parent),

			index modified(modified))
			ENGINE=InnoDB
			ROW_FORMAT=DYNAMIC
			CHARACTER SET=utf8mb4
			COLLATE=utf8mb4_unicode_ci
2023-08-24 22:45:59,105 WARNING database DDL Query made to DB:
create table `tabBank Transaction Mapping` (
			name varchar(140) primary key,
			creation datetime(6),
			modified datetime(6),
			modified_by varchar(140),
			owner varchar(140),
			docstatus int(1) not null default '0',
			idx int(8) not null default '0',
			`bank_transaction_field` varchar(140),
`file_field` varchar(140),
parent varchar(140),
parentfield varchar(140),
parenttype varchar(140),
index parent(parent),

			index modified(modified))
			ENGINE=InnoDB
			ROW_FORMAT=DYNAMIC
			CHARACTER SET=utf8mb4
			COLLATE=utf8mb4_unicode_ci
2023-08-24 22:45:59,148 WARNING database DDL Query made to DB:
create table `tabPricing Rule Item Code` (
			name varchar(140) primary key,
			creation datetime(6),
			modified datetime(6),
			modified_by varchar(140),
			owner varchar(140),
			docstatus int(1) not null default '0',
			idx int(8) not null default '0',
			`item_code` varchar(140),
`uom` varchar(140),
index `item_code`(`item_code`),
parent varchar(140),
parentfield varchar(140),
parenttype varchar(140),
index parent(parent),

			index modified(modified))
			ENGINE=InnoDB
			ROW_FORMAT=DYNAMIC
			CHARACTER SET=utf8mb4
			COLLATE=utf8mb4_unicode_ci
2023-08-24 22:45:59,212 WARNING database DDL Query made to DB:
create table `tabPayment Reconciliation Allocation` (
			name varchar(140) primary key,
			creation datetime(6),
			modified datetime(6),
			modified_by varchar(140),
			owner varchar(140),
			docstatus int(1) not null default '0',
			idx int(8) not null default '0',
			`reference_type` varchar(140),
`reference_name` varchar(140),
`reference_row` varchar(140),
`invoice_type` varchar(140),
`invoice_number` varchar(140),
`allocated_amount` decimal(21,9) not null default 0,
`unreconciled_amount` decimal(21,9) not null default 0,
`amount` decimal(21,9) not null default 0,
`is_advance` varchar(140),
`difference_amount` decimal(21,9) not null default 0,
`difference_account` varchar(140),
`exchange_rate` decimal(21,9) not null default 0,
`currency` varchar(140),
parent varchar(140),
parentfield varchar(140),
parenttype varchar(140),
index parent(parent),

			index modified(modified))
			ENGINE=InnoDB
			ROW_FORMAT=DYNAMIC
			CHARACTER SET=utf8mb4
			COLLATE=utf8mb4_unicode_ci
2023-08-24 22:45:59,261 WARNING database DDL Query made to DB:
create table `tabDunning Letter Text` (
			name varchar(140) primary key,
			creation datetime(6),
			modified datetime(6),
			modified_by varchar(140),
			owner varchar(140),
			docstatus int(1) not null default '0',
			idx int(8) not null default '0',
			`language` varchar(140),
`is_default_language` int(1) not null default 0,
`body_text` longtext,
`closing_text` longtext,
parent varchar(140),
parentfield varchar(140),
parenttype varchar(140),
index parent(parent),

			index modified(modified))
			ENGINE=InnoDB
			ROW_FORMAT=DYNAMIC
			CHARACTER SET=utf8mb4
			COLLATE=utf8mb4_unicode_ci
2023-08-24 22:45:59,321 WARNING database DDL Query made to DB:
create table `tabPayment Entry Reference` (
			name varchar(140) primary key,
			creation datetime(6),
			modified datetime(6),
			modified_by varchar(140),
			owner varchar(140),
			docstatus int(1) not null default '0',
			idx int(8) not null default '0',
			`reference_doctype` varchar(140),
`reference_name` varchar(140),
`due_date` date,
`bill_no` varchar(140),
`payment_term` varchar(140),
`total_amount` decimal(21,9) not null default 0,
`outstanding_amount` decimal(21,9) not null default 0,
`allocated_amount` decimal(21,9) not null default 0,
`exchange_rate` decimal(21,9) not null default 0,
`exchange_gain_loss` decimal(21,9) not null default 0,
index `reference_doctype`(`reference_doctype`),
index `reference_name`(`reference_name`),
parent varchar(140),
parentfield varchar(140),
parenttype varchar(140),
index parent(parent),

			index modified(modified))
			ENGINE=InnoDB
			ROW_FORMAT=DYNAMIC
			CHARACTER SET=utf8mb4
			COLLATE=utf8mb4_unicode_ci
2023-08-24 22:45:59,373 WARNING database DDL Query made to DB:
create table `tabPOS Field` (
			name varchar(140) primary key,
			creation datetime(6),
			modified datetime(6),
			modified_by varchar(140),
			owner varchar(140),
			docstatus int(1) not null default '0',
			idx int(8) not null default '0',
			`fieldname` varchar(140),
`label` varchar(140),
`fieldtype` varchar(140),
`options` text,
`default_value` varchar(140),
`reqd` int(1) not null default 0,
`read_only` int(1) not null default 0,
parent varchar(140),
parentfield varchar(140),
parenttype varchar(140),
index parent(parent),

			index modified(modified))
			ENGINE=InnoDB
			ROW_FORMAT=DYNAMIC
			CHARACTER SET=utf8mb4
			COLLATE=utf8mb4_unicode_ci
2023-08-24 22:45:59,447 WARNING database DDL Query made to DB:
create table `tabPOS Invoice Merge Log` (
			name varchar(140) primary key,
			creation datetime(6),
			modified datetime(6),
			modified_by varchar(140),
			owner varchar(140),
			docstatus int(1) not null default '0',
			idx int(8) not null default '0',
			`posting_date` date,
`posting_time` time(6),
`merge_invoices_based_on` varchar(140),
`pos_closing_entry` varchar(140),
`customer` varchar(140),
`customer_group` varchar(140),
`consolidated_invoice` varchar(140),
`consolidated_credit_note` varchar(140),
`amended_from` varchar(140),
`_user_tags` text,
`_comments` text,
`_assign` text,
`_liked_by` text,

			index modified(modified))
			ENGINE=InnoDB
			ROW_FORMAT=DYNAMIC
			CHARACTER SET=utf8mb4
			COLLATE=utf8mb4_unicode_ci
2023-08-24 22:45:59,522 WARNING database DDL Query made to DB:
create table `tabSales Invoice Timesheet` (
			name varchar(140) primary key,
			creation datetime(6),
			modified datetime(6),
			modified_by varchar(140),
			owner varchar(140),
			docstatus int(1) not null default '0',
			idx int(8) not null default '0',
			`activity_type` varchar(140),
`description` text,
`from_time` datetime(6),
`to_time` datetime(6),
`billing_hours` decimal(21,9) not null default 0,
`billing_amount` decimal(21,9) not null default 0,
`time_sheet` varchar(140),
`timesheet_detail` varchar(140),
`project_name` varchar(140),
parent varchar(140),
parentfield varchar(140),
parenttype varchar(140),
index parent(parent),

			index modified(modified))
			ENGINE=InnoDB
			ROW_FORMAT=DYNAMIC
			CHARACTER SET=utf8mb4
			COLLATE=utf8mb4_unicode_ci
2023-08-24 22:45:59,654 WARNING database DDL Query made to DB:
create table `tabPricing Rule` (
			name varchar(140) primary key,
			creation datetime(6),
			modified datetime(6),
			modified_by varchar(140),
			owner varchar(140),
			docstatus int(1) not null default '0',
			idx int(8) not null default '0',
			`naming_series` varchar(140) default 'PRLE-.####',
`title` varchar(140),
`disable` int(1) not null default 0,
`apply_on` varchar(140) default 'Item Code',
`price_or_product_discount` varchar(140),
`warehouse` varchar(140),
`mixed_conditions` int(1) not null default 0,
`is_cumulative` int(1) not null default 0,
`coupon_code_based` int(1) not null default 0,
`apply_rule_on_other` varchar(140),
`other_item_code` varchar(140),
`other_item_group` varchar(140),
`other_brand` varchar(140),
`selling` int(1) not null default 0,
`buying` int(1) not null default 0,
`applicable_for` varchar(140),
`customer` varchar(140),
`customer_group` varchar(140),
`territory` varchar(140),
`sales_partner` varchar(140),
`campaign` varchar(140),
`supplier` varchar(140),
`supplier_group` varchar(140),
`min_qty` decimal(21,9) not null default 0,
`max_qty` decimal(21,9) not null default 0,
`min_amt` decimal(21,9) not null default 0,
`max_amt` decimal(21,9) not null default 0,
`same_item` int(1) not null default 0,
`free_item` varchar(140),
`free_qty` decimal(21,9) not null default 0,
`free_item_rate` decimal(21,9) not null default 0,
`free_item_uom` varchar(140),
`round_free_qty` int(1) not null default 0,
`is_recursive` int(1) not null default 0,
`recurse_for` decimal(21,9) not null default 0,
`apply_recursion_over` decimal(21,9) not null default 0,
`valid_from` date,
`valid_upto` date,
`company` varchar(140),
`currency` varchar(140),
`margin_type` varchar(140) default 'Percentage',
`margin_rate_or_amount` decimal(21,9) not null default 0,
`rate_or_discount` varchar(140) default 'Discount Percentage',
`apply_discount_on` varchar(140) default 'Grand Total',
`rate` decimal(21,9) not null default 0,
`discount_amount` decimal(21,9) not null default 0,
`discount_percentage` decimal(21,9) not null default 0,
`for_price_list` varchar(140),
`threshold_percentage` decimal(21,9) not null default 0,
`priority` varchar(140),
`condition` longtext,
`apply_multiple_pricing_rules` int(1) not null default 0,
`apply_discount_on_rate` int(1) not null default 0,
`validate_applied_rule` int(1) not null default 0,
`rule_description` text,
`promotional_scheme_id` varchar(140),
`promotional_scheme` varchar(140),
`_user_tags` text,
`_comments` text,
`_assign` text,
`_liked_by` text,
index `warehouse`(`warehouse`),

			index modified(modified))
			ENGINE=InnoDB
			ROW_FORMAT=DYNAMIC
			CHARACTER SET=utf8mb4
			COLLATE=utf8mb4_unicode_ci
2023-08-24 22:45:59,746 WARNING database DDL Query made to DB:
create table `tabBank Account` (
			name varchar(140) primary key,
			creation datetime(6),
			modified datetime(6),
			modified_by varchar(140),
			owner varchar(140),
			docstatus int(1) not null default '0',
			idx int(8) not null default '0',
			`account_name` varchar(140),
`account` varchar(140),
`bank` varchar(140),
`account_type` varchar(140),
`account_subtype` varchar(140),
`is_default` int(1) not null default 0,
`is_company_account` int(1) not null default 0,
`company` varchar(140),
`party_type` varchar(140),
`party` varchar(140),
`iban` varchar(30),
`branch_code` varchar(140),
`bank_account_no` varchar(30),
`integration_id` varchar(140) unique,
`last_integration_date` date,
`mask` varchar(140),
`_user_tags` text,
`_comments` text,
`_assign` text,
`_liked_by` text,

			index modified(modified))
			ENGINE=InnoDB
			ROW_FORMAT=DYNAMIC
			CHARACTER SET=utf8mb4
			COLLATE=utf8mb4_unicode_ci
2023-08-24 22:45:59,844 WARNING database DDL Query made to DB:
create table `tabCash Flow Mapping Template` (
			name varchar(140) primary key,
			creation datetime(6),
			modified datetime(6),
			modified_by varchar(140),
			owner varchar(140),
			docstatus int(1) not null default '0',
			idx int(8) not null default '0',
			`template_name` varchar(140),
`_user_tags` text,
`_comments` text,
`_assign` text,
`_liked_by` text,

			index modified(modified))
			ENGINE=InnoDB
			ROW_FORMAT=DYNAMIC
			CHARACTER SET=utf8mb4
			COLLATE=utf8mb4_unicode_ci
2023-08-24 22:45:59,935 WARNING database DDL Query made to DB:
create table `tabMonthly Distribution` (
			name varchar(140) primary key,
			creation datetime(6),
			modified datetime(6),
			modified_by varchar(140),
			owner varchar(140),
			docstatus int(1) not null default '0',
			idx int(8) not null default '0',
			`distribution_id` varchar(140),
`fiscal_year` varchar(140),
`_user_tags` text,
`_comments` text,
`_assign` text,
`_liked_by` text,
index `fiscal_year`(`fiscal_year`),

			index modified(modified))
			ENGINE=InnoDB
			ROW_FORMAT=DYNAMIC
			CHARACTER SET=utf8mb4
			COLLATE=utf8mb4_unicode_ci
2023-08-24 22:46:00,047 WARNING database DDL Query made to DB:
create table `tabProcess Payment Reconciliation Log` (
			name varchar(140) primary key,
			creation datetime(6),
			modified datetime(6),
			modified_by varchar(140),
			owner varchar(140),
			docstatus int(1) not null default '0',
			idx int(8) not null default '0',
			`process_pr` varchar(140),
`status` varchar(140),
`allocated` int(1) not null default 0,
`reconciled` int(1) not null default 0,
`total_allocations` int(11) not null default 0,
`reconciled_entries` int(11) not null default 0,
`error_log` longtext,
`_user_tags` text,
`_comments` text,
`_assign` text,
`_liked_by` text,

			index modified(modified))
			ENGINE=InnoDB
			ROW_FORMAT=DYNAMIC
			CHARACTER SET=utf8mb4
			COLLATE=utf8mb4_unicode_ci
2023-08-24 22:46:00,138 WARNING database DDL Query made to DB:
create table `tabPayment Schedule` (
			name varchar(140) primary key,
			creation datetime(6),
			modified datetime(6),
			modified_by varchar(140),
			owner varchar(140),
			docstatus int(1) not null default '0',
			idx int(8) not null default '0',
			`payment_term` varchar(140),
`description` text,
`due_date` date,
`mode_of_payment` varchar(140),
`invoice_portion` decimal(21,9) not null default 0,
`discount_type` varchar(140) default 'Percentage',
`discount_date` date,
`discount` decimal(21,9) not null default 0,
`payment_amount` decimal(21,9) not null default 0,
`outstanding` decimal(21,9) not null default 0,
`paid_amount` decimal(21,9) not null default 0,
`discounted_amount` decimal(21,9) not null default 0,
`base_payment_amount` decimal(21,9) not null default 0,
parent varchar(140),
parentfield varchar(140),
parenttype varchar(140),
index parent(parent),

			index modified(modified))
			ENGINE=InnoDB
			ROW_FORMAT=DYNAMIC
			CHARACTER SET=utf8mb4
			COLLATE=utf8mb4_unicode_ci
2023-08-24 22:46:00,325 WARNING database DDL Query made to DB:
create table `tabPurchase Invoice Item` (
			name varchar(140) primary key,
			creation datetime(6),
			modified datetime(6),
			modified_by varchar(140),
			owner varchar(140),
			docstatus int(1) not null default '0',
			idx int(8) not null default '0',
			`item_code` varchar(140),
`product_bundle` varchar(140),
`item_name` varchar(140),
`description` longtext,
`brand` varchar(140),
`item_group` varchar(140),
`image` text,
`received_qty` decimal(21,9) not null default 0,
`qty` decimal(21,9) not null default 0,
`rejected_qty` decimal(21,9) not null default 0,
`uom` varchar(140),
`conversion_factor` decimal(21,9) not null default 1.0,
`stock_uom` varchar(140),
`stock_qty` decimal(21,9) not null default 0,
`price_list_rate` decimal(21,9) not null default 0,
`base_price_list_rate` decimal(21,9) not null default 0,
`margin_type` varchar(140),
`margin_rate_or_amount` decimal(21,9) not null default 0,
`rate_with_margin` decimal(21,9) not null default 0,
`discount_percentage` decimal(21,9) not null default 0,
`discount_amount` decimal(21,9) not null default 0,
`base_rate_with_margin` decimal(21,9) not null default 0,
`rate` decimal(21,9) not null default 0,
`amount` decimal(21,9) not null default 0,
`item_tax_template` varchar(140),
`base_rate` decimal(21,9) not null default 0,
`base_amount` decimal(21,9) not null default 0,
`pricing_rules` text,
`stock_uom_rate` decimal(21,9) not null default 0,
`is_free_item` int(1) not null default 0,
`apply_tds` int(1) not null default 1,
`net_rate` decimal(21,9) not null default 0,
`net_amount` decimal(21,9) not null default 0,
`base_net_rate` decimal(21,9) not null default 0,
`base_net_amount` decimal(21,9) not null default 0,
`valuation_rate` decimal(21,9) not null default 0,
`item_tax_amount` decimal(21,9) not null default 0,
`landed_cost_voucher_amount` decimal(21,9) not null default 0,
`rm_supp_cost` decimal(21,9) not null default 0,
`warehouse` varchar(140),
`from_warehouse` varchar(140),
`quality_inspection` varchar(140),
`serial_no` text,
`rejected_warehouse` varchar(140),
`batch_no` varchar(140),
`rejected_serial_no` text,
`manufacturer` varchar(140),
`manufacturer_part_no` varchar(140),
`expense_account` varchar(140),
`is_fixed_asset` int(1) not null default 0,
`asset_location` varchar(140),
`asset_category` varchar(140),
`deferred_expense_account` varchar(140),
`service_stop_date` date,
`enable_deferred_expense` int(1) not null default 0,
`service_start_date` date,
`service_end_date` date,
`allow_zero_valuation_rate` int(1) not null default 0,
`item_tax_rate` longtext,
`bom` varchar(140),
`include_exploded_items` int(1) not null default 0,
`purchase_invoice_item` varchar(140),
`purchase_order` varchar(140),
`po_detail` varchar(140),
`purchase_receipt` varchar(140),
`pr_detail` varchar(140),
`sales_invoice_item` varchar(140),
`weight_per_unit` decimal(21,9) not null default 0,
`total_weight` decimal(21,9) not null default 0,
`weight_uom` varchar(140),
`project` varchar(140),
`cost_center` varchar(140),
`page_break` int(1) not null default 0,
index `item_code`(`item_code`),
index `purchase_order`(`purchase_order`),
index `po_detail`(`po_detail`),
index `purchase_receipt`(`purchase_receipt`),
index `pr_detail`(`pr_detail`),
parent varchar(140),
parentfield varchar(140),
parenttype varchar(140),
index parent(parent),

			index modified(modified))
			ENGINE=InnoDB
			ROW_FORMAT=DYNAMIC
			CHARACTER SET=utf8mb4
			COLLATE=utf8mb4_unicode_ci
2023-08-24 22:46:00,414 WARNING database DDL Query made to DB:
create table `tabMode of Payment` (
			name varchar(140) primary key,
			creation datetime(6),
			modified datetime(6),
			modified_by varchar(140),
			owner varchar(140),
			docstatus int(1) not null default '0',
			idx int(8) not null default '0',
			`mode_of_payment` varchar(140) unique,
`enabled` int(1) not null default 1,
`type` varchar(140),
`_user_tags` text,
`_comments` text,
`_assign` text,
`_liked_by` text,

			index modified(modified))
			ENGINE=InnoDB
			ROW_FORMAT=DYNAMIC
			CHARACTER SET=utf8mb4
			COLLATE=utf8mb4_unicode_ci
2023-08-24 22:46:00,472 WARNING database DDL Query made to DB:
create table `tabSales Partner Item` (
			name varchar(140) primary key,
			creation datetime(6),
			modified datetime(6),
			modified_by varchar(140),
			owner varchar(140),
			docstatus int(1) not null default '0',
			idx int(8) not null default '0',
			`sales_partner` varchar(140),
parent varchar(140),
parentfield varchar(140),
parenttype varchar(140),
index parent(parent),

			index modified(modified))
			ENGINE=InnoDB
			ROW_FORMAT=DYNAMIC
			CHARACTER SET=utf8mb4
			COLLATE=utf8mb4_unicode_ci
2023-08-24 22:46:00,515 WARNING database DDL Query made to DB:
create table `tabCurrency Exchange Settings Result` (
			name varchar(140) primary key,
			creation datetime(6),
			modified datetime(6),
			modified_by varchar(140),
			owner varchar(140),
			docstatus int(1) not null default '0',
			idx int(8) not null default '0',
			`key` varchar(140),
parent varchar(140),
parentfield varchar(140),
parenttype varchar(140),
index parent(parent),

			index modified(modified))
			ENGINE=InnoDB
			ROW_FORMAT=DYNAMIC
			CHARACTER SET=utf8mb4
			COLLATE=utf8mb4_unicode_ci
2023-08-24 22:46:00,594 WARNING database DDL Query made to DB:
create table `tabPOS Closing Entry` (
			name varchar(140) primary key,
			creation datetime(6),
			modified datetime(6),
			modified_by varchar(140),
			owner varchar(140),
			docstatus int(1) not null default '0',
			idx int(8) not null default '0',
			`period_start_date` datetime(6),
`period_end_date` datetime(6),
`posting_date` date,
`posting_time` time(6),
`pos_opening_entry` varchar(140),
`status` varchar(140) default 'Draft',
`company` varchar(140),
`pos_profile` varchar(140),
`user` varchar(140),
`grand_total` decimal(21,9) not null default 0,
`net_total` decimal(21,9) not null default 0,
`total_quantity` decimal(21,9) not null default 0,
`error_message` text,
`amended_from` varchar(140),
`_user_tags` text,
`_comments` text,
`_assign` text,
`_liked_by` text,

			index modified(modified))
			ENGINE=InnoDB
			ROW_FORMAT=DYNAMIC
			CHARACTER SET=utf8mb4
			COLLATE=utf8mb4_unicode_ci
2023-08-24 22:46:00,688 WARNING database DDL Query made to DB:
create table `tabBank Transaction` (
			name varchar(140) primary key,
			creation datetime(6),
			modified datetime(6),
			modified_by varchar(140),
			owner varchar(140),
			docstatus int(1) not null default '0',
			idx int(8) not null default '0',
			`naming_series` varchar(140) default 'ACC-BTN-.YYYY.-',
`date` date,
`status` varchar(140) default 'Pending',
`bank_account` varchar(140),
`company` varchar(140),
`deposit` decimal(21,9) not null default 0,
`withdrawal` decimal(21,9) not null default 0,
`currency` varchar(140),
`description` text,
`reference_number` varchar(140),
`transaction_id` varchar(140) unique,
`transaction_type` varchar(50),
`allocated_amount` decimal(21,9) not null default 0,
`amended_from` varchar(140),
`unallocated_amount` decimal(21,9) not null default 0,
`party_type` varchar(140),
`party` varchar(140),
`bank_party_name` varchar(140),
`bank_party_account_number` varchar(140),
`bank_party_iban` varchar(140),
`_user_tags` text,
`_comments` text,
`_assign` text,
`_liked_by` text,

			index modified(modified))
			ENGINE=InnoDB
			ROW_FORMAT=DYNAMIC
			CHARACTER SET=utf8mb4
			COLLATE=utf8mb4_unicode_ci
2023-08-24 22:46:00,785 WARNING database DDL Query made to DB:
create table `tabAdvance Tax` (
			name varchar(140) primary key,
			creation datetime(6),
			modified datetime(6),
			modified_by varchar(140),
			owner varchar(140),
			docstatus int(1) not null default '0',
			idx int(8) not null default '0',
			`reference_type` varchar(140),
`reference_name` varchar(140),
`reference_detail` varchar(140),
`account_head` varchar(140),
`allocated_amount` decimal(21,9) not null default 0,
parent varchar(140),
parentfield varchar(140),
parenttype varchar(140),
index parent(parent),

			index modified(modified))
			ENGINE=InnoDB
			ROW_FORMAT=DYNAMIC
			CHARACTER SET=utf8mb4
			COLLATE=utf8mb4_unicode_ci
2023-08-24 22:46:00,857 WARNING database DDL Query made to DB:
create table `tabCashier Closing` (
			name varchar(140) primary key,
			creation datetime(6),
			modified datetime(6),
			modified_by varchar(140),
			owner varchar(140),
			docstatus int(1) not null default '0',
			idx int(8) not null default '0',
			`naming_series` varchar(140) default 'POS-CLO-',
`user` varchar(140),
`date` date,
`from_time` time(6),
`time` time(6),
`expense` decimal(21,9) not null default 0,
`custody` decimal(21,9) not null default 0,
`returns` decimal(21,9) not null default 0,
`outstanding_amount` decimal(21,9) not null default 0,
`net_amount` decimal(21,9) not null default 0,
`amended_from` varchar(140),
`_user_tags` text,
`_comments` text,
`_assign` text,
`_liked_by` text,

			index modified(modified))
			ENGINE=InnoDB
			ROW_FORMAT=DYNAMIC
			CHARACTER SET=utf8mb4
			COLLATE=utf8mb4_unicode_ci
2023-08-24 22:46:00,919 WARNING database DDL Query made to DB:
create table `tabCoupon Code` (
			name varchar(140) primary key,
			creation datetime(6),
			modified datetime(6),
			modified_by varchar(140),
			owner varchar(140),
			docstatus int(1) not null default '0',
			idx int(8) not null default '0',
			`coupon_name` varchar(140) unique,
`coupon_type` varchar(140),
`customer` varchar(140),
`coupon_code` varchar(140) unique,
`pricing_rule` varchar(140),
`valid_from` date,
`valid_upto` date,
`maximum_use` int(11) not null default 0,
`used` int(11) not null default 0,
`description` longtext,
`amended_from` varchar(140),
`_user_tags` text,
`_comments` text,
`_assign` text,
`_liked_by` text,

			index modified(modified))
			ENGINE=InnoDB
			ROW_FORMAT=DYNAMIC
			CHARACTER SET=utf8mb4
			COLLATE=utf8mb4_unicode_ci
2023-08-24 22:46:00,997 WARNING database DDL Query made to DB:
create table `tabSubscription Plan Detail` (
			name varchar(140) primary key,
			creation datetime(6),
			modified datetime(6),
			modified_by varchar(140),
			owner varchar(140),
			docstatus int(1) not null default '0',
			idx int(8) not null default '0',
			`plan` varchar(140),
`qty` int(11) not null default 0,
parent varchar(140),
parentfield varchar(140),
parenttype varchar(140),
index parent(parent),

			index modified(modified))
			ENGINE=InnoDB
			ROW_FORMAT=DYNAMIC
			CHARACTER SET=utf8mb4
			COLLATE=utf8mb4_unicode_ci
2023-08-24 22:46:01,078 WARNING database DDL Query made to DB:
create table `tabExchange Rate Revaluation` (
			name varchar(140) primary key,
			creation datetime(6),
			modified datetime(6),
			modified_by varchar(140),
			owner varchar(140),
			docstatus int(1) not null default '0',
			idx int(8) not null default '0',
			`posting_date` date,
`rounding_loss_allowance` decimal(21,9) not null default 0.05,
`company` varchar(140),
`gain_loss_unbooked` decimal(21,9) not null default 0,
`gain_loss_booked` decimal(21,9) not null default 0,
`total_gain_loss` decimal(21,9) not null default 0,
`amended_from` varchar(140),
`_user_tags` text,
`_comments` text,
`_assign` text,
`_liked_by` text,

			index modified(modified))
			ENGINE=InnoDB
			ROW_FORMAT=DYNAMIC
			CHARACTER SET=utf8mb4
			COLLATE=utf8mb4_unicode_ci
2023-08-24 22:46:01,316 WARNING database DDL Query made to DB:
create table `tabPOS Opening Entry` (
			name varchar(140) primary key,
			creation datetime(6),
			modified datetime(6),
			modified_by varchar(140),
			owner varchar(140),
			docstatus int(1) not null default '0',
			idx int(8) not null default '0',
			`period_start_date` datetime(6),
`period_end_date` date,
`status` varchar(140) default 'Draft',
`posting_date` date,
`set_posting_date` int(1) not null default 0,
`company` varchar(140),
`pos_profile` varchar(140),
`pos_closing_entry` varchar(140),
`user` varchar(140),
`amended_from` varchar(140),
`_user_tags` text,
`_comments` text,
`_assign` text,
`_liked_by` text,

			index modified(modified))
			ENGINE=InnoDB
			ROW_FORMAT=DYNAMIC
			CHARACTER SET=utf8mb4
			COLLATE=utf8mb4_unicode_ci
2023-08-24 22:46:01,436 WARNING database DDL Query made to DB:
create table `tabCash Flow Mapping Accounts` (
			name varchar(140) primary key,
			creation datetime(6),
			modified datetime(6),
			modified_by varchar(140),
			owner varchar(140),
			docstatus int(1) not null default '0',
			idx int(8) not null default '0',
			`account` varchar(140),
parent varchar(140),
parentfield varchar(140),
parenttype varchar(140),
index parent(parent),

			index modified(modified))
			ENGINE=InnoDB
			ROW_FORMAT=DYNAMIC
			CHARACTER SET=utf8mb4
			COLLATE=utf8mb4_unicode_ci
2023-08-24 22:46:01,499 WARNING database DDL Query made to DB:
create table `tabPayment Terms Template` (
			name varchar(140) primary key,
			creation datetime(6),
			modified datetime(6),
			modified_by varchar(140),
			owner varchar(140),
			docstatus int(1) not null default '0',
			idx int(8) not null default '0',
			`template_name` varchar(140) unique,
`allocate_payment_based_on_payment_terms` int(1) not null default 0,
`_user_tags` text,
`_comments` text,
`_assign` text,
`_liked_by` text,

			index modified(modified))
			ENGINE=InnoDB
			ROW_FORMAT=DYNAMIC
			CHARACTER SET=utf8mb4
			COLLATE=utf8mb4_unicode_ci
2023-08-24 22:46:01,775 WARNING database DDL Query made to DB:
create table `tabPurchase Invoice` (
			name varchar(140) primary key,
			creation datetime(6),
			modified datetime(6),
			modified_by varchar(140),
			owner varchar(140),
			docstatus int(1) not null default '0',
			idx int(8) not null default '0',
			`title` varchar(140) default '{supplier_name}',
`naming_series` varchar(140),
`supplier` varchar(140),
`supplier_name` varchar(140),
`tax_id` varchar(140),
`company` varchar(140),
`posting_date` date,
`posting_time` time(6),
`set_posting_time` int(1) not null default 0,
`due_date` date,
`is_paid` int(1) not null default 0,
`is_return` int(1) not null default 0,
`return_against` varchar(140),
`apply_tds` int(1) not null default 0,
`tax_withholding_category` varchar(140),
`amended_from` varchar(140),
`bill_no` varchar(140),
`bill_date` date,
`cost_center` varchar(140),
`project` varchar(140),
`currency` varchar(140),
`conversion_rate` decimal(21,9) not null default 0,
`buying_price_list` varchar(140),
`price_list_currency` varchar(140),
`plc_conversion_rate` decimal(21,9) not null default 0,
`ignore_pricing_rule` int(1) not null default 0,
`scan_barcode` varchar(140),
`update_stock` int(1) not null default 0,
`set_warehouse` varchar(140),
`set_from_warehouse` varchar(140),
`is_subcontracted` int(1) not null default 0,
`rejected_warehouse` varchar(140),
`supplier_warehouse` varchar(140),
`total_qty` decimal(21,9) not null default 0,
`total_net_weight` decimal(21,9) not null default 0,
`base_total` decimal(21,9) not null default 0,
`base_net_total` decimal(21,9) not null default 0,
`total` decimal(21,9) not null default 0,
`net_total` decimal(21,9) not null default 0,
`tax_withholding_net_total` decimal(21,9) not null default 0,
`base_tax_withholding_net_total` decimal(21,9) not null default 0,
`tax_category` varchar(140),
`taxes_and_charges` varchar(140),
`shipping_rule` varchar(140),
`incoterm` varchar(140),
`named_place` varchar(140),
`base_taxes_and_charges_added` decimal(21,9) not null default 0,
`base_taxes_and_charges_deducted` decimal(21,9) not null default 0,
`base_total_taxes_and_charges` decimal(21,9) not null default 0,
`taxes_and_charges_added` decimal(21,9) not null default 0,
`taxes_and_charges_deducted` decimal(21,9) not null default 0,
`total_taxes_and_charges` decimal(21,9) not null default 0,
`base_grand_total` decimal(21,9) not null default 0,
`base_rounding_adjustment` decimal(21,9) not null default 0,
`base_rounded_total` decimal(21,9) not null default 0,
`base_in_words` varchar(240),
`grand_total` decimal(21,9) not null default 0,
`rounding_adjustment` decimal(21,9) not null default 0,
`use_company_roundoff_cost_center` int(1) not null default 0,
`rounded_total` decimal(21,9) not null default 0,
`in_words` varchar(240),
`total_advance` decimal(21,9) not null default 0,
`outstanding_amount` decimal(21,9) not null default 0,
`disable_rounded_total` int(1) not null default 0,
`apply_discount_on` varchar(140) default 'Grand Total',
`base_discount_amount` decimal(21,9) not null default 0,
`additional_discount_percentage` decimal(21,9) not null default 0,
`discount_amount` decimal(21,9) not null default 0,
`other_charges_calculation` longtext,
`mode_of_payment` varchar(140),
`base_paid_amount` decimal(21,9) not null default 0,
`clearance_date` date,
`cash_bank_account` varchar(140),
`paid_amount` decimal(21,9) not null default 0,
`allocate_advances_automatically` int(1) not null default 0,
`only_include_allocated_payments` int(1) not null default 0,
`write_off_amount` decimal(21,9) not null default 0,
`base_write_off_amount` decimal(21,9) not null default 0,
`write_off_account` varchar(140),
`write_off_cost_center` varchar(140),
`supplier_address` varchar(140),
`address_display` text,
`contact_person` varchar(140),
`contact_display` text,
`contact_mobile` text,
`contact_email` text,
`shipping_address` varchar(140),
`shipping_address_display` text,
`billing_address` varchar(140),
`billing_address_display` text,
`payment_terms_template` varchar(140),
`ignore_default_payment_terms_template` int(1) not null default 0,
`tc_name` varchar(140),
`terms` longtext,
`status` varchar(140) default 'Draft',
`per_received` decimal(21,9) not null default 0,
`credit_to` varchar(140),
`party_account_currency` varchar(140),
`is_opening` varchar(140) default 'No',
`against_expense_account` text,
`unrealized_profit_loss_account` varchar(140),
`auto_repeat` varchar(140),
`from_date` date,
`to_date` date,
`letter_head` varchar(140),
`group_same_items` int(1) not null default 0,
`select_print_heading` varchar(140),
`language` varchar(140),
`on_hold` int(1) not null default 0,
`release_date` date,
`hold_comment` text,
`is_internal_supplier` int(1) not null default 0,
`represents_company` varchar(140),
`inter_company_invoice_reference` varchar(140),
`is_old_subcontracting_flow` int(1) not null default 0,
`remarks` text,
`_user_tags` text,
`_comments` text,
`_assign` text,
`_liked_by` text,
index `supplier`(`supplier`),
index `posting_date`(`posting_date`),
index `credit_to`(`credit_to`),

			index modified(modified))
			ENGINE=InnoDB
			ROW_FORMAT=DYNAMIC
			CHARACTER SET=utf8mb4
			COLLATE=utf8mb4_unicode_ci
2023-08-24 22:46:01,910 WARNING database DDL Query made to DB:
ALTER TABLE `tabPurchase Invoice`
				ADD INDEX `supplier_is_return_return_against_index`(supplier, is_return, return_against)
2023-08-24 22:46:01,990 WARNING database DDL Query made to DB:
create table `tabSales Taxes and Charges Template` (
			name varchar(140) primary key,
			creation datetime(6),
			modified datetime(6),
			modified_by varchar(140),
			owner varchar(140),
			docstatus int(1) not null default '0',
			idx int(8) not null default '0',
			`title` varchar(140),
`is_default` int(1) not null default 0,
`disabled` int(1) not null default 0,
`company` varchar(140),
`tax_category` varchar(140),
`_user_tags` text,
`_comments` text,
`_assign` text,
`_liked_by` text,

			index modified(modified))
			ENGINE=InnoDB
			ROW_FORMAT=DYNAMIC
			CHARACTER SET=utf8mb4
			COLLATE=utf8mb4_unicode_ci
2023-08-24 22:46:02,042 WARNING database DDL Query made to DB:
create table `tabCashier Closing Payments` (
			name varchar(140) primary key,
			creation datetime(6),
			modified datetime(6),
			modified_by varchar(140),
			owner varchar(140),
			docstatus int(1) not null default '0',
			idx int(8) not null default '0',
			`mode_of_payment` varchar(140),
`amount` decimal(21,9) not null default 0,
parent varchar(140),
parentfield varchar(140),
parenttype varchar(140),
index parent(parent),

			index modified(modified))
			ENGINE=InnoDB
			ROW_FORMAT=DYNAMIC
			CHARACTER SET=utf8mb4
			COLLATE=utf8mb4_unicode_ci
2023-08-24 22:46:02,109 WARNING database DDL Query made to DB:
create table `tabLoyalty Program` (
			name varchar(140) primary key,
			creation datetime(6),
			modified datetime(6),
			modified_by varchar(140),
			owner varchar(140),
			docstatus int(1) not null default '0',
			idx int(8) not null default '0',
			`loyalty_program_name` varchar(140) unique,
`loyalty_program_type` varchar(140),
`from_date` date,
`to_date` date,
`customer_group` varchar(140),
`customer_territory` varchar(140),
`auto_opt_in` int(1) not null default 0,
`conversion_factor` decimal(21,9) not null default 0,
`expiry_duration` int(11) not null default 0,
`expense_account` varchar(140),
`company` varchar(140),
`cost_center` varchar(140),
`_user_tags` text,
`_comments` text,
`_assign` text,
`_liked_by` text,

			index modified(modified))
			ENGINE=InnoDB
			ROW_FORMAT=DYNAMIC
			CHARACTER SET=utf8mb4
			COLLATE=utf8mb4_unicode_ci
2023-08-24 22:46:02,159 WARNING database DDL Query made to DB:
create table `tabCash Flow Mapper` (
			name varchar(140) primary key,
			creation datetime(6),
			modified datetime(6),
			modified_by varchar(140),
			owner varchar(140),
			docstatus int(1) not null default '0',
			idx int(8) not null default '0',
			`section_name` varchar(140),
`section_header` varchar(140),
`section_leader` varchar(140),
`section_subtotal` varchar(140),
`section_footer` varchar(140),
`position` int(11) not null default 0,
`_user_tags` text,
`_comments` text,
`_assign` text,
`_liked_by` text,

			index modified(modified))
			ENGINE=InnoDB
			ROW_FORMAT=DYNAMIC
			CHARACTER SET=utf8mb4
			COLLATE=utf8mb4_unicode_ci
2023-08-24 22:46:02,226 WARNING database DDL Query made to DB:
create table `tabShipping Rule Condition` (
			name varchar(140) primary key,
			creation datetime(6),
			modified datetime(6),
			modified_by varchar(140),
			owner varchar(140),
			docstatus int(1) not null default '0',
			idx int(8) not null default '0',
			`from_value` decimal(21,9) not null default 0,
`to_value` decimal(21,9) not null default 0,
`shipping_amount` decimal(21,9) not null default 0,
parent varchar(140),
parentfield varchar(140),
parenttype varchar(140),
index parent(parent),

			index modified(modified))
			ENGINE=InnoDB
			ROW_FORMAT=DYNAMIC
			CHARACTER SET=utf8mb4
			COLLATE=utf8mb4_unicode_ci
2023-08-24 22:46:02,293 WARNING database DDL Query made to DB:
create table `tabPSOA Project` (
			name varchar(140) primary key,
			creation datetime(6),
			modified datetime(6),
			modified_by varchar(140),
			owner varchar(140),
			docstatus int(1) not null default '0',
			idx int(8) not null default '0',
			`project_name` varchar(140),
parent varchar(140),
parentfield varchar(140),
parenttype varchar(140),
index parent(parent),

			index modified(modified))
			ENGINE=InnoDB
			ROW_FORMAT=DYNAMIC
			CHARACTER SET=utf8mb4
			COLLATE=utf8mb4_unicode_ci
2023-08-24 22:46:02,388 WARNING database DDL Query made to DB:
create table `tabPayment Ledger Entry` (
			name varchar(140) primary key,
			creation datetime(6),
			modified datetime(6),
			modified_by varchar(140),
			owner varchar(140),
			docstatus int(1) not null default '0',
			idx int(8) not null default '0',
			`posting_date` date,
`company` varchar(140),
`account_type` varchar(140),
`account` varchar(140),
`party_type` varchar(140),
`party` varchar(140),
`due_date` date,
`cost_center` varchar(140),
`finance_book` varchar(140),
`voucher_type` varchar(140),
`voucher_no` varchar(140),
`against_voucher_type` varchar(140),
`against_voucher_no` varchar(140),
`amount` decimal(21,9) not null default 0,
`account_currency` varchar(140),
`amount_in_account_currency` decimal(21,9) not null default 0,
`delinked` int(1) not null default 0,
`remarks` text,
`_user_tags` text,
`_comments` text,
`_assign` text,
`_liked_by` text,
index `company`(`company`),
index `account`(`account`),
index `party_type`(`party_type`),
index `party`(`party`),

			index modified(modified))
			ENGINE=InnoDB
			ROW_FORMAT=DYNAMIC
			CHARACTER SET=utf8mb4
			COLLATE=utf8mb4_unicode_ci
2023-08-24 22:46:02,422 WARNING database DDL Query made to DB:
ALTER TABLE `tabPayment Ledger Entry`
				ADD INDEX `against_voucher_no_against_voucher_type_index`(against_voucher_no, against_voucher_type)
2023-08-24 22:46:02,434 WARNING database DDL Query made to DB:
ALTER TABLE `tabPayment Ledger Entry`
				ADD INDEX `voucher_no_voucher_type_index`(voucher_no, voucher_type)
2023-08-24 22:46:02,465 WARNING database DDL Query made to DB:
create table `tabJournal Entry Template Account` (
			name varchar(140) primary key,
			creation datetime(6),
			modified datetime(6),
			modified_by varchar(140),
			owner varchar(140),
			docstatus int(1) not null default '0',
			idx int(8) not null default '0',
			`account` varchar(140),
parent varchar(140),
parentfield varchar(140),
parenttype varchar(140),
index parent(parent),

			index modified(modified))
			ENGINE=InnoDB
			ROW_FORMAT=DYNAMIC
			CHARACTER SET=utf8mb4
			COLLATE=utf8mb4_unicode_ci
2023-08-24 22:46:02,512 WARNING database DDL Query made to DB:
create table `tabLoyalty Point Entry Redemption` (
			name varchar(140) primary key,
			creation datetime(6),
			modified datetime(6),
			modified_by varchar(140),
			owner varchar(140),
			docstatus int(1) not null default '0',
			idx int(8) not null default '0',
			`sales_invoice` varchar(140),
`redemption_date` date,
`redeemed_points` int(11) not null default 0,
parent varchar(140),
parentfield varchar(140),
parenttype varchar(140),
index parent(parent),

			index modified(modified))
			ENGINE=InnoDB
			ROW_FORMAT=DYNAMIC
			CHARACTER SET=utf8mb4
			COLLATE=utf8mb4_unicode_ci
2023-08-24 22:46:02,590 WARNING database DDL Query made to DB:
create table `tabPayment Reconciliation Payment` (
			name varchar(140) primary key,
			creation datetime(6),
			modified datetime(6),
			modified_by varchar(140),
			owner varchar(140),
			docstatus int(1) not null default '0',
			idx int(8) not null default '0',
			`reference_type` varchar(140),
`reference_name` varchar(140),
`posting_date` date,
`is_advance` varchar(140),
`reference_row` varchar(140),
`amount` decimal(21,9) not null default 0,
`difference_amount` decimal(21,9) not null default 0,
`remark` text,
`currency` varchar(140),
`exchange_rate` decimal(21,9) not null default 0,
parent varchar(140),
parentfield varchar(140),
parenttype varchar(140),
index parent(parent),

			index modified(modified))
			ENGINE=InnoDB
			ROW_FORMAT=DYNAMIC
			CHARACTER SET=utf8mb4
			COLLATE=utf8mb4_unicode_ci
2023-08-24 22:46:02,637 WARNING database DDL Query made to DB:
create table `tabAccounting Dimension` (
			name varchar(140) primary key,
			creation datetime(6),
			modified datetime(6),
			modified_by varchar(140),
			owner varchar(140),
			docstatus int(1) not null default '0',
			idx int(8) not null default '0',
			`document_type` varchar(140),
`label` varchar(140) unique,
`fieldname` varchar(140),
`disabled` int(1) not null default 0,
`_user_tags` text,
`_comments` text,
`_assign` text,
`_liked_by` text,

			index modified(modified))
			ENGINE=InnoDB
			ROW_FORMAT=DYNAMIC
			CHARACTER SET=utf8mb4
			COLLATE=utf8mb4_unicode_ci
2023-08-24 22:46:02,705 WARNING database DDL Query made to DB:
create table `tabFiscal Year Company` (
			name varchar(140) primary key,
			creation datetime(6),
			modified datetime(6),
			modified_by varchar(140),
			owner varchar(140),
			docstatus int(1) not null default '0',
			idx int(8) not null default '0',
			`company` varchar(140),
parent varchar(140),
parentfield varchar(140),
parenttype varchar(140),
index parent(parent),

			index modified(modified))
			ENGINE=InnoDB
			ROW_FORMAT=DYNAMIC
			CHARACTER SET=utf8mb4
			COLLATE=utf8mb4_unicode_ci
2023-08-24 22:46:02,863 WARNING database DDL Query made to DB:
create table `tabPayment Entry` (
			name varchar(140) primary key,
			creation datetime(6),
			modified datetime(6),
			modified_by varchar(140),
			owner varchar(140),
			docstatus int(1) not null default '0',
			idx int(8) not null default '0',
			`naming_series` varchar(140),
`payment_type` varchar(140),
`payment_order_status` varchar(140),
`posting_date` date,
`company` varchar(140),
`mode_of_payment` varchar(140),
`party_type` varchar(140),
`party` varchar(140),
`party_name` varchar(140),
`bank_account` varchar(140),
`party_bank_account` varchar(140),
`contact_person` varchar(140),
`contact_email` varchar(140),
`party_balance` decimal(21,9) not null default 0,
`paid_from` varchar(140),
`paid_from_account_type` varchar(140),
`paid_from_account_currency` varchar(140),
`paid_from_account_balance` decimal(21,9) not null default 0,
`paid_to` varchar(140),
`paid_to_account_type` varchar(140),
`paid_to_account_currency` varchar(140),
`paid_to_account_balance` decimal(21,9) not null default 0,
`paid_amount` decimal(21,9) not null default 0,
`paid_amount_after_tax` decimal(21,9) not null default 0,
`source_exchange_rate` decimal(21,9) not null default 0,
`base_paid_amount` decimal(21,9) not null default 0,
`base_paid_amount_after_tax` decimal(21,9) not null default 0,
`received_amount` decimal(21,9) not null default 0,
`received_amount_after_tax` decimal(21,9) not null default 0,
`target_exchange_rate` decimal(21,9) not null default 0,
`base_received_amount` decimal(21,9) not null default 0,
`base_received_amount_after_tax` decimal(21,9) not null default 0,
`total_allocated_amount` decimal(21,9) not null default 0,
`base_total_allocated_amount` decimal(21,9) not null default 0,
`unallocated_amount` decimal(21,9) not null default 0,
`difference_amount` decimal(21,9) not null default 0,
`purchase_taxes_and_charges_template` varchar(140),
`sales_taxes_and_charges_template` varchar(140),
`apply_tax_withholding_amount` int(1) not null default 0,
`tax_withholding_category` varchar(140),
`base_total_taxes_and_charges` decimal(21,9) not null default 0,
`total_taxes_and_charges` decimal(21,9) not null default 0,
`reference_no` varchar(140),
`reference_date` date,
`clearance_date` date,
`project` varchar(140),
`cost_center` varchar(140),
`status` varchar(140) default 'Draft',
`custom_remarks` int(1) not null default 0,
`remarks` text,
`letter_head` varchar(140),
`print_heading` varchar(140),
`bank` varchar(140),
`bank_account_no` varchar(140),
`payment_order` varchar(140),
`auto_repeat` varchar(140),
`amended_from` varchar(140),
`title` varchar(140),
`_user_tags` text,
`_comments` text,
`_assign` text,
`_liked_by` text,
index `party_type`(`party_type`),
index `reference_date`(`reference_date`),

			index modified(modified))
			ENGINE=InnoDB
			ROW_FORMAT=DYNAMIC
			CHARACTER SET=utf8mb4
			COLLATE=utf8mb4_unicode_ci
2023-08-24 22:46:02,954 WARNING database DDL Query made to DB:
create table `tabPayment Entry Deduction` (
			name varchar(140) primary key,
			creation datetime(6),
			modified datetime(6),
			modified_by varchar(140),
			owner varchar(140),
			docstatus int(1) not null default '0',
			idx int(8) not null default '0',
			`account` varchar(140),
`cost_center` varchar(140),
`amount` decimal(21,9) not null default 0,
`description` text,
parent varchar(140),
parentfield varchar(140),
parenttype varchar(140),
index parent(parent),

			index modified(modified))
			ENGINE=InnoDB
			ROW_FORMAT=DYNAMIC
			CHARACTER SET=utf8mb4
			COLLATE=utf8mb4_unicode_ci
2023-08-24 22:46:03,004 WARNING database DDL Query made to DB:
create table `tabCash Flow Mapping Template Details` (
			name varchar(140) primary key,
			creation datetime(6),
			modified datetime(6),
			modified_by varchar(140),
			owner varchar(140),
			docstatus int(1) not null default '0',
			idx int(8) not null default '0',
			`mapping` varchar(140) unique,
parent varchar(140),
parentfield varchar(140),
parenttype varchar(140),
index parent(parent),

			index modified(modified))
			ENGINE=InnoDB
			ROW_FORMAT=DYNAMIC
			CHARACTER SET=utf8mb4
			COLLATE=utf8mb4_unicode_ci
2023-08-24 22:46:03,109 WARNING database DDL Query made to DB:
create table `tabJournal Entry Template` (
			name varchar(140) primary key,
			creation datetime(6),
			modified datetime(6),
			modified_by varchar(140),
			owner varchar(140),
			docstatus int(1) not null default '0',
			idx int(8) not null default '0',
			`template_title` varchar(140) unique,
`voucher_type` varchar(140),
`naming_series` varchar(140),
`company` varchar(140),
`is_opening` varchar(140) default 'No',
`multi_currency` int(1) not null default 0,
`_user_tags` text,
`_comments` text,
`_assign` text,
`_liked_by` text,

			index modified(modified))
			ENGINE=InnoDB
			ROW_FORMAT=DYNAMIC
			CHARACTER SET=utf8mb4
			COLLATE=utf8mb4_unicode_ci
2023-08-24 22:46:03,209 WARNING database DDL Query made to DB:
create table `tabTax Withholding Rate` (
			name varchar(140) primary key,
			creation datetime(6),
			modified datetime(6),
			modified_by varchar(140),
			owner varchar(140),
			docstatus int(1) not null default '0',
			idx int(8) not null default '0',
			`from_date` date,
`to_date` date,
`tax_withholding_rate` decimal(21,9) not null default 0,
`single_threshold` decimal(21,9) not null default 0,
`cumulative_threshold` decimal(21,9) not null default 0,
parent varchar(140),
parentfield varchar(140),
parenttype varchar(140),
index parent(parent),

			index modified(modified))
			ENGINE=InnoDB
			ROW_FORMAT=DYNAMIC
			CHARACTER SET=utf8mb4
			COLLATE=utf8mb4_unicode_ci
2023-08-24 22:46:03,343 WARNING database DDL Query made to DB:
create table `tabPOS Profile` (
			name varchar(140) primary key,
			creation datetime(6),
			modified datetime(6),
			modified_by varchar(140),
			owner varchar(140),
			docstatus int(1) not null default '0',
			idx int(8) not null default '0',
			`company` varchar(140),
`customer` varchar(140),
`country` varchar(140),
`disabled` int(1) not null default 0,
`warehouse` varchar(140),
`campaign` varchar(140),
`company_address` varchar(140),
`hide_images` int(1) not null default 0,
`hide_unavailable_items` int(1) not null default 0,
`auto_add_item_to_cart` int(1) not null default 0,
`validate_stock_on_save` int(1) not null default 0,
`update_stock` int(1) not null default 1,
`ignore_pricing_rule` int(1) not null default 0,
`allow_rate_change` int(1) not null default 0,
`allow_discount_change` int(1) not null default 0,
`print_format` varchar(140),
`letter_head` varchar(140),
`tc_name` varchar(140),
`select_print_heading` varchar(140),
`selling_price_list` varchar(140),
`currency` varchar(140),
`write_off_account` varchar(140),
`write_off_cost_center` varchar(140),
`write_off_limit` decimal(21,9) not null default 1.0,
`account_for_change_amount` varchar(140),
`disable_rounded_total` int(1) not null default 0,
`income_account` varchar(140),
`expense_account` varchar(140),
`taxes_and_charges` varchar(140),
`tax_category` varchar(140),
`apply_discount_on` varchar(140) default 'Grand Total',
`cost_center` varchar(140),
`_user_tags` text,
`_comments` text,
`_assign` text,
`_liked_by` text,

			index modified(modified))
			ENGINE=InnoDB
			ROW_FORMAT=DYNAMIC
			CHARACTER SET=utf8mb4
			COLLATE=utf8mb4_unicode_ci
2023-08-24 22:46:03,399 WARNING database DDL Query made to DB:
create table `tabLedger Merge` (
			name varchar(140) primary key,
			creation datetime(6),
			modified datetime(6),
			modified_by varchar(140),
			owner varchar(140),
			docstatus int(1) not null default '0',
			idx int(8) not null default '0',
			`root_type` varchar(140),
`account` varchar(140),
`account_name` varchar(140),
`company` varchar(140),
`status` varchar(140),
`is_group` int(1) not null default 0,
`_user_tags` text,
`_comments` text,
`_assign` text,
`_liked_by` text,

			index modified(modified))
			ENGINE=InnoDB
			ROW_FORMAT=DYNAMIC
			CHARACTER SET=utf8mb4
			COLLATE=utf8mb4_unicode_ci
2023-08-24 22:46:03,482 WARNING database DDL Query made to DB:
create table `tabProcess Statement Of Accounts Customer` (
			name varchar(140) primary key,
			creation datetime(6),
			modified datetime(6),
			modified_by varchar(140),
			owner varchar(140),
			docstatus int(1) not null default '0',
			idx int(8) not null default '0',
			`customer` varchar(140),
`customer_name` varchar(140),
`billing_email` varchar(140),
`primary_email` varchar(140),
parent varchar(140),
parentfield varchar(140),
parenttype varchar(140),
index parent(parent),

			index modified(modified))
			ENGINE=InnoDB
			ROW_FORMAT=DYNAMIC
			CHARACTER SET=utf8mb4
			COLLATE=utf8mb4_unicode_ci
2023-08-24 22:46:03,563 WARNING database DDL Query made to DB:
create table `tabShare Type` (
			name varchar(140) primary key,
			creation datetime(6),
			modified datetime(6),
			modified_by varchar(140),
			owner varchar(140),
			docstatus int(1) not null default '0',
			idx int(8) not null default '0',
			`title` varchar(140) unique,
`description` longtext,
`_user_tags` text,
`_comments` text,
`_assign` text,
`_liked_by` text,

			index modified(modified))
			ENGINE=InnoDB
			ROW_FORMAT=DYNAMIC
			CHARACTER SET=utf8mb4
			COLLATE=utf8mb4_unicode_ci
2023-08-24 22:46:03,707 WARNING database DDL Query made to DB:
create table `tabPayment Term` (
			name varchar(140) primary key,
			creation datetime(6),
			modified datetime(6),
			modified_by varchar(140),
			owner varchar(140),
			docstatus int(1) not null default '0',
			idx int(8) not null default '0',
			`payment_term_name` varchar(140) unique,
`invoice_portion` decimal(21,9) not null default 0,
`mode_of_payment` varchar(140),
`due_date_based_on` varchar(140),
`credit_days` int(11) not null default 0,
`credit_months` int(11) not null default 0,
`discount_type` varchar(140) default 'Percentage',
`discount` decimal(21,9) not null default 0,
`discount_validity_based_on` varchar(140) default 'Day(s) after invoice date',
`discount_validity` int(11) not null default 0,
`description` text,
`_user_tags` text,
`_comments` text,
`_assign` text,
`_liked_by` text,

			index modified(modified))
			ENGINE=InnoDB
			ROW_FORMAT=DYNAMIC
			CHARACTER SET=utf8mb4
			COLLATE=utf8mb4_unicode_ci
2023-08-24 22:46:03,781 WARNING database DDL Query made to DB:
create table `tabPOS Profile User` (
			name varchar(140) primary key,
			creation datetime(6),
			modified datetime(6),
			modified_by varchar(140),
			owner varchar(140),
			docstatus int(1) not null default '0',
			idx int(8) not null default '0',
			`default` int(1) not null default 0,
`user` varchar(140),
parent varchar(140),
parentfield varchar(140),
parenttype varchar(140),
index parent(parent),

			index modified(modified))
			ENGINE=InnoDB
			ROW_FORMAT=DYNAMIC
			CHARACTER SET=utf8mb4
			COLLATE=utf8mb4_unicode_ci
2023-08-24 22:46:03,853 WARNING database DDL Query made to DB:
create table `tabTax Withheld Vouchers` (
			name varchar(140) primary key,
			creation datetime(6),
			modified datetime(6),
			modified_by varchar(140),
			owner varchar(140),
			docstatus int(1) not null default '0',
			idx int(8) not null default '0',
			`voucher_type` varchar(140),
`voucher_name` varchar(140),
`taxable_amount` decimal(21,9) not null default 0,
parent varchar(140),
parentfield varchar(140),
parenttype varchar(140),
index parent(parent),

			index modified(modified))
			ENGINE=InnoDB
			ROW_FORMAT=DYNAMIC
			CHARACTER SET=utf8mb4
			COLLATE=utf8mb4_unicode_ci
2023-08-24 22:46:03,897 WARNING database DDL Query made to DB:
create table `tabPOS Opening Entry Detail` (
			name varchar(140) primary key,
			creation datetime(6),
			modified datetime(6),
			modified_by varchar(140),
			owner varchar(140),
			docstatus int(1) not null default '0',
			idx int(8) not null default '0',
			`mode_of_payment` varchar(140),
`opening_amount` decimal(21,9) not null default 0,
parent varchar(140),
parentfield varchar(140),
parenttype varchar(140),
index parent(parent),

			index modified(modified))
			ENGINE=InnoDB
			ROW_FORMAT=DYNAMIC
			CHARACTER SET=utf8mb4
			COLLATE=utf8mb4_unicode_ci
2023-08-24 22:46:03,973 WARNING database DDL Query made to DB:
create table `tabCost Center Allocation` (
			name varchar(140) primary key,
			creation datetime(6),
			modified datetime(6),
			modified_by varchar(140),
			owner varchar(140),
			docstatus int(1) not null default '0',
			idx int(8) not null default '0',
			`main_cost_center` varchar(140),
`company` varchar(140),
`valid_from` date,
`amended_from` varchar(140),
`_user_tags` text,
`_comments` text,
`_assign` text,
`_liked_by` text,

			index modified(modified))
			ENGINE=InnoDB
			ROW_FORMAT=DYNAMIC
			CHARACTER SET=utf8mb4
			COLLATE=utf8mb4_unicode_ci
2023-08-24 22:46:04,059 WARNING database DDL Query made to DB:
create table `tabShare Transfer` (
			name varchar(140) primary key,
			creation datetime(6),
			modified datetime(6),
			modified_by varchar(140),
			owner varchar(140),
			docstatus int(1) not null default '0',
			idx int(8) not null default '0',
			`transfer_type` varchar(140),
`date` date,
`from_shareholder` varchar(140),
`from_folio_no` varchar(140),
`to_shareholder` varchar(140),
`to_folio_no` varchar(140),
`equity_or_liability_account` varchar(140),
`asset_account` varchar(140),
`share_type` varchar(140),
`from_no` int(11) not null default 0,
`rate` decimal(21,9) not null default 0,
`no_of_shares` int(11) not null default 0,
`to_no` int(11) not null default 0,
`amount` decimal(21,9) not null default 0,
`company` varchar(140),
`remarks` longtext,
`amended_from` varchar(140),
`_user_tags` text,
`_comments` text,
`_assign` text,
`_liked_by` text,

			index modified(modified))
			ENGINE=InnoDB
			ROW_FORMAT=DYNAMIC
			CHARACTER SET=utf8mb4
			COLLATE=utf8mb4_unicode_ci
2023-08-24 22:46:04,142 WARNING database DDL Query made to DB:
create table `tabPricing Rule Brand` (
			name varchar(140) primary key,
			creation datetime(6),
			modified datetime(6),
			modified_by varchar(140),
			owner varchar(140),
			docstatus int(1) not null default '0',
			idx int(8) not null default '0',
			`brand` varchar(140),
`uom` varchar(140),
index `brand`(`brand`),
parent varchar(140),
parentfield varchar(140),
parenttype varchar(140),
index parent(parent),

			index modified(modified))
			ENGINE=InnoDB
			ROW_FORMAT=DYNAMIC
			CHARACTER SET=utf8mb4
			COLLATE=utf8mb4_unicode_ci
2023-08-24 22:46:04,212 WARNING database DDL Query made to DB:
create table `tabCampaign Item` (
			name varchar(140) primary key,
			creation datetime(6),
			modified datetime(6),
			modified_by varchar(140),
			owner varchar(140),
			docstatus int(1) not null default '0',
			idx int(8) not null default '0',
			`campaign` varchar(140),
parent varchar(140),
parentfield varchar(140),
parenttype varchar(140),
index parent(parent),

			index modified(modified))
			ENGINE=InnoDB
			ROW_FORMAT=DYNAMIC
			CHARACTER SET=utf8mb4
			COLLATE=utf8mb4_unicode_ci
2023-08-24 22:46:04,269 WARNING database DDL Query made to DB:
create table `tabBank Account Subtype` (
			name varchar(140) primary key,
			creation datetime(6),
			modified datetime(6),
			modified_by varchar(140),
			owner varchar(140),
			docstatus int(1) not null default '0',
			idx int(8) not null default '0',
			`account_subtype` varchar(140) unique,
`_user_tags` text,
`_comments` text,
`_assign` text,
`_liked_by` text,

			index modified(modified))
			ENGINE=InnoDB
			ROW_FORMAT=DYNAMIC
			CHARACTER SET=utf8mb4
			COLLATE=utf8mb4_unicode_ci
