2023-08-24 22:46:04,535 WARNING database DDL Query made to DB:
create table `tabSales Invoice` (
			name varchar(140) primary key,
			creation datetime(6),
			modified datetime(6),
			modified_by varchar(140),
			owner varchar(140),
			docstatus int(1) not null default '0',
			idx int(8) not null default '0',
			`title` varchar(140) default '{customer_name}',
`naming_series` varchar(140),
`customer` varchar(140),
`customer_name` text,
`tax_id` varchar(140),
`company` varchar(140),
`company_tax_id` varchar(140),
`posting_date` date,
`posting_time` time(6),
`set_posting_time` int(1) not null default 0,
`due_date` date,
`is_pos` int(1) not null default 0,
`pos_profile` varchar(140),
`is_consolidated` int(1) not null default 0,
`is_return` int(1) not null default 0,
`return_against` varchar(140),
`update_billed_amount_in_sales_order` int(1) not null default 0,
`is_debit_note` int(1) not null default 0,
`amended_from` varchar(140),
`cost_center` varchar(140),
`project` varchar(140),
`currency` varchar(140),
`conversion_rate` decimal(21,9) not null default 0,
`selling_price_list` varchar(140),
`price_list_currency` varchar(140),
`plc_conversion_rate` decimal(21,9) not null default 0,
`ignore_pricing_rule` int(1) not null default 0,
`scan_barcode` varchar(140),
`update_stock` int(1) not null default 0,
`set_warehouse` varchar(140),
`set_target_warehouse` varchar(140),
`total_qty` decimal(21,9) not null default 0,
`total_net_weight` decimal(21,9) not null default 0,
`base_total` decimal(21,9) not null default 0,
`base_net_total` decimal(21,9) not null default 0,
`total` decimal(21,9) not null default 0,
`net_total` decimal(21,9) not null default 0,
`tax_category` varchar(140),
`taxes_and_charges` varchar(140),
`shipping_rule` varchar(140),
`incoterm` varchar(140),
`named_place` varchar(140),
`base_total_taxes_and_charges` decimal(21,9) not null default 0,
`total_taxes_and_charges` decimal(21,9) not null default 0,
`base_grand_total` decimal(21,9) not null default 0,
`base_rounding_adjustment` decimal(21,9) not null default 0,
`base_rounded_total` decimal(21,9) not null default 0,
`base_in_words` text,
`grand_total` decimal(21,9) not null default 0,
`rounding_adjustment` decimal(21,9) not null default 0,
`use_company_roundoff_cost_center` int(1) not null default 0,
`rounded_total` decimal(21,9) not null default 0,
`in_words` text,
`total_advance` decimal(21,9) not null default 0,
`outstanding_amount` decimal(21,9) not null default 0,
`disable_rounded_total` int(1) not null default 0,
`apply_discount_on` varchar(15) default 'Grand Total',
`base_discount_amount` decimal(21,9) not null default 0,
`is_cash_or_non_trade_discount` int(1) not null default 0,
`additional_discount_account` varchar(140),
`additional_discount_percentage` decimal(21,9) not null default 0,
`discount_amount` decimal(21,9) not null default 0,
`other_charges_calculation` longtext,
`total_billing_hours` decimal(21,9) not null default 0,
`total_billing_amount` decimal(21,9) not null default 0,
`cash_bank_account` varchar(140),
`base_paid_amount` decimal(21,9) not null default 0,
`paid_amount` decimal(21,9) not null default 0,
`base_change_amount` decimal(21,9) not null default 0,
`change_amount` decimal(21,9) not null default 0,
`account_for_change_amount` varchar(140),
`allocate_advances_automatically` int(1) not null default 0,
`only_include_allocated_payments` int(1) not null default 0,
`write_off_amount` decimal(21,9) not null default 0,
`base_write_off_amount` decimal(21,9) not null default 0,
`write_off_outstanding_amount_automatically` int(1) not null default 0,
`write_off_account` varchar(140),
`write_off_cost_center` varchar(140),
`redeem_loyalty_points` int(1) not null default 0,
`loyalty_points` int(11) not null default 0,
`loyalty_amount` decimal(21,9) not null default 0,
`loyalty_program` varchar(140),
`loyalty_redemption_account` varchar(140),
`loyalty_redemption_cost_center` varchar(140),
`customer_address` varchar(140),
`address_display` text,
`contact_person` varchar(140),
`contact_display` text,
`contact_mobile` text,
`contact_email` varchar(140),
`territory` varchar(140),
`shipping_address_name` varchar(140),
`shipping_address` text,
`dispatch_address_name` varchar(140),
`dispatch_address` text,
`company_address` varchar(140),
`company_address_display` text,
`ignore_default_payment_terms_template` int(1) not null default 0,
`payment_terms_template` varchar(140),
`tc_name` varchar(140),
`terms` longtext,
`po_no` varchar(140),
`po_date` date,
`debit_to` varchar(140),
`party_account_currency` varchar(140),
`is_opening` varchar(4) default 'No',
`unrealized_profit_loss_account` varchar(140),
`against_income_account` text,
`sales_partner` varchar(140),
`amount_eligible_for_commission` decimal(21,9) not null default 0,
`commission_rate` decimal(21,9) not null default 0,
`total_commission` decimal(21,9) not null default 0,
`letter_head` varchar(140),
`group_same_items` int(1) not null default 0,
`select_print_heading` varchar(140),
`language` varchar(6),
`from_date` date,
`auto_repeat` varchar(140),
`to_date` date,
`status` varchar(30) default 'Draft',
`inter_company_invoice_reference` varchar(140),
`campaign` varchar(140),
`represents_company` varchar(140),
`source` varchar(140),
`customer_group` varchar(140),
`is_internal_customer` int(1) not null default 0,
`is_discounted` int(1) not null default 0,
`remarks` text,
`repost_required` int(1) not null default 0,
`_user_tags` text,
`_comments` text,
`_assign` text,
`_liked_by` text,
`_seen` text,
index `customer`(`customer`),
index `posting_date`(`posting_date`),
index `return_against`(`return_against`),
index `debit_to`(`debit_to`),

			index modified(modified))
			ENGINE=InnoDB
			ROW_FORMAT=DYNAMIC
			CHARACTER SET=utf8mb4
			COLLATE=utf8mb4_unicode_ci
2023-08-24 22:46:04,586 WARNING database DDL Query made to DB:
ALTER TABLE `tabSales Invoice`
				ADD INDEX `customer_is_return_return_against_index`(customer, is_return, return_against)
2023-08-24 22:46:04,655 WARNING database DDL Query made to DB:
create table `tabPricing Rule Detail` (
			name varchar(140) primary key,
			creation datetime(6),
			modified datetime(6),
			modified_by varchar(140),
			owner varchar(140),
			docstatus int(1) not null default '0',
			idx int(8) not null default '0',
			`pricing_rule` varchar(140),
`item_code` varchar(140),
`margin_type` varchar(140),
`rate_or_discount` varchar(140),
`child_docname` varchar(140),
`rule_applied` int(1) not null default 1,
parent varchar(140),
parentfield varchar(140),
parenttype varchar(140),
index parent(parent),

			index modified(modified))
			ENGINE=InnoDB
			ROW_FORMAT=DYNAMIC
			CHARACTER SET=utf8mb4
			COLLATE=utf8mb4_unicode_ci
2023-08-24 22:46:04,720 WARNING database DDL Query made to DB:
create table `tabSouth Africa VAT Account` (
			name varchar(140) primary key,
			creation datetime(6),
			modified datetime(6),
			modified_by varchar(140),
			owner varchar(140),
			docstatus int(1) not null default '0',
			idx int(8) not null default '0',
			`account` varchar(140),
parent varchar(140),
parentfield varchar(140),
parenttype varchar(140),
index parent(parent),

			index modified(modified))
			ENGINE=InnoDB
			ROW_FORMAT=DYNAMIC
			CHARACTER SET=utf8mb4
			COLLATE=utf8mb4_unicode_ci
2023-08-24 22:46:04,808 WARNING database DDL Query made to DB:
create table `tabAccounting Dimension Filter` (
			name varchar(140) primary key,
			creation datetime(6),
			modified datetime(6),
			modified_by varchar(140),
			owner varchar(140),
			docstatus int(1) not null default '0',
			idx int(8) not null default '0',
			`accounting_dimension` varchar(140),
`disabled` int(1) not null default 0,
`company` varchar(140),
`allow_or_restrict` varchar(140),
`_user_tags` text,
`_comments` text,
`_assign` text,
`_liked_by` text,

			index modified(modified))
			ENGINE=InnoDB
			ROW_FORMAT=DYNAMIC
			CHARACTER SET=utf8mb4
			COLLATE=utf8mb4_unicode_ci
2023-08-24 22:46:04,908 WARNING database DDL Query made to DB:
create table `tabSupplier Item` (
			name varchar(140) primary key,
			creation datetime(6),
			modified datetime(6),
			modified_by varchar(140),
			owner varchar(140),
			docstatus int(1) not null default '0',
			idx int(8) not null default '0',
			`supplier` varchar(140),
parent varchar(140),
parentfield varchar(140),
parenttype varchar(140),
index parent(parent),

			index modified(modified))
			ENGINE=InnoDB
			ROW_FORMAT=DYNAMIC
			CHARACTER SET=utf8mb4
			COLLATE=utf8mb4_unicode_ci
2023-08-24 22:46:04,956 WARNING database DDL Query made to DB:
create table `tabBudget Account` (
			name varchar(140) primary key,
			creation datetime(6),
			modified datetime(6),
			modified_by varchar(140),
			owner varchar(140),
			docstatus int(1) not null default '0',
			idx int(8) not null default '0',
			`account` varchar(140),
`budget_amount` decimal(21,9) not null default 0,
parent varchar(140),
parentfield varchar(140),
parenttype varchar(140),
index parent(parent),

			index modified(modified))
			ENGINE=InnoDB
			ROW_FORMAT=DYNAMIC
			CHARACTER SET=utf8mb4
			COLLATE=utf8mb4_unicode_ci
2023-08-24 22:46:05,022 WARNING database DDL Query made to DB:
create table `tabSubscription Plan` (
			name varchar(140) primary key,
			creation datetime(6),
			modified datetime(6),
			modified_by varchar(140),
			owner varchar(140),
			docstatus int(1) not null default '0',
			idx int(8) not null default '0',
			`plan_name` varchar(140) unique,
`currency` varchar(140),
`item` varchar(140),
`price_determination` varchar(140),
`cost` decimal(21,9) not null default 0,
`price_list` varchar(140),
`billing_interval` varchar(140) default 'Day',
`billing_interval_count` int(11) not null default 1,
`product_price_id` varchar(140),
`payment_gateway` varchar(140),
`cost_center` varchar(140),
`_user_tags` text,
`_comments` text,
`_assign` text,
`_liked_by` text,

			index modified(modified))
			ENGINE=InnoDB
			ROW_FORMAT=DYNAMIC
			CHARACTER SET=utf8mb4
			COLLATE=utf8mb4_unicode_ci
2023-08-24 22:46:05,115 WARNING database DDL Query made to DB:
create table `tabJournal Entry Account` (
			name varchar(140) primary key,
			creation datetime(6),
			modified datetime(6),
			modified_by varchar(140),
			owner varchar(140),
			docstatus int(1) not null default '0',
			idx int(8) not null default '0',
			`account` varchar(140),
`account_type` varchar(140),
`balance` decimal(21,9) not null default 0,
`bank_account` varchar(140),
`party_type` varchar(140),
`party` varchar(140),
`party_balance` decimal(21,9) not null default 0,
`cost_center` varchar(140),
`project` varchar(140),
`account_currency` varchar(140),
`exchange_rate` decimal(21,9) not null default 0,
`debit_in_account_currency` decimal(21,9) not null default 0,
`debit` decimal(21,9) not null default 0,
`credit_in_account_currency` decimal(21,9) not null default 0,
`credit` decimal(21,9) not null default 0,
`reference_type` varchar(140),
`reference_name` varchar(140),
`reference_due_date` date,
`reference_detail_no` varchar(140),
`is_advance` varchar(140),
`user_remark` text,
`against_account` text,
index `account`(`account`),
index `party_type`(`party_type`),
parent varchar(140),
parentfield varchar(140),
parenttype varchar(140),
index parent(parent),

			index modified(modified))
			ENGINE=InnoDB
			ROW_FORMAT=DYNAMIC
			CHARACTER SET=utf8mb4
			COLLATE=utf8mb4_unicode_ci
2023-08-24 22:46:05,169 WARNING database DDL Query made to DB:
create table `tabPurchase Taxes and Charges Template` (
			name varchar(140) primary key,
			creation datetime(6),
			modified datetime(6),
			modified_by varchar(140),
			owner varchar(140),
			docstatus int(1) not null default '0',
			idx int(8) not null default '0',
			`title` varchar(140),
`is_default` int(1) not null default 0,
`disabled` int(1) not null default 0,
`company` varchar(140),
`tax_category` varchar(140),
`_user_tags` text,
`_comments` text,
`_assign` text,
`_liked_by` text,

			index modified(modified))
			ENGINE=InnoDB
			ROW_FORMAT=DYNAMIC
			CHARACTER SET=utf8mb4
			COLLATE=utf8mb4_unicode_ci
2023-08-24 22:46:05,244 WARNING database DDL Query made to DB:
create table `tabApplicable On Account` (
			name varchar(140) primary key,
			creation datetime(6),
			modified datetime(6),
			modified_by varchar(140),
			owner varchar(140),
			docstatus int(1) not null default '0',
			idx int(8) not null default '0',
			`applicable_on_account` varchar(140),
`is_mandatory` int(1) not null default 0,
parent varchar(140),
parentfield varchar(140),
parenttype varchar(140),
index parent(parent),

			index modified(modified))
			ENGINE=InnoDB
			ROW_FORMAT=DYNAMIC
			CHARACTER SET=utf8mb4
			COLLATE=utf8mb4_unicode_ci
2023-08-24 22:46:05,297 WARNING database DDL Query made to DB:
create table `tabSales Invoice Advance` (
			name varchar(140) primary key,
			creation datetime(6),
			modified datetime(6),
			modified_by varchar(140),
			owner varchar(140),
			docstatus int(1) not null default '0',
			idx int(8) not null default '0',
			`reference_type` varchar(140),
`reference_name` varchar(140),
`remarks` text,
`reference_row` varchar(140),
`advance_amount` decimal(21,9) not null default 0,
`allocated_amount` decimal(21,9) not null default 0,
`exchange_gain_loss` decimal(21,9) not null default 0,
`ref_exchange_rate` decimal(21,9) not null default 0,
parent varchar(140),
parentfield varchar(140),
parenttype varchar(140),
index parent(parent),

			index modified(modified))
			ENGINE=InnoDB
			ROW_FORMAT=DYNAMIC
			CHARACTER SET=utf8mb4
			COLLATE=utf8mb4_unicode_ci
2023-08-24 22:46:05,344 WARNING database DDL Query made to DB:
create table `tabTerritory Item` (
			name varchar(140) primary key,
			creation datetime(6),
			modified datetime(6),
			modified_by varchar(140),
			owner varchar(140),
			docstatus int(1) not null default '0',
			idx int(8) not null default '0',
			`territory` varchar(140),
parent varchar(140),
parentfield varchar(140),
parenttype varchar(140),
index parent(parent),

			index modified(modified))
			ENGINE=InnoDB
			ROW_FORMAT=DYNAMIC
			CHARACTER SET=utf8mb4
			COLLATE=utf8mb4_unicode_ci
2023-08-24 22:46:05,448 WARNING database DDL Query made to DB:
create table `tabItem Tax Template` (
			name varchar(140) primary key,
			creation datetime(6),
			modified datetime(6),
			modified_by varchar(140),
			owner varchar(140),
			docstatus int(1) not null default '0',
			idx int(8) not null default '0',
			`title` varchar(140),
`company` varchar(140),
`disabled` int(1) not null default 0,
`_user_tags` text,
`_comments` text,
`_assign` text,
`_liked_by` text,

			index modified(modified))
			ENGINE=InnoDB
			ROW_FORMAT=DYNAMIC
			CHARACTER SET=utf8mb4
			COLLATE=utf8mb4_unicode_ci
2023-08-24 22:46:05,522 WARNING database DDL Query made to DB:
create table `tabTax Withholding Category` (
			name varchar(140) primary key,
			creation datetime(6),
			modified datetime(6),
			modified_by varchar(140),
			owner varchar(140),
			docstatus int(1) not null default '0',
			idx int(8) not null default '0',
			`category_name` varchar(140),
`round_off_tax_amount` int(1) not null default 0,
`consider_party_ledger_amount` int(1) not null default 0,
`tax_on_excess_amount` int(1) not null default 0,
`_user_tags` text,
`_comments` text,
`_assign` text,
`_liked_by` text,

			index modified(modified))
			ENGINE=InnoDB
			ROW_FORMAT=DYNAMIC
			CHARACTER SET=utf8mb4
			COLLATE=utf8mb4_unicode_ci
2023-08-24 22:46:05,624 WARNING database DDL Query made to DB:
create table `tabSubscription` (
			name varchar(140) primary key,
			creation datetime(6),
			modified datetime(6),
			modified_by varchar(140),
			owner varchar(140),
			docstatus int(1) not null default '0',
			idx int(8) not null default '0',
			`party_type` varchar(140),
`party` varchar(140),
`company` varchar(140),
`status` varchar(140),
`start_date` date,
`end_date` date,
`cancelation_date` date,
`trial_period_start` date,
`trial_period_end` date,
`follow_calendar_months` int(1) not null default 0,
`generate_new_invoices_past_due_date` int(1) not null default 0,
`current_invoice_start` date,
`current_invoice_end` date,
`days_until_due` int(11) not null default 0,
`cancel_at_period_end` int(1) not null default 0,
`generate_invoice_at_period_start` int(1) not null default 0,
`sales_tax_template` varchar(140),
`purchase_tax_template` varchar(140),
`apply_additional_discount` varchar(140),
`additional_discount_percentage` decimal(21,9) not null default 0,
`additional_discount_amount` decimal(21,9) not null default 0,
`submit_invoice` int(1) not null default 1,
`cost_center` varchar(140),
`_user_tags` text,
`_comments` text,
`_assign` text,
`_liked_by` text,

			index modified(modified))
			ENGINE=InnoDB
			ROW_FORMAT=DYNAMIC
			CHARACTER SET=utf8mb4
			COLLATE=utf8mb4_unicode_ci
2023-08-24 22:46:05,711 WARNING database DDL Query made to DB:
create table `tabPurchase Taxes and Charges` (
			name varchar(140) primary key,
			creation datetime(6),
			modified datetime(6),
			modified_by varchar(140),
			owner varchar(140),
			docstatus int(1) not null default '0',
			idx int(8) not null default '0',
			`category` varchar(140) default 'Total',
`add_deduct_tax` varchar(140) default 'Add',
`charge_type` varchar(140) default 'On Net Total',
`row_id` varchar(140),
`included_in_print_rate` int(1) not null default 0,
`included_in_paid_amount` int(1) not null default 0,
`account_head` varchar(140),
`description` text,
`rate` decimal(21,9) not null default 0,
`cost_center` varchar(140),
`account_currency` varchar(140),
`tax_amount` decimal(21,9) not null default 0,
`tax_amount_after_discount_amount` decimal(21,9) not null default 0,
`total` decimal(21,9) not null default 0,
`base_tax_amount` decimal(21,9) not null default 0,
`base_total` decimal(21,9) not null default 0,
`base_tax_amount_after_discount_amount` decimal(21,9) not null default 0,
`item_wise_tax_detail` longtext,
parent varchar(140),
parentfield varchar(140),
parenttype varchar(140),
index parent(parent),

			index modified(modified))
			ENGINE=InnoDB
			ROW_FORMAT=DYNAMIC
			CHARACTER SET=utf8mb4
			COLLATE=utf8mb4_unicode_ci
2023-08-24 22:46:05,761 WARNING database DDL Query made to DB:
create table `tabShipping Rule Country` (
			name varchar(140) primary key,
			creation datetime(6),
			modified datetime(6),
			modified_by varchar(140),
			owner varchar(140),
			docstatus int(1) not null default '0',
			idx int(8) not null default '0',
			`country` varchar(140),
parent varchar(140),
parentfield varchar(140),
parenttype varchar(140),
index parent(parent),

			index modified(modified))
			ENGINE=InnoDB
			ROW_FORMAT=DYNAMIC
			CHARACTER SET=utf8mb4
			COLLATE=utf8mb4_unicode_ci
2023-08-24 22:46:05,808 WARNING database DDL Query made to DB:
create table `tabCustomer Group Item` (
			name varchar(140) primary key,
			creation datetime(6),
			modified datetime(6),
			modified_by varchar(140),
			owner varchar(140),
			docstatus int(1) not null default '0',
			idx int(8) not null default '0',
			`customer_group` varchar(140),
parent varchar(140),
parentfield varchar(140),
parenttype varchar(140),
index parent(parent),

			index modified(modified))
			ENGINE=InnoDB
			ROW_FORMAT=DYNAMIC
			CHARACTER SET=utf8mb4
			COLLATE=utf8mb4_unicode_ci
2023-08-24 22:46:05,892 WARNING database DDL Query made to DB:
create table `tabBank Guarantee` (
			name varchar(140) primary key,
			creation datetime(6),
			modified datetime(6),
			modified_by varchar(140),
			owner varchar(140),
			docstatus int(1) not null default '0',
			idx int(8) not null default '0',
			`bg_type` varchar(140),
`reference_doctype` varchar(140),
`reference_docname` varchar(140),
`customer` varchar(140),
`supplier` varchar(140),
`project` varchar(140),
`amount` decimal(21,9) not null default 0,
`start_date` date,
`validity` int(11) not null default 0,
`end_date` date,
`bank` varchar(140),
`bank_account` varchar(140),
`account` varchar(140),
`bank_account_no` varchar(140),
`iban` varchar(140),
`branch_code` varchar(140),
`swift_number` varchar(140),
`more_information` longtext,
`bank_guarantee_number` varchar(140) unique,
`name_of_beneficiary` varchar(140),
`margin_money` decimal(21,9) not null default 0,
`charges` decimal(21,9) not null default 0,
`fixed_deposit_number` varchar(140),
`amended_from` varchar(140),
`_user_tags` text,
`_comments` text,
`_assign` text,
`_liked_by` text,

			index modified(modified))
			ENGINE=InnoDB
			ROW_FORMAT=DYNAMIC
			CHARACTER SET=utf8mb4
			COLLATE=utf8mb4_unicode_ci
2023-08-24 22:46:05,951 WARNING database DDL Query made to DB:
create table `tabParty Account` (
			name varchar(140) primary key,
			creation datetime(6),
			modified datetime(6),
			modified_by varchar(140),
			owner varchar(140),
			docstatus int(1) not null default '0',
			idx int(8) not null default '0',
			`company` varchar(140),
`account` varchar(140),
parent varchar(140),
parentfield varchar(140),
parenttype varchar(140),
index parent(parent),

			index modified(modified))
			ENGINE=InnoDB
			ROW_FORMAT=DYNAMIC
			CHARACTER SET=utf8mb4
			COLLATE=utf8mb4_unicode_ci
2023-08-24 22:46:06,025 WARNING database DDL Query made to DB:
create table `tabBudget` (
			name varchar(140) primary key,
			creation datetime(6),
			modified datetime(6),
			modified_by varchar(140),
			owner varchar(140),
			docstatus int(1) not null default '0',
			idx int(8) not null default '0',
			`budget_against` varchar(140) default 'Cost Center',
`company` varchar(140),
`cost_center` varchar(140),
`naming_series` varchar(140),
`project` varchar(140),
`fiscal_year` varchar(140),
`monthly_distribution` varchar(140),
`amended_from` varchar(140),
`applicable_on_material_request` int(1) not null default 0,
`action_if_annual_budget_exceeded_on_mr` varchar(140) default 'Stop',
`action_if_accumulated_monthly_budget_exceeded_on_mr` varchar(140) default 'Warn',
`applicable_on_purchase_order` int(1) not null default 0,
`action_if_annual_budget_exceeded_on_po` varchar(140) default 'Stop',
`action_if_accumulated_monthly_budget_exceeded_on_po` varchar(140) default 'Warn',
`applicable_on_booking_actual_expenses` int(1) not null default 0,
`action_if_annual_budget_exceeded` varchar(140) default 'Stop',
`action_if_accumulated_monthly_budget_exceeded` varchar(140) default 'Warn',
`_user_tags` text,
`_comments` text,
`_assign` text,
`_liked_by` text,

			index modified(modified))
			ENGINE=InnoDB
			ROW_FORMAT=DYNAMIC
			CHARACTER SET=utf8mb4
			COLLATE=utf8mb4_unicode_ci
2023-08-24 22:46:06,092 WARNING database DDL Query made to DB:
create table `tabOpening Invoice Creation Tool Item` (
			name varchar(140) primary key,
			creation datetime(6),
			modified datetime(6),
			modified_by varchar(140),
			owner varchar(140),
			docstatus int(1) not null default '0',
			idx int(8) not null default '0',
			`invoice_number` varchar(140),
`party_type` varchar(140),
`party` varchar(140),
`temporary_opening_account` varchar(140),
`posting_date` date,
`due_date` date,
`item_name` varchar(140) default 'Opening Invoice Item',
`outstanding_amount` decimal(21,9) not null default 0,
`qty` varchar(140) default '1',
`cost_center` varchar(140),
parent varchar(140),
parentfield varchar(140),
parenttype varchar(140),
index parent(parent),

			index modified(modified))
			ENGINE=InnoDB
			ROW_FORMAT=DYNAMIC
			CHARACTER SET=utf8mb4
			COLLATE=utf8mb4_unicode_ci
2023-08-24 22:46:06,139 WARNING database DDL Query made to DB:
create table `tabTax Withholding Account` (
			name varchar(140) primary key,
			creation datetime(6),
			modified datetime(6),
			modified_by varchar(140),
			owner varchar(140),
			docstatus int(1) not null default '0',
			idx int(8) not null default '0',
			`company` varchar(140),
`account` varchar(140),
parent varchar(140),
parentfield varchar(140),
parenttype varchar(140),
index parent(parent),

			index modified(modified))
			ENGINE=InnoDB
			ROW_FORMAT=DYNAMIC
			CHARACTER SET=utf8mb4
			COLLATE=utf8mb4_unicode_ci
2023-08-24 22:46:06,233 WARNING database DDL Query made to DB:
create table `tabGL Entry` (
			name varchar(140) primary key,
			creation datetime(6),
			modified datetime(6),
			modified_by varchar(140),
			owner varchar(140),
			docstatus int(1) not null default '0',
			idx int(8) not null default '0',
			`posting_date` date,
`transaction_date` date,
`account` varchar(140),
`party_type` varchar(140),
`party` varchar(140),
`cost_center` varchar(140),
`debit` decimal(21,9) not null default 0,
`credit` decimal(21,9) not null default 0,
`account_currency` varchar(140),
`debit_in_account_currency` decimal(21,9) not null default 0,
`credit_in_account_currency` decimal(21,9) not null default 0,
`against` text,
`against_voucher_type` varchar(140),
`against_voucher` varchar(140),
`voucher_type` varchar(140),
`voucher_no` varchar(140),
`voucher_detail_no` varchar(140),
`project` varchar(140),
`remarks` text,
`is_opening` varchar(140),
`is_advance` varchar(140),
`fiscal_year` varchar(140),
`company` varchar(140),
`finance_book` varchar(140),
`to_rename` int(1) not null default 1,
`due_date` date,
`is_cancelled` int(1) not null default 0,
`_user_tags` text,
`_comments` text,
`_assign` text,
`_liked_by` text,
index `posting_date`(`posting_date`),
index `account`(`account`),
index `party_type`(`party_type`),
index `party`(`party`),
index `against_voucher_type`(`against_voucher_type`),
index `against_voucher`(`against_voucher`),
index `voucher_type`(`voucher_type`),
index `voucher_no`(`voucher_no`),
index `company`(`company`),
index `to_rename`(`to_rename`),

			index modified(modified))
			ENGINE=InnoDB
			ROW_FORMAT=DYNAMIC
			CHARACTER SET=utf8mb4
			COLLATE=utf8mb4_unicode_ci
2023-08-24 22:46:06,270 WARNING database DDL Query made to DB:
ALTER TABLE `tabGL Entry`
				ADD INDEX `against_voucher_type_against_voucher_index`(against_voucher_type, against_voucher)
2023-08-24 22:46:06,289 WARNING database DDL Query made to DB:
ALTER TABLE `tabGL Entry`
				ADD INDEX `voucher_type_voucher_no_index`(voucher_type, voucher_no)
2023-08-24 22:46:06,379 WARNING database DDL Query made to DB:
create table `tabPayment Request` (
			name varchar(140) primary key,
			creation datetime(6),
			modified datetime(6),
			modified_by varchar(140),
			owner varchar(140),
			docstatus int(1) not null default '0',
			idx int(8) not null default '0',
			`payment_request_type` varchar(140) default 'Inward',
`transaction_date` date,
`naming_series` varchar(140),
`mode_of_payment` varchar(140),
`party_type` varchar(140),
`party` varchar(140),
`reference_doctype` varchar(140),
`reference_name` varchar(140),
`grand_total` decimal(21,9) not null default 0,
`is_a_subscription` int(1) not null default 0,
`currency` varchar(140),
`bank_account` varchar(140),
`bank` varchar(140),
`bank_account_no` varchar(140),
`account` varchar(140),
`iban` varchar(140),
`branch_code` varchar(140),
`swift_number` varchar(140),
`cost_center` varchar(140),
`project` varchar(140),
`print_format` varchar(140),
`email_to` varchar(140),
`subject` varchar(140),
`payment_gateway_account` varchar(140),
`status` varchar(140) default 'Draft',
`make_sales_invoice` int(1) not null default 0,
`message` text,
`mute_email` int(1) not null default 0,
`payment_url` text,
`payment_gateway` varchar(140),
`payment_account` varchar(140),
`payment_channel` varchar(140),
`payment_order` varchar(140),
`amended_from` varchar(140),
`_user_tags` text,
`_comments` text,
`_assign` text,
`_liked_by` text,

			index modified(modified))
			ENGINE=InnoDB
			ROW_FORMAT=DYNAMIC
			CHARACTER SET=utf8mb4
			COLLATE=utf8mb4_unicode_ci
2023-08-24 22:46:06,517 WARNING database DDL Query made to DB:
create table `tabItem Tax Template Detail` (
			name varchar(140) primary key,
			creation datetime(6),
			modified datetime(6),
			modified_by varchar(140),
			owner varchar(140),
			docstatus int(1) not null default '0',
			idx int(8) not null default '0',
			`tax_type` varchar(140),
`tax_rate` decimal(21,9) not null default 0,
parent varchar(140),
parentfield varchar(140),
parenttype varchar(140),
index parent(parent),

			index modified(modified))
			ENGINE=InnoDB
			ROW_FORMAT=DYNAMIC
			CHARACTER SET=utf8mb4
			COLLATE=utf8mb4_unicode_ci
2023-08-24 22:46:06,590 WARNING database DDL Query made to DB:
create table `tabPromotional Scheme Product Discount` (
			name varchar(140) primary key,
			creation datetime(6),
			modified datetime(6),
			modified_by varchar(140),
			owner varchar(140),
			docstatus int(1) not null default '0',
			idx int(8) not null default '0',
			`disable` int(1) not null default 0,
`apply_multiple_pricing_rules` int(1) not null default 0,
`rule_description` text,
`min_qty` decimal(21,9) not null default 0,
`max_qty` decimal(21,9) not null default 0,
`min_amount` decimal(21,9) not null default 0,
`max_amount` decimal(21,9) not null default 0,
`same_item` int(1) not null default 0,
`free_item` varchar(140),
`free_qty` decimal(21,9) not null default 0,
`free_item_uom` varchar(140),
`free_item_rate` decimal(21,9) not null default 0,
`warehouse` varchar(140),
`threshold_percentage` decimal(21,9) not null default 0,
`priority` varchar(140),
`is_recursive` int(1) not null default 0,
parent varchar(140),
parentfield varchar(140),
parenttype varchar(140),
index parent(parent),

			index modified(modified))
			ENGINE=InnoDB
			ROW_FORMAT=DYNAMIC
			CHARACTER SET=utf8mb4
			COLLATE=utf8mb4_unicode_ci
2023-08-24 22:46:06,648 WARNING database DDL Query made to DB:
create table `tabPayment Order Reference` (
			name varchar(140) primary key,
			creation datetime(6),
			modified datetime(6),
			modified_by varchar(140),
			owner varchar(140),
			docstatus int(1) not null default '0',
			idx int(8) not null default '0',
			`reference_doctype` varchar(140),
`reference_name` varchar(140),
`amount` decimal(21,9) not null default 0,
`supplier` varchar(140),
`payment_request` varchar(140),
`mode_of_payment` varchar(140),
`bank_account` varchar(140),
`account` varchar(140),
`payment_reference` varchar(140),
parent varchar(140),
parentfield varchar(140),
parenttype varchar(140),
index parent(parent),

			index modified(modified))
			ENGINE=InnoDB
			ROW_FORMAT=DYNAMIC
			CHARACTER SET=utf8mb4
			COLLATE=utf8mb4_unicode_ci
2023-08-24 22:46:06,695 WARNING database DDL Query made to DB:
create table `tabCost Center Allocation Percentage` (
			name varchar(140) primary key,
			creation datetime(6),
			modified datetime(6),
			modified_by varchar(140),
			owner varchar(140),
			docstatus int(1) not null default '0',
			idx int(8) not null default '0',
			`cost_center` varchar(140),
`percentage` decimal(21,9) not null default 0,
parent varchar(140),
parentfield varchar(140),
parenttype varchar(140),
index parent(parent),

			index modified(modified))
			ENGINE=InnoDB
			ROW_FORMAT=DYNAMIC
			CHARACTER SET=utf8mb4
			COLLATE=utf8mb4_unicode_ci
2023-08-24 22:46:06,766 WARNING database DDL Query made to DB:
create table `tabInvoice Discounting` (
			name varchar(140) primary key,
			creation datetime(6),
			modified datetime(6),
			modified_by varchar(140),
			owner varchar(140),
			docstatus int(1) not null default '0',
			idx int(8) not null default '0',
			`posting_date` date,
`loan_start_date` date,
`loan_period` int(11) not null default 0,
`loan_end_date` date,
`status` varchar(140),
`company` varchar(140),
`total_amount` decimal(21,9) not null default 0,
`bank_charges` decimal(21,9) not null default 0,
`short_term_loan` varchar(140),
`bank_account` varchar(140),
`bank_charges_account` varchar(140),
`accounts_receivable_credit` varchar(140),
`accounts_receivable_discounted` varchar(140),
`accounts_receivable_unpaid` varchar(140),
`amended_from` varchar(140),
`_user_tags` text,
`_comments` text,
`_assign` text,
`_liked_by` text,

			index modified(modified))
			ENGINE=InnoDB
			ROW_FORMAT=DYNAMIC
			CHARACTER SET=utf8mb4
			COLLATE=utf8mb4_unicode_ci
2023-08-24 22:46:06,866 WARNING database DDL Query made to DB:
create table `tabDunning` (
			name varchar(140) primary key,
			creation datetime(6),
			modified datetime(6),
			modified_by varchar(140),
			owner varchar(140),
			docstatus int(1) not null default '0',
			idx int(8) not null default '0',
			`title` varchar(140) default '{customer_name}',
`naming_series` varchar(140) default 'DUNN-.MM.-.YY.-',
`sales_invoice` varchar(140),
`customer` varchar(140),
`customer_name` varchar(140),
`outstanding_amount` decimal(21,9) not null default 0,
`currency` varchar(140),
`conversion_rate` decimal(21,9) not null default 0,
`company` varchar(140),
`posting_date` date,
`posting_time` time(6),
`due_date` date,
`overdue_days` int(11) not null default 0,
`address_display` text,
`contact_display` text,
`contact_mobile` text,
`contact_email` varchar(140),
`company_address_display` text,
`dunning_type` varchar(140),
`dunning_fee` decimal(21,9) not null default 0,
`rate_of_interest` decimal(21,9) not null default 0,
`interest_amount` decimal(21,9) not null default 0,
`dunning_amount` decimal(21,9) not null default 0,
`grand_total` decimal(21,9) not null default 0,
`income_account` varchar(140),
`status` varchar(140) default 'Unresolved',
`language` varchar(140),
`body_text` longtext,
`letter_head` varchar(140),
`closing_text` longtext,
`amended_from` varchar(140),
`_user_tags` text,
`_comments` text,
`_assign` text,
`_liked_by` text,

			index modified(modified))
			ENGINE=InnoDB
			ROW_FORMAT=DYNAMIC
			CHARACTER SET=utf8mb4
			COLLATE=utf8mb4_unicode_ci
2023-08-24 22:46:06,930 WARNING database DDL Query made to DB:
create table `tabSupplier Group Item` (
			name varchar(140) primary key,
			creation datetime(6),
			modified datetime(6),
			modified_by varchar(140),
			owner varchar(140),
			docstatus int(1) not null default '0',
			idx int(8) not null default '0',
			`supplier_group` varchar(140),
parent varchar(140),
parentfield varchar(140),
parenttype varchar(140),
index parent(parent),

			index modified(modified))
			ENGINE=InnoDB
			ROW_FORMAT=DYNAMIC
			CHARACTER SET=utf8mb4
			COLLATE=utf8mb4_unicode_ci
2023-08-24 22:46:07,000 WARNING database DDL Query made to DB:
create table `tabCost Center` (
			name varchar(140) primary key,
			creation datetime(6),
			modified datetime(6),
			modified_by varchar(140),
			owner varchar(140),
			docstatus int(1) not null default '0',
			idx int(8) not null default '0',
			`cost_center_name` varchar(140),
`cost_center_number` varchar(140),
`parent_cost_center` varchar(140),
`company` varchar(140),
`is_group` int(1) not null default 0,
`disabled` int(1) not null default 0,
`lft` int(11) not null default 0,
`rgt` int(11) not null default 0,
`old_parent` varchar(140),
`_user_tags` text,
`_comments` text,
`_assign` text,
`_liked_by` text,
index `lft`(`lft`),
index `rgt`(`rgt`),

			index modified(modified))
			ENGINE=InnoDB
			ROW_FORMAT=DYNAMIC
			CHARACTER SET=utf8mb4
			COLLATE=utf8mb4_unicode_ci
2023-08-24 22:46:07,042 WARNING database DDL Query made to DB:
ALTER TABLE `tabCost Center`
				ADD INDEX `lft_rgt_index`(lft, rgt)
2023-08-24 22:46:07,103 WARNING database DDL Query made to DB:
create table `tabPeriod Closing Voucher` (
			name varchar(140) primary key,
			creation datetime(6),
			modified datetime(6),
			modified_by varchar(140),
			owner varchar(140),
			docstatus int(1) not null default '0',
			idx int(8) not null default '0',
			`transaction_date` date,
`posting_date` date,
`fiscal_year` varchar(140),
`amended_from` varchar(140),
`company` varchar(140),
`closing_account_head` varchar(140),
`remarks` text,
`gle_processing_status` varchar(140),
`error_message` text,
`_user_tags` text,
`_comments` text,
`_assign` text,
`_liked_by` text,

			index modified(modified))
			ENGINE=InnoDB
			ROW_FORMAT=DYNAMIC
			CHARACTER SET=utf8mb4
			COLLATE=utf8mb4_unicode_ci
2023-08-24 22:46:07,158 WARNING database DDL Query made to DB:
create table `tabPOS Customer Group` (
			name varchar(140) primary key,
			creation datetime(6),
			modified datetime(6),
			modified_by varchar(140),
			owner varchar(140),
			docstatus int(1) not null default '0',
			idx int(8) not null default '0',
			`customer_group` varchar(140),
parent varchar(140),
parentfield varchar(140),
parenttype varchar(140),
index parent(parent),

			index modified(modified))
			ENGINE=InnoDB
			ROW_FORMAT=DYNAMIC
			CHARACTER SET=utf8mb4
			COLLATE=utf8mb4_unicode_ci
2023-08-24 22:46:07,318 WARNING database DDL Query made to DB:
create table `tabSales Invoice Item` (
			name varchar(140) primary key,
			creation datetime(6),
			modified datetime(6),
			modified_by varchar(140),
			owner varchar(140),
			docstatus int(1) not null default '0',
			idx int(8) not null default '0',
			`barcode` varchar(140),
`has_item_scanned` int(1) not null default 0,
`item_code` varchar(140),
`item_name` varchar(140),
`customer_item_code` varchar(140),
`description` longtext,
`item_group` varchar(140),
`brand` varchar(140),
`image` text,
`qty` decimal(21,9) not null default 0,
`stock_uom` varchar(140),
`uom` varchar(140),
`conversion_factor` decimal(21,9) not null default 0,
`stock_qty` decimal(21,9) not null default 0,
`price_list_rate` decimal(21,9) not null default 0,
`base_price_list_rate` decimal(21,9) not null default 0,
`margin_type` varchar(140),
`margin_rate_or_amount` decimal(21,9) not null default 0,
`rate_with_margin` decimal(21,9) not null default 0,
`discount_percentage` decimal(21,9) not null default 0,
`discount_amount` decimal(21,9) not null default 0,
`base_rate_with_margin` decimal(21,9) not null default 0,
`rate` decimal(21,9) not null default 0,
`amount` decimal(21,9) not null default 0,
`item_tax_template` varchar(140),
`base_rate` decimal(21,9) not null default 0,
`base_amount` decimal(21,9) not null default 0,
`pricing_rules` text,
`stock_uom_rate` decimal(21,9) not null default 0,
`is_free_item` int(1) not null default 0,
`grant_commission` int(1) not null default 0,
`net_rate` decimal(21,9) not null default 0,
`net_amount` decimal(21,9) not null default 0,
`base_net_rate` decimal(21,9) not null default 0,
`base_net_amount` decimal(21,9) not null default 0,
`delivered_by_supplier` int(1) not null default 0,
`income_account` varchar(140),
`is_fixed_asset` int(1) not null default 0,
`asset` varchar(140),
`finance_book` varchar(140),
`expense_account` varchar(140),
`discount_account` varchar(140),
`deferred_revenue_account` varchar(140),
`service_stop_date` date,
`enable_deferred_revenue` int(1) not null default 0,
`service_start_date` date,
`service_end_date` date,
`weight_per_unit` decimal(21,9) not null default 0,
`total_weight` decimal(21,9) not null default 0,
`weight_uom` varchar(140),
`warehouse` varchar(140),
`target_warehouse` varchar(140),
`quality_inspection` varchar(140),
`batch_no` varchar(140),
`incoming_rate` decimal(21,9) not null default 0,
`allow_zero_valuation_rate` int(1) not null default 0,
`serial_no` text,
`item_tax_rate` text,
`actual_batch_qty` decimal(21,9) not null default 0,
`actual_qty` decimal(21,9) not null default 0,
`sales_order` varchar(140),
`so_detail` varchar(140),
`sales_invoice_item` varchar(140),
`delivery_note` varchar(140),
`dn_detail` varchar(140),
`delivered_qty` decimal(21,9) not null default 0,
`purchase_order` varchar(140),
`purchase_order_item` varchar(140),
`cost_center` varchar(140),
`project` varchar(140),
`page_break` int(1) not null default 0,
index `item_code`(`item_code`),
index `batch_no`(`batch_no`),
index `sales_order`(`sales_order`),
index `so_detail`(`so_detail`),
index `delivery_note`(`delivery_note`),
index `dn_detail`(`dn_detail`),
parent varchar(140),
parentfield varchar(140),
parenttype varchar(140),
index parent(parent),

			index modified(modified))
			ENGINE=InnoDB
			ROW_FORMAT=DYNAMIC
			CHARACTER SET=utf8mb4
			COLLATE=utf8mb4_unicode_ci
2023-08-24 22:46:07,373 WARNING database DDL Query made to DB:
create table `tabPOS Item Group` (
			name varchar(140) primary key,
			creation datetime(6),
			modified datetime(6),
			modified_by varchar(140),
			owner varchar(140),
			docstatus int(1) not null default '0',
			idx int(8) not null default '0',
			`item_group` varchar(140),
parent varchar(140),
parentfield varchar(140),
parenttype varchar(140),
index parent(parent),

			index modified(modified))
			ENGINE=InnoDB
			ROW_FORMAT=DYNAMIC
			CHARACTER SET=utf8mb4
			COLLATE=utf8mb4_unicode_ci
2023-08-24 22:46:07,450 WARNING database DDL Query made to DB:
create table `tabBank Statement Import` (
			name varchar(140) primary key,
			creation datetime(6),
			modified datetime(6),
			modified_by varchar(140),
			owner varchar(140),
			docstatus int(1) not null default '0',
			idx int(8) not null default '0',
			`company` varchar(140),
`bank_account` varchar(140),
`bank` varchar(140),
`google_sheets_url` varchar(140),
`import_file` text,
`status` varchar(140) default 'Pending',
`template_options` longtext,
`template_warnings` longtext,
`statement_import_log` longtext,
`show_failed_logs` int(1) not null default 0,
`reference_doctype` varchar(140) default 'Bank Transaction',
`import_type` varchar(140) default 'Insert New Records',
`submit_after_import` int(1) not null default 1,
`mute_emails` int(1) not null default 1,
`_user_tags` text,
`_comments` text,
`_assign` text,
`_liked_by` text,

			index modified(modified))
			ENGINE=InnoDB
			ROW_FORMAT=DYNAMIC
			CHARACTER SET=utf8mb4
			COLLATE=utf8mb4_unicode_ci
2023-08-24 22:46:07,511 WARNING database DDL Query made to DB:
create table `tabPayment Reconciliation Invoice` (
			name varchar(140) primary key,
			creation datetime(6),
			modified datetime(6),
			modified_by varchar(140),
			owner varchar(140),
			docstatus int(1) not null default '0',
			idx int(8) not null default '0',
			`invoice_type` varchar(140),
`invoice_number` varchar(140),
`invoice_date` date,
`amount` decimal(21,9) not null default 0,
`outstanding_amount` decimal(21,9) not null default 0,
`currency` varchar(140),
`exchange_rate` decimal(21,9) not null default 0,
parent varchar(140),
parentfield varchar(140),
parenttype varchar(140),
index parent(parent),

			index modified(modified))
			ENGINE=InnoDB
			ROW_FORMAT=DYNAMIC
			CHARACTER SET=utf8mb4
			COLLATE=utf8mb4_unicode_ci
2023-08-24 22:46:07,563 WARNING database DDL Query made to DB:
create table `tabTax Category` (
			name varchar(140) primary key,
			creation datetime(6),
			modified datetime(6),
			modified_by varchar(140),
			owner varchar(140),
			docstatus int(1) not null default '0',
			idx int(8) not null default '0',
			`title` varchar(140) unique,
`disabled` int(1) not null default 0,
`_user_tags` text,
`_comments` text,
`_assign` text,
`_liked_by` text,

			index modified(modified))
			ENGINE=InnoDB
			ROW_FORMAT=DYNAMIC
			CHARACTER SET=utf8mb4
			COLLATE=utf8mb4_unicode_ci
2023-08-24 22:46:07,627 WARNING database DDL Query made to DB:
create table `tabLedger Merge Accounts` (
			name varchar(140) primary key,
			creation datetime(6),
			modified datetime(6),
			modified_by varchar(140),
			owner varchar(140),
			docstatus int(1) not null default '0',
			idx int(8) not null default '0',
			`account` varchar(140),
`account_name` varchar(140),
`merged` int(1) not null default 0,
parent varchar(140),
parentfield varchar(140),
parenttype varchar(140),
index parent(parent),

			index modified(modified))
			ENGINE=InnoDB
			ROW_FORMAT=DYNAMIC
			CHARACTER SET=utf8mb4
			COLLATE=utf8mb4_unicode_ci
2023-08-24 22:46:07,711 WARNING database DDL Query made to DB:
create table `tabProcess Deferred Accounting` (
			name varchar(140) primary key,
			creation datetime(6),
			modified datetime(6),
			modified_by varchar(140),
			owner varchar(140),
			docstatus int(1) not null default '0',
			idx int(8) not null default '0',
			`company` varchar(140),
`type` varchar(140),
`account` varchar(140),
`posting_date` date,
`start_date` date,
`end_date` date,
`amended_from` varchar(140),
`_user_tags` text,
`_comments` text,
`_assign` text,
`_liked_by` text,

			index modified(modified))
			ENGINE=InnoDB
			ROW_FORMAT=DYNAMIC
			CHARACTER SET=utf8mb4
			COLLATE=utf8mb4_unicode_ci
2023-08-24 22:46:07,903 WARNING database DDL Query made to DB:
create table `tabPOS Invoice Reference` (
			name varchar(140) primary key,
			creation datetime(6),
			modified datetime(6),
			modified_by varchar(140),
			owner varchar(140),
			docstatus int(1) not null default '0',
			idx int(8) not null default '0',
			`pos_invoice` varchar(140),
`posting_date` date,
`customer` varchar(140),
`grand_total` decimal(21,9) not null default 0,
`is_return` int(1) not null default 0,
`return_against` varchar(140),
parent varchar(140),
parentfield varchar(140),
parenttype varchar(140),
index parent(parent),

			index modified(modified))
			ENGINE=InnoDB
			ROW_FORMAT=DYNAMIC
			CHARACTER SET=utf8mb4
			COLLATE=utf8mb4_unicode_ci
2023-08-24 22:46:08,030 WARNING database DDL Query made to DB:
create table `tabCheque Print Template` (
			name varchar(140) primary key,
			creation datetime(6),
			modified datetime(6),
			modified_by varchar(140),
			owner varchar(140),
			docstatus int(1) not null default '0',
			idx int(8) not null default '0',
			`has_print_format` int(1) not null default 0,
`bank_name` varchar(140),
`cheque_size` varchar(140) default 'Regular',
`starting_position_from_top_edge` decimal(21,9) not null default 0,
`cheque_width` decimal(21,9) not null default 20.0,
`cheque_height` decimal(21,9) not null default 9.0,
`scanned_cheque` text,
`is_account_payable` int(1) not null default 1,
`acc_pay_dist_from_top_edge` decimal(21,9) not null default 1.0,
`acc_pay_dist_from_left_edge` decimal(21,9) not null default 9.0,
`message_to_show` varchar(140) default 'Acc. Payee',
`date_dist_from_top_edge` decimal(21,9) not null default 1.0,
`date_dist_from_left_edge` decimal(21,9) not null default 15.0,
`payer_name_from_top_edge` decimal(21,9) not null default 2.0,
`payer_name_from_left_edge` decimal(21,9) not null default 3.0,
`amt_in_words_from_top_edge` decimal(21,9) not null default 3.0,
`amt_in_words_from_left_edge` decimal(21,9) not null default 4.0,
`amt_in_word_width` decimal(21,9) not null default 15.0,
`amt_in_words_line_spacing` decimal(21,9) not null default 0.5,
`amt_in_figures_from_top_edge` decimal(21,9) not null default 3.5,
`amt_in_figures_from_left_edge` decimal(21,9) not null default 16.0,
`acc_no_dist_from_top_edge` decimal(21,9) not null default 5.0,
`acc_no_dist_from_left_edge` decimal(21,9) not null default 4.0,
`signatory_from_top_edge` decimal(21,9) not null default 6.0,
`signatory_from_left_edge` decimal(21,9) not null default 15.0,
`_user_tags` text,
`_comments` text,
`_assign` text,
`_liked_by` text,

			index modified(modified))
			ENGINE=InnoDB
			ROW_FORMAT=DYNAMIC
			CHARACTER SET=utf8mb4
			COLLATE=utf8mb4_unicode_ci
2023-08-24 22:46:08,093 WARNING database DDL Query made to DB:
create table `tabPurchase Invoice Advance` (
			name varchar(140) primary key,
			creation datetime(6),
			modified datetime(6),
			modified_by varchar(140),
			owner varchar(140),
			docstatus int(1) not null default '0',
			idx int(8) not null default '0',
			`reference_type` varchar(140),
`reference_name` varchar(140),
`remarks` text,
`reference_row` varchar(140),
`advance_amount` decimal(21,9) not null default 0,
`allocated_amount` decimal(21,9) not null default 0,
`exchange_gain_loss` decimal(21,9) not null default 0,
`ref_exchange_rate` decimal(21,9) not null default 0,
parent varchar(140),
parentfield varchar(140),
parenttype varchar(140),
index parent(parent),

			index modified(modified))
			ENGINE=InnoDB
			ROW_FORMAT=DYNAMIC
			CHARACTER SET=utf8mb4
			COLLATE=utf8mb4_unicode_ci
2023-08-24 22:46:08,148 WARNING database DDL Query made to DB:
create table `tabMonthly Distribution Percentage` (
			name varchar(140) primary key,
			creation datetime(6),
			modified datetime(6),
			modified_by varchar(140),
			owner varchar(140),
			docstatus int(1) not null default '0',
			idx int(8) not null default '0',
			`month` varchar(140),
`percentage_allocation` decimal(21,9) not null default 0,
parent varchar(140),
parentfield varchar(140),
parenttype varchar(140),
index parent(parent),

			index modified(modified))
			ENGINE=InnoDB
			ROW_FORMAT=DYNAMIC
			CHARACTER SET=utf8mb4
			COLLATE=utf8mb4_unicode_ci
2023-08-24 22:46:08,235 WARNING database DDL Query made to DB:
create table `tabPromotional Scheme` (
			name varchar(140) primary key,
			creation datetime(6),
			modified datetime(6),
			modified_by varchar(140),
			owner varchar(140),
			docstatus int(1) not null default '0',
			idx int(8) not null default '0',
			`apply_on` varchar(140) default 'Item Code',
`disable` int(1) not null default 0,
`mixed_conditions` int(1) not null default 0,
`is_cumulative` int(1) not null default 0,
`apply_rule_on_other` varchar(140),
`other_item_code` varchar(140),
`other_item_group` varchar(140),
`other_brand` varchar(140),
`selling` int(1) not null default 0,
`buying` int(1) not null default 0,
`applicable_for` varchar(140),
`valid_from` date,
`valid_upto` date,
`company` varchar(140),
`currency` varchar(140),
`_user_tags` text,
`_comments` text,
`_assign` text,
`_liked_by` text,

			index modified(modified))
			ENGINE=InnoDB
			ROW_FORMAT=DYNAMIC
			CHARACTER SET=utf8mb4
			COLLATE=utf8mb4_unicode_ci
2023-08-24 22:46:08,352 WARNING database DDL Query made to DB:
create table `tabProcess Statement Of Accounts` (
			name varchar(140) primary key,
			creation datetime(6),
			modified datetime(6),
			modified_by varchar(140),
			owner varchar(140),
			docstatus int(1) not null default '0',
			idx int(8) not null default '0',
			`report` varchar(140),
`from_date` date,
`posting_date` date,
`company` varchar(140),
`account` varchar(140),
`group_by` varchar(140) default 'Group by Voucher (Consolidated)',
`territory` varchar(140),
`to_date` date,
`finance_book` varchar(140),
`currency` varchar(140),
`payment_terms_template` varchar(140),
`sales_partner` varchar(140),
`sales_person` varchar(140),
`based_on_payment_terms` int(1) not null default 0,
`customer_collection` varchar(140),
`collection_name` varchar(140),
`primary_mandatory` int(1) not null default 1,
`orientation` varchar(140),
`include_ageing` int(1) not null default 0,
`ageing_based_on` varchar(140) default 'Due Date',
`letter_head` varchar(140),
`terms_and_conditions` varchar(140),
`enable_auto_email` int(1) not null default 0,
`sender` varchar(140),
`frequency` varchar(140),
`filter_duration` int(11) not null default 1,
`start_date` date,
`subject` varchar(140),
`cc_to` varchar(140),
`body` longtext,
`include_break` int(1) not null default 1,
`show_net_values_in_party_account` int(1) not null default 0,
`_user_tags` text,
`_comments` text,
`_assign` text,
`_liked_by` text,

			index modified(modified))
			ENGINE=InnoDB
			ROW_FORMAT=DYNAMIC
			CHARACTER SET=utf8mb4
			COLLATE=utf8mb4_unicode_ci
2023-08-24 22:46:08,659 WARNING database DDL Query made to DB:
create table `tabPOS Invoice` (
			name varchar(140) primary key,
			creation datetime(6),
			modified datetime(6),
			modified_by varchar(140),
			owner varchar(140),
			docstatus int(1) not null default '0',
			idx int(8) not null default '0',
			`title` varchar(140) default '{customer_name}',
`naming_series` varchar(140),
`customer` varchar(140),
`customer_name` varchar(140),
`tax_id` varchar(140),
`pos_profile` varchar(140),
`consolidated_invoice` varchar(140),
`is_pos` int(1) not null default 1,
`is_return` int(1) not null default 0,
`update_billed_amount_in_sales_order` int(1) not null default 0,
`company` varchar(140),
`posting_date` date,
`posting_time` time(6),
`set_posting_time` int(1) not null default 0,
`due_date` date,
`amended_from` varchar(140),
`return_against` varchar(140),
`project` varchar(140),
`cost_center` varchar(140),
`po_no` varchar(140),
`po_date` date,
`customer_address` varchar(140),
`address_display` text,
`contact_person` varchar(140),
`contact_display` text,
`contact_mobile` varchar(140),
`contact_email` varchar(140),
`territory` varchar(140),
`shipping_address_name` varchar(140),
`shipping_address` text,
`company_address` varchar(140),
`company_address_display` text,
`currency` varchar(140),
`conversion_rate` decimal(21,9) not null default 0,
`selling_price_list` varchar(140),
`price_list_currency` varchar(140),
`plc_conversion_rate` decimal(21,9) not null default 0,
`ignore_pricing_rule` int(1) not null default 0,
`set_warehouse` varchar(140),
`update_stock` int(1) not null default 0,
`scan_barcode` varchar(140),
`total_billing_amount` decimal(21,9) not null default 0,
`total_qty` decimal(21,9) not null default 0,
`base_total` decimal(21,9) not null default 0,
`base_net_total` decimal(21,9) not null default 0,
`total` decimal(21,9) not null default 0,
`net_total` decimal(21,9) not null default 0,
`total_net_weight` decimal(21,9) not null default 0,
`taxes_and_charges` varchar(140),
`shipping_rule` varchar(140),
`tax_category` varchar(140),
`other_charges_calculation` longtext,
`base_total_taxes_and_charges` decimal(21,9) not null default 0,
`total_taxes_and_charges` decimal(21,9) not null default 0,
`loyalty_points` int(11) not null default 0,
`loyalty_amount` decimal(21,9) not null default 0,
`redeem_loyalty_points` int(1) not null default 0,
`loyalty_program` varchar(140),
`loyalty_redemption_account` varchar(140),
`loyalty_redemption_cost_center` varchar(140),
`coupon_code` varchar(140),
`apply_discount_on` varchar(140) default 'Grand Total',
`base_discount_amount` decimal(21,9) not null default 0,
`additional_discount_percentage` decimal(21,9) not null default 0,
`discount_amount` decimal(21,9) not null default 0,
`base_grand_total` decimal(21,9) not null default 0,
`base_rounding_adjustment` decimal(21,9) not null default 0,
`base_rounded_total` decimal(21,9) not null default 0,
`base_in_words` varchar(140),
`grand_total` decimal(21,9) not null default 0,
`rounding_adjustment` decimal(21,9) not null default 0,
`rounded_total` decimal(21,9) not null default 0,
`in_words` varchar(140),
`total_advance` decimal(21,9) not null default 0,
`outstanding_amount` decimal(21,9) not null default 0,
`allocate_advances_automatically` int(1) not null default 0,
`payment_terms_template` varchar(140),
`cash_bank_account` varchar(140),
`base_paid_amount` decimal(21,9) not null default 0,
`paid_amount` decimal(21,9) not null default 0,
`base_change_amount` decimal(21,9) not null default 0,
`change_amount` decimal(21,9) not null default 0,
`account_for_change_amount` varchar(140),
`write_off_amount` decimal(21,9) not null default 0,
`base_write_off_amount` decimal(21,9) not null default 0,
`write_off_outstanding_amount_automatically` int(1) not null default 0,
`write_off_account` varchar(140),
`write_off_cost_center` varchar(140),
`tc_name` varchar(140),
`terms` longtext,
`letter_head` varchar(140),
`group_same_items` int(1) not null default 0,
`language` varchar(140),
`select_print_heading` varchar(140),
`inter_company_invoice_reference` varchar(140),
`customer_group` varchar(140),
`campaign` varchar(140),
`is_discounted` int(1) not null default 0,
`status` varchar(140) default 'Draft',
`source` varchar(140),
`debit_to` varchar(140),
`party_account_currency` varchar(140),
`is_opening` varchar(140) default 'No',
`remarks` text,
`sales_partner` varchar(140),
`amount_eligible_for_commission` decimal(21,9) not null default 0,
`commission_rate` decimal(21,9) not null default 0,
`total_commission` decimal(21,9) not null default 0,
`from_date` date,
`to_date` date,
`auto_repeat` varchar(140),
`against_income_account` text,
`_user_tags` text,
`_comments` text,
`_assign` text,
`_liked_by` text,
`_seen` text,
index `customer`(`customer`),
index `posting_date`(`posting_date`),
index `return_against`(`return_against`),
index `debit_to`(`debit_to`),

			index modified(modified))
			ENGINE=InnoDB
			ROW_FORMAT=DYNAMIC
			CHARACTER SET=utf8mb4
			COLLATE=utf8mb4_unicode_ci
2023-08-24 22:46:08,751 WARNING database DDL Query made to DB:
create table `tabDiscounted Invoice` (
			name varchar(140) primary key,
			creation datetime(6),
			modified datetime(6),
			modified_by varchar(140),
			owner varchar(140),
			docstatus int(1) not null default '0',
			idx int(8) not null default '0',
			`sales_invoice` varchar(140),
`customer` varchar(140),
`posting_date` date,
`outstanding_amount` decimal(21,9) not null default 0,
`debit_to` varchar(140),
index `sales_invoice`(`sales_invoice`),
parent varchar(140),
parentfield varchar(140),
parenttype varchar(140),
index parent(parent),

			index modified(modified))
			ENGINE=InnoDB
			ROW_FORMAT=DYNAMIC
			CHARACTER SET=utf8mb4
			COLLATE=utf8mb4_unicode_ci
2023-08-24 22:46:08,813 WARNING database DDL Query made to DB:
create table `tabPayment Gateway Account` (
			name varchar(140) primary key,
			creation datetime(6),
			modified datetime(6),
			modified_by varchar(140),
			owner varchar(140),
			docstatus int(1) not null default '0',
			idx int(8) not null default '0',
			`payment_gateway` varchar(140),
`payment_channel` varchar(140) default 'Email',
`is_default` int(1) not null default 0,
`payment_account` varchar(140),
`currency` varchar(140),
`message` text default 'Please click on the link below to make your payment',
`_user_tags` text,
`_comments` text,
`_assign` text,
`_liked_by` text,

			index modified(modified))
			ENGINE=InnoDB
			ROW_FORMAT=DYNAMIC
			CHARACTER SET=utf8mb4
			COLLATE=utf8mb4_unicode_ci
2023-08-24 22:46:08,864 WARNING database DDL Query made to DB:
create table `tabClosed Document` (
			name varchar(140) primary key,
			creation datetime(6),
			modified datetime(6),
			modified_by varchar(140),
			owner varchar(140),
			docstatus int(1) not null default '0',
			idx int(8) not null default '0',
			`document_type` varchar(140),
`closed` int(1) not null default 0,
parent varchar(140),
parentfield varchar(140),
parenttype varchar(140),
index parent(parent),

			index modified(modified))
			ENGINE=InnoDB
			ROW_FORMAT=DYNAMIC
			CHARACTER SET=utf8mb4
			COLLATE=utf8mb4_unicode_ci
2023-08-24 22:46:08,918 WARNING database DDL Query made to DB:
create table `tabPOS Closing Entry Taxes` (
			name varchar(140) primary key,
			creation datetime(6),
			modified datetime(6),
			modified_by varchar(140),
			owner varchar(140),
			docstatus int(1) not null default '0',
			idx int(8) not null default '0',
			`account_head` varchar(140),
`rate` decimal(21,9) not null default 0,
`amount` decimal(21,9) not null default 0,
parent varchar(140),
parentfield varchar(140),
parenttype varchar(140),
index parent(parent),

			index modified(modified))
			ENGINE=InnoDB
			ROW_FORMAT=DYNAMIC
			CHARACTER SET=utf8mb4
			COLLATE=utf8mb4_unicode_ci
2023-08-24 22:46:08,971 WARNING database DDL Query made to DB:
create table `tabRepost Accounting Ledger Items` (
			name varchar(140) primary key,
			creation datetime(6),
			modified datetime(6),
			modified_by varchar(140),
			owner varchar(140),
			docstatus int(1) not null default '0',
			idx int(8) not null default '0',
			`voucher_type` varchar(140),
`voucher_no` varchar(140),
parent varchar(140),
parentfield varchar(140),
parenttype varchar(140),
index parent(parent),

			index modified(modified))
			ENGINE=InnoDB
			ROW_FORMAT=DYNAMIC
			CHARACTER SET=utf8mb4
			COLLATE=utf8mb4_unicode_ci
2023-08-24 22:46:09,026 WARNING database DDL Query made to DB:
create table `tabShare Balance` (
			name varchar(140) primary key,
			creation datetime(6),
			modified datetime(6),
			modified_by varchar(140),
			owner varchar(140),
			docstatus int(1) not null default '0',
			idx int(8) not null default '0',
			`share_type` varchar(140),
`from_no` int(11) not null default 0,
`rate` int(11) not null default 0,
`no_of_shares` int(11) not null default 0,
`to_no` int(11) not null default 0,
`amount` int(11) not null default 0,
`is_company` int(1) not null default 0,
`current_state` varchar(140),
parent varchar(140),
parentfield varchar(140),
parenttype varchar(140),
index parent(parent),

			index modified(modified))
			ENGINE=InnoDB
			ROW_FORMAT=DYNAMIC
			CHARACTER SET=utf8mb4
			COLLATE=utf8mb4_unicode_ci
2023-08-24 22:46:09,077 WARNING database DDL Query made to DB:
create table `tabRepost Payment Ledger Items` (
			name varchar(140) primary key,
			creation datetime(6),
			modified datetime(6),
			modified_by varchar(140),
			owner varchar(140),
			docstatus int(1) not null default '0',
			idx int(8) not null default '0',
			`voucher_type` varchar(140),
`voucher_no` varchar(140),
parent varchar(140),
parentfield varchar(140),
parenttype varchar(140),
index parent(parent),

			index modified(modified))
			ENGINE=InnoDB
			ROW_FORMAT=DYNAMIC
			CHARACTER SET=utf8mb4
			COLLATE=utf8mb4_unicode_ci
2023-08-24 22:46:09,133 WARNING database DDL Query made to DB:
create table `tabPOS Search Fields` (
			name varchar(140) primary key,
			creation datetime(6),
			modified datetime(6),
			modified_by varchar(140),
			owner varchar(140),
			docstatus int(1) not null default '0',
			idx int(8) not null default '0',
			`field` varchar(140),
`fieldname` varchar(140),
parent varchar(140),
parentfield varchar(140),
parenttype varchar(140),
index parent(parent),

			index modified(modified))
			ENGINE=InnoDB
			ROW_FORMAT=DYNAMIC
			CHARACTER SET=utf8mb4
			COLLATE=utf8mb4_unicode_ci
2023-08-24 22:46:09,184 WARNING database DDL Query made to DB:
create table `tabSubscription Invoice` (
			name varchar(140) primary key,
			creation datetime(6),
			modified datetime(6),
			modified_by varchar(140),
			owner varchar(140),
			docstatus int(1) not null default '0',
			idx int(8) not null default '0',
			`document_type` varchar(140),
`invoice` varchar(140),
parent varchar(140),
parentfield varchar(140),
parenttype varchar(140),
index parent(parent),

			index modified(modified))
			ENGINE=InnoDB
			ROW_FORMAT=DYNAMIC
			CHARACTER SET=utf8mb4
			COLLATE=utf8mb4_unicode_ci
2023-08-24 22:46:09,248 WARNING database DDL Query made to DB:
create table `tabExchange Rate Revaluation Account` (
			name varchar(140) primary key,
			creation datetime(6),
			modified datetime(6),
			modified_by varchar(140),
			owner varchar(140),
			docstatus int(1) not null default '0',
			idx int(8) not null default '0',
			`account` varchar(140),
`party_type` varchar(140),
`party` varchar(140),
`account_currency` varchar(140),
`balance_in_account_currency` decimal(21,9) not null default 0,
`new_balance_in_account_currency` decimal(21,9) not null default 0,
`current_exchange_rate` decimal(21,9) not null default 0,
`new_exchange_rate` decimal(21,9) not null default 0,
`balance_in_base_currency` decimal(21,9) not null default 0,
`new_balance_in_base_currency` decimal(21,9) not null default 0,
`gain_loss` decimal(21,9) not null default 0,
`zero_balance` int(1) not null default 0,
parent varchar(140),
parentfield varchar(140),
parenttype varchar(140),
index parent(parent),

			index modified(modified))
			ENGINE=InnoDB
			ROW_FORMAT=DYNAMIC
			CHARACTER SET=utf8mb4
			COLLATE=utf8mb4_unicode_ci
2023-08-24 22:46:09,314 WARNING database DDL Query made to DB:
create table `tabPayment Terms Template Detail` (
			name varchar(140) primary key,
			creation datetime(6),
			modified datetime(6),
			modified_by varchar(140),
			owner varchar(140),
			docstatus int(1) not null default '0',
			idx int(8) not null default '0',
			`payment_term` varchar(140),
`description` text,
`invoice_portion` decimal(21,9) not null default 0,
`mode_of_payment` varchar(140),
`due_date_based_on` varchar(140),
`credit_days` int(11) not null default 0,
`credit_months` int(11) not null default 0,
`discount_type` varchar(140) default 'Percentage',
`discount` decimal(21,9) not null default 0,
`discount_validity_based_on` varchar(140) default 'Day(s) after invoice date',
`discount_validity` int(11) not null default 0,
parent varchar(140),
parentfield varchar(140),
parenttype varchar(140),
index parent(parent),

			index modified(modified))
			ENGINE=InnoDB
			ROW_FORMAT=DYNAMIC
			CHARACTER SET=utf8mb4
			COLLATE=utf8mb4_unicode_ci
2023-08-24 22:46:09,364 WARNING database DDL Query made to DB:
create table `tabBank Transaction Payments` (
			name varchar(140) primary key,
			creation datetime(6),
			modified datetime(6),
			modified_by varchar(140),
			owner varchar(140),
			docstatus int(1) not null default '0',
			idx int(8) not null default '0',
			`payment_document` varchar(140),
`payment_entry` varchar(140),
`allocated_amount` decimal(21,9) not null default 0,
`clearance_date` date,
parent varchar(140),
parentfield varchar(140),
parenttype varchar(140),
index parent(parent),

			index modified(modified))
			ENGINE=InnoDB
			ROW_FORMAT=DYNAMIC
			CHARACTER SET=utf8mb4
			COLLATE=utf8mb4_unicode_ci
2023-08-24 22:46:09,407 WARNING database DDL Query made to DB:
create table `tabCustomer Item` (
			name varchar(140) primary key,
			creation datetime(6),
			modified datetime(6),
			modified_by varchar(140),
			owner varchar(140),
			docstatus int(1) not null default '0',
			idx int(8) not null default '0',
			`customer` varchar(140),
parent varchar(140),
parentfield varchar(140),
parenttype varchar(140),
index parent(parent),

			index modified(modified))
			ENGINE=InnoDB
			ROW_FORMAT=DYNAMIC
			CHARACTER SET=utf8mb4
			COLLATE=utf8mb4_unicode_ci
2023-08-24 22:46:09,543 WARNING database DDL Query made to DB:
create table `tabJournal Entry` (
			name varchar(140) primary key,
			creation datetime(6),
			modified datetime(6),
			modified_by varchar(140),
			owner varchar(140),
			docstatus int(1) not null default '0',
			idx int(8) not null default '0',
			`is_system_generated` int(1) not null default 0,
`title` varchar(140),
`voucher_type` varchar(140) default 'Journal Entry',
`naming_series` varchar(140),
`finance_book` varchar(140),
`process_deferred_accounting` varchar(140),
`reversal_of` varchar(140),
`tax_withholding_category` varchar(140),
`from_template` varchar(140),
`company` varchar(140),
`posting_date` date,
`apply_tds` int(1) not null default 0,
`cheque_no` varchar(140),
`cheque_date` date,
`user_remark` text,
`total_debit` decimal(21,9) not null default 0,
`total_credit` decimal(21,9) not null default 0,
`difference` decimal(21,9) not null default 0,
`multi_currency` int(1) not null default 0,
`total_amount_currency` varchar(140),
`total_amount` decimal(21,9) not null default 0,
`total_amount_in_words` varchar(140),
`clearance_date` date,
`remark` text,
`paid_loan` varchar(140),
`inter_company_journal_entry_reference` varchar(140),
`bill_no` varchar(140),
`bill_date` date,
`due_date` date,
`write_off_based_on` varchar(140) default 'Accounts Receivable',
`write_off_amount` decimal(21,9) not null default 0,
`pay_to_recd_from` varchar(140),
`letter_head` varchar(140),
`select_print_heading` varchar(140),
`mode_of_payment` varchar(140),
`payment_order` varchar(140),
`is_opening` varchar(140) default 'No',
`stock_entry` varchar(140),
`auto_repeat` varchar(140),
`amended_from` varchar(140),
`_user_tags` text,
`_comments` text,
`_assign` text,
`_liked_by` text,
index `voucher_type`(`voucher_type`),
index `company`(`company`),
index `posting_date`(`posting_date`),
index `cheque_no`(`cheque_no`),
index `cheque_date`(`cheque_date`),
index `clearance_date`(`clearance_date`),
index `is_opening`(`is_opening`),

			index modified(modified))
			ENGINE=InnoDB
			ROW_FORMAT=DYNAMIC
			CHARACTER SET=utf8mb4
			COLLATE=utf8mb4_unicode_ci
2023-08-24 22:46:09,679 WARNING database DDL Query made to DB:
create table `tabAccount` (
			name varchar(140) primary key,
			creation datetime(6),
			modified datetime(6),
			modified_by varchar(140),
			owner varchar(140),
			docstatus int(1) not null default '0',
			idx int(8) not null default '0',
			`disabled` int(1) not null default 0,
`account_name` varchar(140),
`account_number` varchar(140),
`is_group` int(1) not null default 0,
`company` varchar(140),
`root_type` varchar(140),
`report_type` varchar(140),
`account_currency` varchar(140),
`parent_account` varchar(140),
`account_type` varchar(140),
`tax_rate` decimal(21,9) not null default 0,
`freeze_account` varchar(140),
`balance_must_be` varchar(140),
`lft` int(11) not null default 0,
`rgt` int(11) not null default 0,
`old_parent` varchar(140),
`include_in_gross` int(1) not null default 0,
`_user_tags` text,
`_comments` text,
`_assign` text,
`_liked_by` text,
index `parent_account`(`parent_account`),
index `lft`(`lft`),
index `rgt`(`rgt`),

			index modified(modified))
			ENGINE=InnoDB
			ROW_FORMAT=DYNAMIC
			CHARACTER SET=utf8mb4
			COLLATE=utf8mb4_unicode_ci
2023-08-24 22:46:09,720 WARNING database DDL Query made to DB:
ALTER TABLE `tabAccount`
				ADD INDEX `lft_rgt_index`(lft, rgt)
2023-08-24 22:46:09,752 WARNING database DDL Query made to DB:
create table `tabPSOA Cost Center` (
			name varchar(140) primary key,
			creation datetime(6),
			modified datetime(6),
			modified_by varchar(140),
			owner varchar(140),
			docstatus int(1) not null default '0',
			idx int(8) not null default '0',
			`cost_center_name` varchar(140),
parent varchar(140),
parentfield varchar(140),
parenttype varchar(140),
index parent(parent),

			index modified(modified))
			ENGINE=InnoDB
			ROW_FORMAT=DYNAMIC
			CHARACTER SET=utf8mb4
			COLLATE=utf8mb4_unicode_ci
2023-08-24 22:46:09,809 WARNING database DDL Query made to DB:
create table `tabAccounting Period` (
			name varchar(140) primary key,
			creation datetime(6),
			modified datetime(6),
			modified_by varchar(140),
			owner varchar(140),
			docstatus int(1) not null default '0',
			idx int(8) not null default '0',
			`period_name` varchar(140),
`start_date` date,
`end_date` date,
`company` varchar(140),
`_user_tags` text,
`_comments` text,
`_assign` text,
`_liked_by` text,

			index modified(modified))
			ENGINE=InnoDB
			ROW_FORMAT=DYNAMIC
			CHARACTER SET=utf8mb4
			COLLATE=utf8mb4_unicode_ci
2023-08-24 22:46:09,872 WARNING database DDL Query made to DB:
create table `tabCash Flow Mapping` (
			name varchar(140) primary key,
			creation datetime(6),
			modified datetime(6),
			modified_by varchar(140),
			owner varchar(140),
			docstatus int(1) not null default '0',
			idx int(8) not null default '0',
			`mapping_name` varchar(140),
`label` varchar(140),
`is_finance_cost` int(1) not null default 0,
`is_working_capital` int(1) not null default 0,
`is_finance_cost_adjustment` int(1) not null default 0,
`is_income_tax_liability` int(1) not null default 0,
`is_income_tax_expense` int(1) not null default 0,
`_user_tags` text,
`_comments` text,
`_assign` text,
`_liked_by` text,

			index modified(modified))
			ENGINE=InnoDB
			ROW_FORMAT=DYNAMIC
			CHARACTER SET=utf8mb4
			COLLATE=utf8mb4_unicode_ci
2023-08-24 22:46:10,064 WARNING database DDL Query made to DB:
create table `tabPOS Invoice Item` (
			name varchar(140) primary key,
			creation datetime(6),
			modified datetime(6),
			modified_by varchar(140),
			owner varchar(140),
			docstatus int(1) not null default '0',
			idx int(8) not null default '0',
			`barcode` varchar(140),
`has_item_scanned` int(1) not null default 0,
`item_code` varchar(140),
`item_name` varchar(140),
`customer_item_code` varchar(140),
`description` longtext,
`item_group` varchar(140),
`brand` varchar(140),
`image` text,
`qty` decimal(21,9) not null default 0,
`stock_uom` varchar(140),
`uom` varchar(140),
`conversion_factor` decimal(21,9) not null default 0,
`stock_qty` decimal(21,9) not null default 0,
`price_list_rate` decimal(21,9) not null default 0,
`base_price_list_rate` decimal(21,9) not null default 0,
`margin_type` varchar(140),
`margin_rate_or_amount` decimal(21,9) not null default 0,
`rate_with_margin` decimal(21,9) not null default 0,
`discount_percentage` decimal(21,9) not null default 0,
`discount_amount` decimal(21,9) not null default 0,
`base_rate_with_margin` decimal(21,9) not null default 0,
`rate` decimal(21,9) not null default 0,
`amount` decimal(21,9) not null default 0,
`item_tax_template` varchar(140),
`base_rate` decimal(21,9) not null default 0,
`base_amount` decimal(21,9) not null default 0,
`pricing_rules` text,
`is_free_item` int(1) not null default 0,
`grant_commission` int(1) not null default 0,
`net_rate` decimal(21,9) not null default 0,
`net_amount` decimal(21,9) not null default 0,
`base_net_rate` decimal(21,9) not null default 0,
`base_net_amount` decimal(21,9) not null default 0,
`delivered_by_supplier` int(1) not null default 0,
`income_account` varchar(140),
`is_fixed_asset` int(1) not null default 0,
`asset` varchar(140),
`finance_book` varchar(140),
`expense_account` varchar(140),
`deferred_revenue_account` varchar(140),
`service_stop_date` date,
`enable_deferred_revenue` int(1) not null default 0,
`service_start_date` date,
`service_end_date` date,
`weight_per_unit` decimal(21,9) not null default 0,
`total_weight` decimal(21,9) not null default 0,
`weight_uom` varchar(140),
`warehouse` varchar(140),
`target_warehouse` varchar(140),
`quality_inspection` varchar(140),
`batch_no` varchar(140),
`allow_zero_valuation_rate` int(1) not null default 0,
`serial_no` text,
`item_tax_rate` text,
`actual_batch_qty` decimal(21,9) not null default 0,
`actual_qty` decimal(21,9) not null default 0,
`sales_order` varchar(140),
`so_detail` varchar(140),
`pos_invoice_item` varchar(140),
`delivery_note` varchar(140),
`dn_detail` varchar(140),
`delivered_qty` decimal(21,9) not null default 0,
`cost_center` varchar(140),
`project` varchar(140),
`page_break` int(1) not null default 0,
index `item_code`(`item_code`),
index `sales_order`(`sales_order`),
index `so_detail`(`so_detail`),
index `delivery_note`(`delivery_note`),
index `dn_detail`(`dn_detail`),
parent varchar(140),
parentfield varchar(140),
parenttype varchar(140),
index parent(parent),

			index modified(modified))
			ENGINE=InnoDB
			ROW_FORMAT=DYNAMIC
			CHARACTER SET=utf8mb4
			COLLATE=utf8mb4_unicode_ci
2023-08-24 22:46:10,129 WARNING database DDL Query made to DB:
create table `tabBank Clearance Detail` (
			name varchar(140) primary key,
			creation datetime(6),
			modified datetime(6),
			modified_by varchar(140),
			owner varchar(140),
			docstatus int(1) not null default '0',
			idx int(8) not null default '0',
			`payment_document` varchar(140),
`payment_entry` varchar(140),
`against_account` varchar(140),
`amount` varchar(140),
`posting_date` date,
`cheque_number` varchar(140),
`cheque_date` date,
`clearance_date` date,
parent varchar(140),
parentfield varchar(140),
parenttype varchar(140),
index parent(parent),

			index modified(modified))
			ENGINE=InnoDB
			ROW_FORMAT=DYNAMIC
			CHARACTER SET=utf8mb4
			COLLATE=utf8mb4_unicode_ci
2023-08-24 22:46:10,176 WARNING database DDL Query made to DB:
create table `tabBank Account Type` (
			name varchar(140) primary key,
			creation datetime(6),
			modified datetime(6),
			modified_by varchar(140),
			owner varchar(140),
			docstatus int(1) not null default '0',
			idx int(8) not null default '0',
			`account_type` varchar(140) unique,
`_user_tags` text,
`_comments` text,
`_assign` text,
`_liked_by` text,

			index modified(modified))
			ENGINE=InnoDB
			ROW_FORMAT=DYNAMIC
			CHARACTER SET=utf8mb4
			COLLATE=utf8mb4_unicode_ci
2023-08-24 22:46:10,267 WARNING database DDL Query made to DB:
create table `tabPromotional Scheme Price Discount` (
			name varchar(140) primary key,
			creation datetime(6),
			modified datetime(6),
			modified_by varchar(140),
			owner varchar(140),
			docstatus int(1) not null default '0',
			idx int(8) not null default '0',
			`disable` int(1) not null default 0,
`apply_multiple_pricing_rules` int(1) not null default 0,
`rule_description` text,
`min_qty` decimal(21,9) not null default 0,
`max_qty` decimal(21,9) not null default 0,
`min_amount` decimal(21,9) not null default 0,
`max_amount` decimal(21,9) not null default 0,
`rate_or_discount` varchar(140) default 'Discount Percentage',
`rate` decimal(21,9) not null default 0,
`discount_amount` decimal(21,9) not null default 0,
`discount_percentage` decimal(21,9) not null default 0,
`warehouse` varchar(140),
`threshold_percentage` decimal(21,9) not null default 0,
`validate_applied_rule` int(1) not null default 0,
`priority` varchar(140),
`apply_discount_on_rate` int(1) not null default 0,
parent varchar(140),
parentfield varchar(140),
parenttype varchar(140),
index parent(parent),

			index modified(modified))
			ENGINE=InnoDB
			ROW_FORMAT=DYNAMIC
			CHARACTER SET=utf8mb4
			COLLATE=utf8mb4_unicode_ci
2023-08-24 22:46:10,370 WARNING database DDL Query made to DB:
create table `tabProcess Payment Reconciliation` (
			name varchar(140) primary key,
			creation datetime(6),
			modified datetime(6),
			modified_by varchar(140),
			owner varchar(140),
			docstatus int(1) not null default '0',
			idx int(8) not null default '0',
			`company` varchar(140),
`party_type` varchar(140),
`party` varchar(140),
`receivable_payable_account` varchar(140),
`from_invoice_date` date,
`to_invoice_date` date,
`from_payment_date` date,
`to_payment_date` date,
`cost_center` varchar(140),
`bank_cash_account` varchar(140),
`status` varchar(140),
`error_log` longtext,
`amended_from` varchar(140),
`_user_tags` text,
`_comments` text,
`_assign` text,
`_liked_by` text,

			index modified(modified))
			ENGINE=InnoDB
			ROW_FORMAT=DYNAMIC
			CHARACTER SET=utf8mb4
			COLLATE=utf8mb4_unicode_ci
2023-08-24 22:46:10,427 WARNING database DDL Query made to DB:
create table `tabPOS Payment Method` (
			name varchar(140) primary key,
			creation datetime(6),
			modified datetime(6),
			modified_by varchar(140),
			owner varchar(140),
			docstatus int(1) not null default '0',
			idx int(8) not null default '0',
			`default` int(1) not null default 0,
`allow_in_returns` int(1) not null default 0,
`mode_of_payment` varchar(140),
parent varchar(140),
parentfield varchar(140),
parenttype varchar(140),
index parent(parent),

			index modified(modified))
			ENGINE=InnoDB
			ROW_FORMAT=DYNAMIC
			CHARACTER SET=utf8mb4
			COLLATE=utf8mb4_unicode_ci
2023-08-24 22:46:10,479 WARNING database DDL Query made to DB:
create table `tabRepost Accounting Ledger` (
			name varchar(140) primary key,
			creation datetime(6),
			modified datetime(6),
			modified_by varchar(140),
			owner varchar(140),
			docstatus int(1) not null default '0',
			idx int(8) not null default '0',
			`company` varchar(140),
`delete_cancelled_entries` int(1) not null default 0,
`amended_from` varchar(140),
`_user_tags` text,
`_comments` text,
`_assign` text,
`_liked_by` text,

			index modified(modified))
			ENGINE=InnoDB
			ROW_FORMAT=DYNAMIC
			CHARACTER SET=utf8mb4
			COLLATE=utf8mb4_unicode_ci
2023-08-24 22:46:10,560 WARNING database DDL Query made to DB:
create table `tabSales Taxes and Charges` (
			name varchar(140) primary key,
			creation datetime(6),
			modified datetime(6),
			modified_by varchar(140),
			owner varchar(140),
			docstatus int(1) not null default '0',
			idx int(8) not null default '0',
			`charge_type` varchar(140),
`row_id` varchar(140),
`account_head` varchar(140),
`description` text,
`included_in_print_rate` int(1) not null default 0,
`included_in_paid_amount` int(1) not null default 0,
`cost_center` varchar(140),
`rate` decimal(21,9) not null default 0,
`account_currency` varchar(140),
`tax_amount` decimal(21,9) not null default 0,
`total` decimal(21,9) not null default 0,
`tax_amount_after_discount_amount` decimal(21,9) not null default 0,
`base_tax_amount` decimal(21,9) not null default 0,
`base_total` decimal(21,9) not null default 0,
`base_tax_amount_after_discount_amount` decimal(21,9) not null default 0,
`item_wise_tax_detail` longtext,
`dont_recompute_tax` int(1) not null default 0,
index `account_head`(`account_head`),
parent varchar(140),
parentfield varchar(140),
parenttype varchar(140),
index parent(parent),

			index modified(modified))
			ENGINE=InnoDB
			ROW_FORMAT=DYNAMIC
			CHARACTER SET=utf8mb4
			COLLATE=utf8mb4_unicode_ci
2023-08-24 22:46:10,609 WARNING database DDL Query made to DB:
create table `tabCurrency Exchange Settings Details` (
			name varchar(140) primary key,
			creation datetime(6),
			modified datetime(6),
			modified_by varchar(140),
			owner varchar(140),
			docstatus int(1) not null default '0',
			idx int(8) not null default '0',
			`key` varchar(140),
`value` varchar(140),
parent varchar(140),
parentfield varchar(140),
parenttype varchar(140),
index parent(parent),

			index modified(modified))
			ENGINE=InnoDB
			ROW_FORMAT=DYNAMIC
			CHARACTER SET=utf8mb4
			COLLATE=utf8mb4_unicode_ci
2023-08-24 22:46:10,658 WARNING database DDL Query made to DB:
create table `tabPOS Closing Entry Detail` (
			name varchar(140) primary key,
			creation datetime(6),
			modified datetime(6),
			modified_by varchar(140),
			owner varchar(140),
			docstatus int(1) not null default '0',
			idx int(8) not null default '0',
			`mode_of_payment` varchar(140),
`opening_amount` decimal(21,9) not null default 0,
`expected_amount` decimal(21,9) not null default 0,
`closing_amount` decimal(21,9) not null default 0,
`difference` decimal(21,9) not null default 0,
parent varchar(140),
parentfield varchar(140),
parenttype varchar(140),
index parent(parent),

			index modified(modified))
			ENGINE=InnoDB
			ROW_FORMAT=DYNAMIC
			CHARACTER SET=utf8mb4
			COLLATE=utf8mb4_unicode_ci
2023-08-24 22:46:10,714 WARNING database DDL Query made to DB:
create table `tabLoyalty Point Entry` (
			name varchar(140) primary key,
			creation datetime(6),
			modified datetime(6),
			modified_by varchar(140),
			owner varchar(140),
			docstatus int(1) not null default '0',
			idx int(8) not null default '0',
			`loyalty_program` varchar(140),
`loyalty_program_tier` varchar(140),
`customer` varchar(140),
`invoice_type` varchar(140),
`invoice` varchar(140),
`redeem_against` varchar(140),
`loyalty_points` int(11) not null default 0,
`purchase_amount` decimal(21,9) not null default 0,
`expiry_date` date,
`posting_date` date,
`company` varchar(140),
`_user_tags` text,
`_comments` text,
`_assign` text,
`_liked_by` text,

			index modified(modified))
			ENGINE=InnoDB
			ROW_FORMAT=DYNAMIC
			CHARACTER SET=utf8mb4
			COLLATE=utf8mb4_unicode_ci
2023-08-24 22:46:10,770 WARNING database DDL Query made to DB:
create table `tabMode of Payment Account` (
			name varchar(140) primary key,
			creation datetime(6),
			modified datetime(6),
			modified_by varchar(140),
			owner varchar(140),
			docstatus int(1) not null default '0',
			idx int(8) not null default '0',
			`company` varchar(140),
`default_account` varchar(140),
parent varchar(140),
parentfield varchar(140),
parenttype varchar(140),
index parent(parent),

			index modified(modified))
			ENGINE=InnoDB
			ROW_FORMAT=DYNAMIC
			CHARACTER SET=utf8mb4
			COLLATE=utf8mb4_unicode_ci
2023-08-24 22:46:10,822 WARNING database DDL Query made to DB:
create table `tabAccounting Dimension Detail` (
			name varchar(140) primary key,
			creation datetime(6),
			modified datetime(6),
			modified_by varchar(140),
			owner varchar(140),
			docstatus int(1) not null default '0',
			idx int(8) not null default '0',
			`company` varchar(140),
`reference_document` varchar(140),
`default_dimension` varchar(140),
`mandatory_for_bs` int(1) not null default 0,
`mandatory_for_pl` int(1) not null default 0,
`automatically_post_balancing_accounting_entry` int(1) not null default 0,
`offsetting_account` varchar(140),
parent varchar(140),
parentfield varchar(140),
parenttype varchar(140),
index parent(parent),

			index modified(modified))
			ENGINE=InnoDB
			ROW_FORMAT=DYNAMIC
			CHARACTER SET=utf8mb4
			COLLATE=utf8mb4_unicode_ci
2023-08-24 22:46:10,916 WARNING database DDL Query made to DB:
create table `tabAccount Closing Balance` (
			name varchar(140) primary key,
			creation datetime(6),
			modified datetime(6),
			modified_by varchar(140),
			owner varchar(140),
			docstatus int(1) not null default '0',
			idx int(8) not null default '0',
			`closing_date` date,
`account` varchar(140),
`cost_center` varchar(140),
`debit` decimal(21,9) not null default 0,
`credit` decimal(21,9) not null default 0,
`account_currency` varchar(140),
`debit_in_account_currency` decimal(21,9) not null default 0,
`credit_in_account_currency` decimal(21,9) not null default 0,
`project` varchar(140),
`company` varchar(140),
`finance_book` varchar(140),
`period_closing_voucher` varchar(140),
`is_period_closing_voucher_entry` int(1) not null default 0,
`_user_tags` text,
`_comments` text,
`_assign` text,
`_liked_by` text,
index `closing_date`(`closing_date`),
index `account`(`account`),
index `company`(`company`),
index `period_closing_voucher`(`period_closing_voucher`),

			index modified(modified))
			ENGINE=InnoDB
			ROW_FORMAT=DYNAMIC
			CHARACTER SET=utf8mb4
			COLLATE=utf8mb4_unicode_ci
2023-08-24 22:46:11,013 WARNING database DDL Query made to DB:
create table `tabBank` (
			name varchar(140) primary key,
			creation datetime(6),
			modified datetime(6),
			modified_by varchar(140),
			owner varchar(140),
			docstatus int(1) not null default '0',
			idx int(8) not null default '0',
			`bank_name` varchar(140) unique,
`swift_number` varchar(140) unique,
`website` varchar(140),
`plaid_access_token` varchar(140),
`_user_tags` text,
`_comments` text,
`_assign` text,
`_liked_by` text,

			index modified(modified))
			ENGINE=InnoDB
			ROW_FORMAT=DYNAMIC
			CHARACTER SET=utf8mb4
			COLLATE=utf8mb4_unicode_ci
2023-08-24 22:46:11,060 WARNING database DDL Query made to DB:
create table `tabAllowed To Transact With` (
			name varchar(140) primary key,
			creation datetime(6),
			modified datetime(6),
			modified_by varchar(140),
			owner varchar(140),
			docstatus int(1) not null default '0',
			idx int(8) not null default '0',
			`company` varchar(140),
parent varchar(140),
parentfield varchar(140),
parenttype varchar(140),
index parent(parent),

			index modified(modified))
			ENGINE=InnoDB
			ROW_FORMAT=DYNAMIC
			CHARACTER SET=utf8mb4
			COLLATE=utf8mb4_unicode_ci
2023-08-24 22:46:11,124 WARNING database DDL Query made to DB:
create table `tabShipping Rule` (
			name varchar(140) primary key,
			creation datetime(6),
			modified datetime(6),
			modified_by varchar(140),
			owner varchar(140),
			docstatus int(1) not null default '0',
			idx int(8) not null default '0',
			`label` varchar(140) unique,
`disabled` int(1) not null default 0,
`shipping_rule_type` varchar(140),
`company` varchar(140),
`account` varchar(140),
`cost_center` varchar(140),
`calculate_based_on` varchar(140) default 'Fixed',
`shipping_amount` decimal(21,9) not null default 0,
`_user_tags` text,
`_comments` text,
`_assign` text,
`_liked_by` text,

			index modified(modified))
			ENGINE=InnoDB
			ROW_FORMAT=DYNAMIC
			CHARACTER SET=utf8mb4
			COLLATE=utf8mb4_unicode_ci
2023-08-24 22:46:11,984 WARNING database DDL Query made to DB:
create table `tabOpportunity Lost Reason Detail` (
			name varchar(140) primary key,
			creation datetime(6),
			modified datetime(6),
			modified_by varchar(140),
			owner varchar(140),
			docstatus int(1) not null default '0',
			idx int(8) not null default '0',
			`lost_reason` varchar(140),
parent varchar(140),
parentfield varchar(140),
parenttype varchar(140),
index parent(parent),

			index modified(modified))
			ENGINE=InnoDB
			ROW_FORMAT=DYNAMIC
			CHARACTER SET=utf8mb4
			COLLATE=utf8mb4_unicode_ci
2023-08-24 22:46:12,035 WARNING database DDL Query made to DB:
create table `tabCampaign` (
			name varchar(140) primary key,
			creation datetime(6),
			modified datetime(6),
			modified_by varchar(140),
			owner varchar(140),
			docstatus int(1) not null default '0',
			idx int(8) not null default '0',
			`campaign_name` varchar(140),
`naming_series` varchar(140),
`description` text,
`_user_tags` text,
`_comments` text,
`_assign` text,
`_liked_by` text,

			index modified(modified))
			ENGINE=InnoDB
			ROW_FORMAT=DYNAMIC
			CHARACTER SET=utf8mb4
			COLLATE=utf8mb4_unicode_ci
2023-08-24 22:46:12,130 WARNING database DDL Query made to DB:
create table `tabOpportunity Item` (
			name varchar(140) primary key,
			creation datetime(6),
			modified datetime(6),
			modified_by varchar(140),
			owner varchar(140),
			docstatus int(1) not null default '0',
			idx int(8) not null default '0',
			`item_code` varchar(140),
`item_name` varchar(140),
`uom` varchar(140),
`qty` decimal(21,9) not null default 1.0,
`brand` varchar(140),
`item_group` varchar(140),
`description` longtext,
`image` text,
`base_rate` decimal(21,9) not null default 0,
`base_amount` decimal(21,9) not null default 0,
`rate` decimal(21,9) not null default 0,
`amount` decimal(21,9) not null default 0,
parent varchar(140),
parentfield varchar(140),
parenttype varchar(140),
index parent(parent),

			index modified(modified))
			ENGINE=InnoDB
			ROW_FORMAT=DYNAMIC
			CHARACTER SET=utf8mb4
			COLLATE=utf8mb4_unicode_ci
2023-08-24 22:46:12,255 WARNING database DDL Query made to DB:
create table `tabLead` (
			name varchar(140) primary key,
			creation datetime(6),
			modified datetime(6),
			modified_by varchar(140),
			owner varchar(140),
			docstatus int(1) not null default '0',
			idx int(8) not null default '0',
			`naming_series` varchar(140),
`salutation` varchar(140),
`first_name` varchar(140),
`middle_name` varchar(140),
`last_name` varchar(140),
`lead_name` varchar(140),
`job_title` varchar(140),
`gender` varchar(140),
`source` varchar(140),
`lead_owner` varchar(140),
`status` varchar(140) default 'Lead',
`customer` varchar(140),
`type` varchar(140),
`request_type` varchar(140),
`email_id` varchar(140),
`website` varchar(140),
`mobile_no` varchar(140),
`whatsapp_no` varchar(140),
`phone` varchar(140),
`phone_ext` varchar(140),
`company_name` varchar(140),
`no_of_employees` varchar(140),
`annual_revenue` decimal(21,9) not null default 0,
`industry` varchar(140),
`market_segment` varchar(140),
`territory` varchar(140),
`fax` varchar(140),
`city` varchar(140),
`state` varchar(140),
`country` varchar(140),
`qualification_status` varchar(140),
`qualified_by` varchar(140),
`qualified_on` date,
`campaign_name` varchar(140),
`company` varchar(140),
`language` varchar(140),
`image` text,
`title` varchar(140),
`disabled` int(1) not null default 0,
`unsubscribed` int(1) not null default 0,
`blog_subscriber` int(1) not null default 0,
`_user_tags` text,
`_comments` text,
`_assign` text,
`_liked_by` text,
index `lead_name`(`lead_name`),
index `lead_owner`(`lead_owner`),
index `status`(`status`),
index `email_id`(`email_id`),

			index modified(modified))
			ENGINE=InnoDB
			ROW_FORMAT=DYNAMIC
			CHARACTER SET=utf8mb4
			COLLATE=utf8mb4_unicode_ci
2023-08-24 22:46:12,336 WARNING database DDL Query made to DB:
create table `tabOpportunity Lost Reason` (
			name varchar(140) primary key,
			creation datetime(6),
			modified datetime(6),
			modified_by varchar(140),
			owner varchar(140),
			docstatus int(1) not null default '0',
			idx int(8) not null default '0',
			`lost_reason` varchar(140) unique,
`_user_tags` text,
`_comments` text,
`_assign` text,
`_liked_by` text,

			index modified(modified))
			ENGINE=InnoDB
			ROW_FORMAT=DYNAMIC
			CHARACTER SET=utf8mb4
			COLLATE=utf8mb4_unicode_ci
2023-08-24 22:46:12,411 WARNING database DDL Query made to DB:
create table `tabCompetitor Detail` (
			name varchar(140) primary key,
			creation datetime(6),
			modified datetime(6),
			modified_by varchar(140),
			owner varchar(140),
			docstatus int(1) not null default '0',
			idx int(8) not null default '0',
			`competitor` varchar(140),
parent varchar(140),
parentfield varchar(140),
parenttype varchar(140),
index parent(parent),

			index modified(modified))
			ENGINE=InnoDB
			ROW_FORMAT=DYNAMIC
			CHARACTER SET=utf8mb4
			COLLATE=utf8mb4_unicode_ci
2023-08-24 22:46:12,539 WARNING database DDL Query made to DB:
create table `tabContract` (
			name varchar(140) primary key,
			creation datetime(6),
			modified datetime(6),
			modified_by varchar(140),
			owner varchar(140),
			docstatus int(1) not null default '0',
			idx int(8) not null default '0',
			`party_type` varchar(140) default 'Customer',
`is_signed` int(1) not null default 0,
`party_name` varchar(140),
`party_user` varchar(140),
`status` varchar(140),
`fulfilment_status` varchar(140),
`start_date` date,
`end_date` date,
`signee` varchar(140),
`signed_on` datetime(6),
`ip_address` varchar(140),
`contract_template` varchar(140),
`contract_terms` longtext,
`requires_fulfilment` int(1) not null default 0,
`fulfilment_deadline` date,
`signee_company` longtext,
`signed_by_company` varchar(140),
`document_type` varchar(140),
`document_name` varchar(140),
`amended_from` varchar(140),
`_user_tags` text,
`_comments` text,
`_assign` text,
`_liked_by` text,
`_seen` text,

			index modified(modified))
			ENGINE=InnoDB
			ROW_FORMAT=DYNAMIC
			CHARACTER SET=utf8mb4
			COLLATE=utf8mb4_unicode_ci
2023-08-24 22:46:12,614 WARNING database DDL Query made to DB:
create table `tabAvailability Of Slots` (
			name varchar(140) primary key,
			creation datetime(6),
			modified datetime(6),
			modified_by varchar(140),
			owner varchar(140),
			docstatus int(1) not null default '0',
			idx int(8) not null default '0',
			`day_of_week` varchar(140),
`from_time` time(6),
`to_time` time(6),
parent varchar(140),
parentfield varchar(140),
parenttype varchar(140),
index parent(parent),

			index modified(modified))
			ENGINE=InnoDB
			ROW_FORMAT=DYNAMIC
			CHARACTER SET=utf8mb4
			COLLATE=utf8mb4_unicode_ci
2023-08-24 22:46:12,659 WARNING database DDL Query made to DB:
create table `tabCompetitor` (
			name varchar(140) primary key,
			creation datetime(6),
			modified datetime(6),
			modified_by varchar(140),
			owner varchar(140),
			docstatus int(1) not null default '0',
			idx int(8) not null default '0',
			`competitor_name` varchar(140) unique,
`website` varchar(140),
`_user_tags` text,
`_comments` text,
`_assign` text,
`_liked_by` text,

			index modified(modified))
			ENGINE=InnoDB
			ROW_FORMAT=DYNAMIC
			CHARACTER SET=utf8mb4
			COLLATE=utf8mb4_unicode_ci
2023-08-24 22:46:12,724 WARNING database DDL Query made to DB:
create table `tabMarket Segment` (
			name varchar(140) primary key,
			creation datetime(6),
			modified datetime(6),
			modified_by varchar(140),
			owner varchar(140),
			docstatus int(1) not null default '0',
			idx int(8) not null default '0',
			`market_segment` varchar(140) unique,
`_user_tags` text,
`_comments` text,
`_assign` text,
`_liked_by` text,

			index modified(modified))
			ENGINE=InnoDB
			ROW_FORMAT=DYNAMIC
			CHARACTER SET=utf8mb4
			COLLATE=utf8mb4_unicode_ci
2023-08-24 22:46:12,794 WARNING database DDL Query made to DB:
create table `tabCampaign Email Schedule` (
			name varchar(140) primary key,
			creation datetime(6),
			modified datetime(6),
			modified_by varchar(140),
			owner varchar(140),
			docstatus int(1) not null default '0',
			idx int(8) not null default '0',
			`email_template` varchar(140),
`send_after_days` int(11) not null default 0,
parent varchar(140),
parentfield varchar(140),
parenttype varchar(140),
index parent(parent),

			index modified(modified))
			ENGINE=InnoDB
			ROW_FORMAT=DYNAMIC
			CHARACTER SET=utf8mb4
			COLLATE=utf8mb4_unicode_ci
2023-08-24 22:46:12,842 WARNING database DDL Query made to DB:
create sequence if not exists prospect_opportunity_id_seq nocache nocycle
2023-08-24 22:46:12,851 WARNING database DDL Query made to DB:
create table `tabProspect Opportunity` (
			name bigint primary key,
			creation datetime(6),
			modified datetime(6),
			modified_by varchar(140),
			owner varchar(140),
			docstatus int(1) not null default '0',
			idx int(8) not null default '0',
			`opportunity` varchar(140),
`amount` decimal(21,9) not null default 0,
`stage` varchar(140),
`deal_owner` varchar(140),
`probability` decimal(21,9) not null default 0,
`expected_closing` date,
`currency` varchar(140),
`contact_person` varchar(140),
parent varchar(140),
parentfield varchar(140),
parenttype varchar(140),
index parent(parent),

			index modified(modified))
			ENGINE=InnoDB
			ROW_FORMAT=DYNAMIC
			CHARACTER SET=utf8mb4
			COLLATE=utf8mb4_unicode_ci
2023-08-24 22:46:12,926 WARNING database DDL Query made to DB:
create table `tabAppointment` (
			name varchar(140) primary key,
			creation datetime(6),
			modified datetime(6),
			modified_by varchar(140),
			owner varchar(140),
			docstatus int(1) not null default '0',
			idx int(8) not null default '0',
			`scheduled_time` datetime(6),
`status` varchar(140),
`customer_name` varchar(140),
`customer_phone_number` varchar(140),
`customer_skype` varchar(140),
`customer_email` varchar(140),
`customer_details` longtext,
`appointment_with` varchar(140),
`party` varchar(140),
`calendar_event` varchar(140),
`_user_tags` text,
`_comments` text,
`_assign` text,
`_liked_by` text,

			index modified(modified))
			ENGINE=InnoDB
			ROW_FORMAT=DYNAMIC
			CHARACTER SET=utf8mb4
			COLLATE=utf8mb4_unicode_ci
2023-08-24 22:46:13,006 WARNING database DDL Query made to DB:
create table `tabSales Stage` (
			name varchar(140) primary key,
			creation datetime(6),
			modified datetime(6),
			modified_by varchar(140),
			owner varchar(140),
			docstatus int(1) not null default '0',
			idx int(8) not null default '0',
			`stage_name` varchar(140) unique,
`_user_tags` text,
`_comments` text,
`_assign` text,
`_liked_by` text,

			index modified(modified))
			ENGINE=InnoDB
			ROW_FORMAT=DYNAMIC
			CHARACTER SET=utf8mb4
			COLLATE=utf8mb4_unicode_ci
2023-08-24 22:46:13,071 WARNING database DDL Query made to DB:
create table `tabContract Fulfilment Checklist` (
			name varchar(140) primary key,
			creation datetime(6),
			modified datetime(6),
			modified_by varchar(140),
			owner varchar(140),
			docstatus int(1) not null default '0',
			idx int(8) not null default '0',
			`fulfilled` int(1) not null default 0,
`requirement` varchar(140),
`notes` text,
`amended_from` varchar(140),
parent varchar(140),
parentfield varchar(140),
parenttype varchar(140),
index parent(parent),

			index modified(modified))
			ENGINE=InnoDB
			ROW_FORMAT=DYNAMIC
			CHARACTER SET=utf8mb4
			COLLATE=utf8mb4_unicode_ci
2023-08-24 22:46:13,144 WARNING database DDL Query made to DB:
create table `tabSocial Media Post` (
			name varchar(140) primary key,
			creation datetime(6),
			modified datetime(6),
			modified_by varchar(140),
			owner varchar(140),
			docstatus int(1) not null default '0',
			idx int(8) not null default '0',
			`title` varchar(140),
`campaign_name` varchar(140),
`scheduled_time` datetime(6),
`post_status` varchar(140),
`twitter` int(1) not null default 1,
`linkedin` int(1) not null default 1,
`twitter_post_id` varchar(140),
`linkedin_post_id` varchar(140),
`text` text,
`linkedin_post` text,
`image` text,
`amended_from` varchar(140),
`_user_tags` text,
`_comments` text,
`_assign` text,
`_liked_by` text,

			index modified(modified))
			ENGINE=InnoDB
			ROW_FORMAT=DYNAMIC
			CHARACTER SET=utf8mb4
			COLLATE=utf8mb4_unicode_ci
